state,nll,id,status,state_undetailed
Lc1_1p,-11122.0,11,CONVERGED,Lc1
Lc1_3p,-11114.3,102,CONVERGED,Lc1
Lc1_3p,-11114.3,105,CONVERGED,Lc1
Lc1_3p,-11114.3,106,CONVERGED,Lc1
Lc1_3p,-11114.3,109,CONVERGED,Lc1
Lc1_3p,-11114.3,110,CONVERGED,Lc1
Lc1_3p,-11114.3,112,CONVERGED,Lc1
Lc1_3p,-11114.3,120,CONVERGED,Lc1
Lc1_3p,-11114.3,127,CONVERGED,Lc1
Lc1_3p,-11114.3,129,CONVERGED,Lc1
Lc1_3p,-11114.3,130,CONVERGED,Lc1
Lc1_3p,-11114.3,136,CONVERGED,Lc1
Lc1_3p,-11114.3,138,CONVERGED,Lc1
Lc1_3p,-11114.3,140,CONVERGED,Lc1
Lc1_3p,-11114.3,141,CONVERGED,Lc1
Lc1_3p,-11114.3,147,CONVERGED,Lc1
Lc1_3p,-11114.3,148,CONVERGED,Lc1
Lc1_3p,-11114.3,152,CONVERGED,Lc1
Lc1_3p,-11114.3,153,CONVERGED,Lc1
Lc1_3p,-11114.3,155,CONVERGED,Lc1
Lc1_3p,-11114.3,158,CONVERGED,Lc1
Lc1_3p,-11114.3,160,CONVERGED,Lc1
Lc1_3p,-11114.3,161,CONVERGED,Lc1
Lc1_3p,-11114.3,162,CONVERGED,Lc1
Lc1_3p,-11114.3,165,CONVERGED,Lc1
Lc1_3p,-11114.3,168,CONVERGED,Lc1
Lc1_3p,-11114.3,172,CONVERGED,Lc1
Lc1_3p,-11114.3,174,CONVERGED,Lc1
Lc1_3p,-11114.3,175,CONVERGED,Lc1
Lc1_3p,-11114.3,176,CONVERGED,Lc1
Lc1_3p,-11114.3,177,CONVERGED,Lc1
Lc1_3p,-11114.3,180,CONVERGED,Lc1
Lc1_3p,-11114.3,185,CONVERGED,Lc1
Lc1_3p,-11114.3,197,CONVERGED,Lc1
Lc2765_3p,-11080.8,701,CONVERGED,Lc2765
Lc2765_3p,-11080.8,703,CONVERGED,Lc2765
Lc2765_3p,-11080.8,710,CONVERGED,Lc2765
Lc2765_3p,-11080.8,730,CONVERGED,Lc2765
Lc2765_3p,-11080.8,739,CONVERGED,Lc2765
Lc2765_3p,-11080.8,751,CONVERGED,Lc2765
Lc2765_3p,-11080.8,752,CONVERGED,Lc2765
Lc2765_3p,-11080.8,784,CONVERGED,Lc2765
Lc2765_3p,-11080.8,788,CONVERGED,Lc2765
Lc2765_3p,-11080.8,792,CONVERGED,Lc2765
Lc2765_3p,-11080.8,796,CONVERGED,Lc2765
Lc2765_3p,-11080.8,799,CONVERGED,Lc2765
Lc3_1p,-11112.7,221,CONVERGED,Lc3
Lc3_1p,-11112.7,228,CONVERGED,Lc3
Lc3_1p,-11112.7,235,CONVERGED,Lc3
Lc3_3m,-11120.6,418,CONVERGED,Lc3
Lc3_3p,-11122.5,322,CONVERGED,Lc3
Lc3_3p,-11122.5,328,CONVERGED,Lc3
Lc3_3p,-11122.5,339,CONVERGED,Lc3
Lc3_3p,-11122.5,394,CONVERGED,Lc3
