id,m0_2900,width_2900,m0_3130,width_3130,m0_3189,width_3189,width_NR0m,state,state_undetailed
11,2.8443,0.033917,3.2389,0.18850,2.9878,0.14479,1.4565,Lc1_1p,Lc1
102,2.8050,0.030407,3.2432,0.19229,2.9762,0.14778,1.6292,Lc1_3p,Lc1
105,2.8050,0.030471,3.2431,0.19233,2.9762,0.14775,1.5845,Lc1_3p,Lc1
106,2.8050,0.030462,3.2432,0.19214,2.9763,0.14779,1.6251,Lc1_3p,Lc1
109,2.8050,0.030488,3.2434,0.19228,2.9762,0.14769,1.5696,Lc1_3p,Lc1
110,2.8050,0.030537,3.2433,0.19223,2.9760,0.14794,1.5489,Lc1_3p,Lc1
112,2.8050,0.030413,3.2432,0.19236,2.9762,0.14797,1.6218,Lc1_3p,Lc1
120,2.8050,0.030477,3.2434,0.19217,2.9763,0.14773,1.5518,Lc1_3p,Lc1
127,2.8050,0.030917,3.2431,0.19283,2.9758,0.14813,1.3282,Lc1_3p,Lc1
129,2.8050,0.030431,3.2434,0.19224,2.9761,0.14784,1.5976,Lc1_3p,Lc1
130,2.8050,0.030622,3.2430,0.19241,2.9759,0.14821,1.4757,Lc1_3p,Lc1
136,2.8050,0.030735,3.2432,0.19286,2.9757,0.14809,1.3524,Lc1_3p,Lc1
138,2.8050,0.030458,3.2431,0.19246,2.9760,0.14786,1.5472,Lc1_3p,Lc1
140,2.8050,0.030421,3.2434,0.19207,2.9763,0.14765,1.5799,Lc1_3p,Lc1
141,2.8050,0.030535,3.2432,0.19216,2.9762,0.14809,1.5769,Lc1_3p,Lc1
147,2.8050,0.030458,3.2433,0.19220,2.9761,0.14792,1.5351,Lc1_3p,Lc1
148,2.8050,0.030412,3.2432,0.19238,2.9762,0.14779,1.5986,Lc1_3p,Lc1
152,2.8050,0.030626,3.2431,0.19229,2.9762,0.14798,1.5015,Lc1_3p,Lc1
153,2.8050,0.030499,3.2433,0.19207,2.9762,0.14807,1.5017,Lc1_3p,Lc1
155,2.8050,0.030535,3.2432,0.19235,2.9760,0.14796,1.5382,Lc1_3p,Lc1
158,2.8050,0.030505,3.2434,0.19237,2.9762,0.14765,1.4700,Lc1_3p,Lc1
160,2.8050,0.030687,3.2431,0.19243,2.9759,0.14819,1.4471,Lc1_3p,Lc1
161,2.8050,0.030612,3.2432,0.19225,2.9761,0.14808,1.4633,Lc1_3p,Lc1
162,2.8050,0.030550,3.2432,0.19236,2.9760,0.14798,1.5157,Lc1_3p,Lc1
165,2.8050,0.030849,3.2428,0.19250,2.9759,0.14845,1.3405,Lc1_3p,Lc1
168,2.8050,0.030598,3.2432,0.19225,2.9762,0.14796,1.5676,Lc1_3p,Lc1
172,2.8050,0.030506,3.2434,0.19233,2.9760,0.14765,1.4923,Lc1_3p,Lc1
174,2.8050,0.030518,3.2433,0.19239,2.9762,0.14783,1.5055,Lc1_3p,Lc1
175,2.8050,0.030375,3.2434,0.19229,2.9762,0.14796,1.5448,Lc1_3p,Lc1
176,2.8050,0.030478,3.2431,0.19233,2.9764,0.14780,1.5753,Lc1_3p,Lc1
177,2.8050,0.030488,3.2433,0.19224,2.9762,0.14782,1.5196,Lc1_3p,Lc1
180,2.8050,0.030799,3.2427,0.19263,2.9760,0.14840,1.3914,Lc1_3p,Lc1
185,2.8050,0.030585,3.2432,0.19227,2.9761,0.14798,1.4890,Lc1_3p,Lc1
197,2.8050,0.030662,3.2430,0.19245,2.9761,0.14784,1.5001,Lc1_3p,Lc1
701,2.8703,0.19719,3.2507,0.20288,3.0135,0.091506,1.7175,Lc2765_3p,Lc2765
703,2.8517,0.16058,3.2494,0.20812,3.0261,0.11972,1.6667,Lc2765_3p,Lc2765
710,2.8328,0.18463,3.2513,0.20392,3.0256,0.11612,1.6698,Lc2765_3p,Lc2765
730,2.8090,0.13202,3.2587,0.22180,3.0300,0.13345,1.6489,Lc2765_3p,Lc2765
739,2.8696,0.21006,3.2507,0.19618,3.0253,0.10178,1.5196,Lc2765_3p,Lc2765
751,2.8505,0.20804,3.2532,0.20987,3.0163,0.10387,1.6448,Lc2765_3p,Lc2765
752,2.8456,0.25494,3.2493,0.18864,3.0321,0.11597,1.6142,Lc2765_3p,Lc2765
784,2.8484,0.18217,3.2491,0.19934,3.0256,0.10658,1.6241,Lc2765_3p,Lc2765
788,2.8858,0.17493,3.2492,0.20215,3.0111,0.091073,1.6361,Lc2765_3p,Lc2765
792,2.8256,0.16797,3.2560,0.22213,3.0321,0.13952,1.6554,Lc2765_3p,Lc2765
796,2.8346,0.19112,3.2543,0.21094,3.0290,0.12790,1.6366,Lc2765_3p,Lc2765
799,2.8303,0.19323,3.2534,0.20265,3.0295,0.12550,1.8989,Lc2765_3p,Lc2765
221,2.8262,0.042431,3.2703,0.21664,2.9920,0.11677,2.0182,Lc3_1p,Lc3
228,2.8262,0.042472,3.2701,0.21641,2.9922,0.11667,2.1136,Lc3_1p,Lc3
235,2.8262,0.042434,3.2696,0.21521,2.9915,0.11631,1.8690,Lc3_1p,Lc3
418,2.8260,0.038607,3.2256,0.22569,2.9696,0.13193,1.6789,Lc3_3m,Lc3
322,2.8330,0.034838,3.2580,0.21015,2.9941,0.10698,1.8861,Lc3_3p,Lc3
328,2.8329,0.034903,3.2578,0.21074,2.9939,0.10652,2.0286,Lc3_3p,Lc3
339,2.8330,0.034930,3.2580,0.21032,2.9938,0.10677,1.9100,Lc3_3p,Lc3
394,2.8330,0.034849,3.2579,0.21007,2.9939,0.10667,1.8662,Lc3_3p,Lc3
