                    logscan_1m//fit-2.800-1000.log  -11134.20    78    CONVERGED  
                    logscan_1m//fit-2.800-1001.log  -11135.40    78       FAILED  
                    logscan_1m//fit-2.800-1002.log  -11134.20    78    CONVERGED  
                    logscan_1m//fit-2.800-1003.log  -11134.20    78    CONVERGED  
                    logscan_1m//fit-2.800-1004.log  -11134.20    78    CONVERGED  
                    logscan_1m//fit-2.800-1005.log  -11134.20    78    CONVERGED  
                    logscan_1m//fit-2.800-1006.log  -11134.30    78       FAILED  
                    logscan_1m//fit-2.800-1007.log  -11134.20    78    CONVERGED  
                    logscan_1m//fit-2.800-1008.log  -11134.20    78    CONVERGED  
                    logscan_1m//fit-2.800-1009.log  -11134.60    78       FAILED  
                    logscan_1m//fit-2.805-1010.log  -11134.30    78       FAILED  
                    logscan_1m//fit-2.805-1011.log  -11134.20    78    CONVERGED  
                    logscan_1m//fit-2.805-1012.log  -11134.20    78    CONVERGED  
                    logscan_1m//fit-2.805-1013.log  -11134.20    78    CONVERGED  
                    logscan_1m//fit-2.805-1014.log  -11134.20    78    CONVERGED  
                    logscan_1m//fit-2.805-1015.log  -11134.20    78    CONVERGED  
                    logscan_1m//fit-2.805-1016.log  -11134.30    78    CONVERGED  
                    logscan_1m//fit-2.805-1017.log  -11134.20    78       FAILED  
                    logscan_1m//fit-2.805-1018.log  -11134.20    78    CONVERGED  
                    logscan_1m//fit-2.805-1019.log  -11134.20    78    CONVERGED  
                    logscan_1m//fit-2.810-1020.log  -11134.30    78       FAILED  
                    logscan_1m//fit-2.810-1021.log  -11134.20    78    CONVERGED  
                    logscan_1m//fit-2.810-1022.log  -11134.20    78    CONVERGED  
                    logscan_1m//fit-2.810-1023.log  -11134.30    78    CONVERGED  
                    logscan_1m//fit-2.810-1024.log  -11134.30    78       FAILED  
                    logscan_1m//fit-2.810-1025.log  -11134.20    78       FAILED  
                    logscan_1m//fit-2.810-1026.log  -11134.80    78    CONVERGED  
                    logscan_1m//fit-2.810-1027.log  -11134.40    78       FAILED  
                    logscan_1m//fit-2.810-1028.log  -11134.20    78    CONVERGED  
                    logscan_1m//fit-2.810-1029.log  -11134.20    78       FAILED  
                    logscan_1m//fit-2.815-1030.log  -11134.20    78    CONVERGED  
                    logscan_1m//fit-2.815-1031.log  -11134.20    78    CONVERGED  
                    logscan_1m//fit-2.815-1032.log  -11134.20    78    CONVERGED  
                    logscan_1m//fit-2.815-1033.log  -11134.20    78       FAILED  
                    logscan_1m//fit-2.815-1034.log  -11134.20    78    CONVERGED  
                    logscan_1m//fit-2.815-1035.log  -11134.20    78       FAILED  
                    logscan_1m//fit-2.815-1036.log  -11134.20    78    CONVERGED  
                    logscan_1m//fit-2.815-1037.log  -11134.20    78       FAILED  
                    logscan_1m//fit-2.815-1038.log  -11134.60    78       FAILED  
                    logscan_1m//fit-2.815-1039.log  -11134.20    78    CONVERGED  
                    logscan_1m//fit-2.820-1040.log  -11134.30    78    CONVERGED  
                    logscan_1m//fit-2.820-1041.log  -11134.30    78    CONVERGED  
                    logscan_1m//fit-2.820-1042.log  -11134.20    78       FAILED  
                    logscan_1m//fit-2.820-1043.log  -11134.20    78    CONVERGED  
                    logscan_1m//fit-2.820-1044.log  -11134.20    78    CONVERGED  
                    logscan_1m//fit-2.820-1045.log  -11134.20    78    CONVERGED  
                    logscan_1m//fit-2.820-1046.log  -11134.20    78    CONVERGED  
                    logscan_1m//fit-2.820-1047.log  -11134.20    78    CONVERGED  
                    logscan_1m//fit-2.820-1048.log  -11134.20    78       FAILED  
                    logscan_1m//fit-2.820-1049.log  -11134.20    78    CONVERGED  
                    logscan_1m//fit-2.825-1050.log  -11134.30    78    CONVERGED  
                    logscan_1m//fit-2.825-1051.log  -11134.40    78    CONVERGED  
                    logscan_1m//fit-2.825-1052.log  -11135.20    78    CONVERGED  
                    logscan_1m//fit-2.825-1053.log  -11134.30    78    CONVERGED  
                    logscan_1m//fit-2.825-1054.log  -11134.40    78    CONVERGED  
                    logscan_1m//fit-2.825-1055.log  -11134.30    78    CONVERGED  
                    logscan_1m//fit-2.825-1056.log  -11134.40    78       FAILED  
                    logscan_1m//fit-2.825-1057.log  -11134.40    78    CONVERGED  
                    logscan_1m//fit-2.825-1058.log  -11134.30    78    CONVERGED  
                    logscan_1m//fit-2.825-1059.log  -11134.60    78    CONVERGED  
                    logscan_1m//fit-2.830-1060.log  -11134.30    78    CONVERGED  
                    logscan_1m//fit-2.830-1061.log  -11139.70    78       FAILED  
                    logscan_1m//fit-2.830-1062.log  -11134.20    78       FAILED  
                    logscan_1m//fit-2.830-1063.log  -11134.20    78       FAILED  
                    logscan_1m//fit-2.830-1064.log  -11134.20    78    CONVERGED  
                    logscan_1m//fit-2.830-1065.log  -11134.20    78    CONVERGED  
                    logscan_1m//fit-2.830-1066.log  -11134.30    78    CONVERGED  
                    logscan_1m//fit-2.830-1067.log  -11134.20    78       FAILED  
                    logscan_1m//fit-2.830-1068.log  -11134.20    78    CONVERGED  
                    logscan_1m//fit-2.830-1069.log  -11134.20    78    CONVERGED  
                    logscan_1m//fit-2.835-1070.log  -11134.20    78    CONVERGED  
                    logscan_1m//fit-2.835-1071.log  -11134.20    78    CONVERGED  
                    logscan_1m//fit-2.835-1072.log  -11134.20    78    CONVERGED  
                    logscan_1m//fit-2.835-1073.log  -11134.20    78       FAILED  
                    logscan_1m//fit-2.835-1074.log  -11134.30    78    CONVERGED  
                    logscan_1m//fit-2.835-1075.log  -11134.20    78       FAILED  
                    logscan_1m//fit-2.835-1076.log  -11134.30    78    CONVERGED  
                    logscan_1m//fit-2.835-1077.log  -11134.20    78       FAILED  
                    logscan_1m//fit-2.835-1078.log  -11134.40    78    CONVERGED  
                    logscan_1m//fit-2.835-1079.log  -11134.20    78       FAILED  
                    logscan_1m//fit-2.840-1080.log  -11134.30    78       FAILED  
                    logscan_1m//fit-2.840-1081.log  -11134.30    78    CONVERGED  
                    logscan_1m//fit-2.840-1082.log  -11134.20    78       FAILED  
                    logscan_1m//fit-2.840-1083.log  -11134.20    78    CONVERGED  
                    logscan_1m//fit-2.840-1084.log  -11134.30    78    CONVERGED  
                    logscan_1m//fit-2.840-1085.log  -11134.30    78    CONVERGED  
                    logscan_1m//fit-2.840-1086.log  -11134.20    78       FAILED  
                    logscan_1m//fit-2.840-1087.log  -11134.30    78    CONVERGED  
                    logscan_1m//fit-2.840-1088.log  -11134.20    78    CONVERGED  
                    logscan_1m//fit-2.840-1089.log  -11134.30    78    CONVERGED  
                    logscan_1m//fit-2.845-1090.log  -11134.20    78    CONVERGED  
                    logscan_1m//fit-2.845-1091.log  -11134.20    78    CONVERGED  
                    logscan_1m//fit-2.845-1092.log  -11134.30    78    CONVERGED  
                    logscan_1m//fit-2.845-1093.log  -11134.20    78    CONVERGED  
                    logscan_1m//fit-2.845-1094.log  -11134.20    78    CONVERGED  
                    logscan_1m//fit-2.845-1095.log  -11134.20    78    CONVERGED  
                    logscan_1m//fit-2.845-1096.log  -11134.20    78    CONVERGED  
                    logscan_1m//fit-2.845-1097.log  -11134.20    78       FAILED  
                    logscan_1m//fit-2.845-1098.log  -11134.20    78    CONVERGED  
                    logscan_1m//fit-2.845-1099.log  -11134.30    78       FAILED  
                    logscan_1m//fit-2.850-1100.log  -11134.50    78       FAILED  
                    logscan_1m//fit-2.850-1101.log  -11139.70    78       FAILED  
                    logscan_1m//fit-2.850-1102.log  -11140.70    78    CONVERGED  
                    logscan_1m//fit-2.850-1103.log  -11134.30    78    CONVERGED  
                    logscan_1m//fit-2.850-1104.log  -11134.40    78    CONVERGED  
                    logscan_1m//fit-2.850-1105.log  -11134.30    78       FAILED  
                    logscan_1m//fit-2.850-1106.log  -11134.20    78    CONVERGED  
                    logscan_1m//fit-2.850-1107.log  -11134.40    78    CONVERGED  
                    logscan_1m//fit-2.850-1108.log  -11134.30    78       FAILED  
                    logscan_1m//fit-2.850-1109.log  -11142.00    78       FAILED  
                    logscan_1m//fit-2.855-1110.log  -11138.00    78       FAILED  
                    logscan_1m//fit-2.855-1111.log  -11134.30    78       FAILED  
                    logscan_1m//fit-2.855-1112.log  -11134.20    78    CONVERGED  
                    logscan_1m//fit-2.855-1113.log  -11134.40    78       FAILED  
                    logscan_1m//fit-2.855-1114.log  -11134.30    78    CONVERGED  
                    logscan_1m//fit-2.855-1115.log  -11134.30    78    CONVERGED  
                    logscan_1m//fit-2.855-1116.log  -11134.30    78    CONVERGED  
                    logscan_1m//fit-2.855-1117.log  -11140.70    78    CONVERGED  
                    logscan_1m//fit-2.855-1118.log  -11134.40    78    CONVERGED  
                    logscan_1m//fit-2.855-1119.log  -11140.60    78    CONVERGED  
                    logscan_1m//fit-2.860-1120.log  -11136.00    78       FAILED  
                    logscan_1m//fit-2.860-1121.log  -11134.20    78    CONVERGED  
                    logscan_1m//fit-2.860-1122.log  -11134.20    78    CONVERGED  
                    logscan_1m//fit-2.860-1123.log  -11134.20    78    CONVERGED  
                    logscan_1m//fit-2.860-1124.log  -11134.30    78    CONVERGED  
                    logscan_1m//fit-2.860-1125.log  -11139.70    78    CONVERGED  
                    logscan_1m//fit-2.860-1126.log  -11134.30    78    CONVERGED  
                    logscan_1m//fit-2.860-1127.log  -11136.80    78       FAILED  
                    logscan_1m//fit-2.860-1128.log  -11134.20    78    CONVERGED  
                    logscan_1m//fit-2.860-1129.log  -11134.20    78    CONVERGED  
                    logscan_1m//fit-2.865-1130.log  -11136.10    78    CONVERGED  
                    logscan_1m//fit-2.865-1131.log  -11134.20    78    CONVERGED  
                    logscan_1m//fit-2.865-1132.log  -11134.20    78    CONVERGED  
                    logscan_1m//fit-2.865-1133.log  -11141.70    78    CONVERGED  
                    logscan_1m//fit-2.865-1134.log  -11141.30    78       FAILED  
                    logscan_1m//fit-2.865-1135.log  -11134.70    78    CONVERGED  
                    logscan_1m//fit-2.865-1136.log  -11141.00    78    CONVERGED  
                    logscan_1m//fit-2.865-1137.log  -11135.90    78       FAILED  
                    logscan_1m//fit-2.865-1138.log  -11136.10    78    CONVERGED  
                    logscan_1m//fit-2.865-1139.log  -11134.20    78    CONVERGED  
                    logscan_1m//fit-2.870-1140.log  -11135.30    78       FAILED  
                    logscan_1m//fit-2.870-1141.log  -11141.30    78    CONVERGED  
                    logscan_1m//fit-2.870-1142.log  -11134.20    78    CONVERGED  
                    logscan_1m//fit-2.870-1143.log  -11134.30    78    CONVERGED  
                    logscan_1m//fit-2.870-1144.log  -11141.30    78    CONVERGED  
                    logscan_1m//fit-2.870-1145.log  -11141.20    78    CONVERGED  
                    logscan_1m//fit-2.870-1146.log  -11140.90    78    CONVERGED  
                    logscan_1m//fit-2.870-1147.log  -11142.50    78    CONVERGED  
                    logscan_1m//fit-2.870-1148.log  -11141.50    78    CONVERGED  
                    logscan_1m//fit-2.870-1149.log  -11142.10    78       FAILED  
                    logscan_1m//fit-2.875-1150.log  -11135.30    78    CONVERGED  
                    logscan_1m//fit-2.875-1151.log  -11134.70    78    CONVERGED  
                    logscan_1m//fit-2.875-1152.log  -11134.40    78    CONVERGED  
                    logscan_1m//fit-2.875-1153.log  -11134.50    78    CONVERGED  
                    logscan_1m//fit-2.875-1154.log  -11140.50    78    CONVERGED  
                    logscan_1m//fit-2.875-1155.log  -11134.60    78    CONVERGED  
                    logscan_1m//fit-2.875-1156.log  -11142.90    78    CONVERGED  
                    logscan_1m//fit-2.875-1157.log  -11134.50    78    CONVERGED  
                    logscan_1m//fit-2.875-1158.log  -11134.80    78    CONVERGED  
                    logscan_1m//fit-2.875-1159.log  -11142.60    78    CONVERGED  
                    logscan_1m//fit-2.880-1160.log  -11142.20    78    CONVERGED  
                    logscan_1m//fit-2.880-1161.log  -11141.60    78    CONVERGED  
                    logscan_1m//fit-2.880-1162.log  -11138.00    78    CONVERGED  
                    logscan_1m//fit-2.880-1163.log  -11139.80    78    CONVERGED  
                    logscan_1m//fit-2.880-1164.log  -11142.20    78    CONVERGED  
                    logscan_1m//fit-2.880-1165.log  -11134.20    78    CONVERGED  
                    logscan_1m//fit-2.880-1166.log  -11134.20    78    CONVERGED  
                    logscan_1m//fit-2.880-1167.log  -11134.20    78    CONVERGED  
                    logscan_1m//fit-2.880-1168.log  -11134.30    78    CONVERGED  
                    logscan_1m//fit-2.880-1169.log  -11141.50    78       FAILED  
                    logscan_1m//fit-2.885-1170.log  -11134.20    78    CONVERGED  
                    logscan_1m//fit-2.885-1171.log  -11141.70    78    CONVERGED  
                    logscan_1m//fit-2.885-1172.log  -11137.00    78    CONVERGED  
                    logscan_1m//fit-2.885-1173.log  -11135.60    78    CONVERGED  
                    logscan_1m//fit-2.885-1174.log  -11140.20    78    CONVERGED  
                    logscan_1m//fit-2.885-1175.log  -11141.00    78    CONVERGED  
                    logscan_1m//fit-2.885-1176.log  -11134.30    78    CONVERGED  
                    logscan_1m//fit-2.885-1177.log  -11139.50    78       FAILED  
                    logscan_1m//fit-2.885-1178.log  -11140.60    78       FAILED  
                    logscan_1m//fit-2.885-1179.log  -11140.60    78    CONVERGED  
                    logscan_1m//fit-2.890-1180.log  -11135.10    78    CONVERGED  
                    logscan_1m//fit-2.890-1181.log  -11134.80    78    CONVERGED  
                    logscan_1m//fit-2.890-1182.log  -11134.40    78    CONVERGED  
                    logscan_1m//fit-2.890-1183.log  -11135.60    78    CONVERGED  
                    logscan_1m//fit-2.890-1184.log  -11134.80    78    CONVERGED  
                    logscan_1m//fit-2.890-1185.log  -11135.10    78    CONVERGED  
                    logscan_1m//fit-2.890-1186.log  -11135.10    78    CONVERGED  
                    logscan_1m//fit-2.890-1187.log  -11135.10    78    CONVERGED  
                    logscan_1m//fit-2.890-1188.log  -11135.10    78    CONVERGED  
                    logscan_1m//fit-2.890-1189.log  -11135.10    78    CONVERGED  
                    logscan_1m//fit-2.895-1190.log  -11134.20    78       FAILED  
                    logscan_1m//fit-2.895-1191.log  -11134.20    78    CONVERGED  
                    logscan_1m//fit-2.895-1192.log  -11138.50    78    CONVERGED  
                    logscan_1m//fit-2.895-1193.log  -11134.30    78    CONVERGED  
                    logscan_1m//fit-2.895-1194.log  -11134.20    78    CONVERGED  
                    logscan_1m//fit-2.895-1195.log  -11134.20    78    CONVERGED  
                    logscan_1m//fit-2.895-1196.log  -11134.20    78    CONVERGED  
                    logscan_1m//fit-2.895-1197.log  -11134.20    78    CONVERGED  
                    logscan_1m//fit-2.895-1198.log  -11134.20    78    CONVERGED  
                    logscan_1m//fit-2.895-1199.log  -11135.50    78    CONVERGED  
