                    logscan_3p//fit-2.800-2000.log  -11136.20    78    CONVERGED  
                    logscan_3p//fit-2.800-2001.log  -11134.20    78       FAILED  
                    logscan_3p//fit-2.800-2002.log  -11134.20    78    CONVERGED  
                    logscan_3p//fit-2.800-2003.log  -11134.20    78    CONVERGED  
                    logscan_3p//fit-2.800-2004.log  -11134.20    78    CONVERGED  
                    logscan_3p//fit-2.800-2005.log  -11134.30    78    CONVERGED  
                    logscan_3p//fit-2.800-2006.log  -11134.20    78       FAILED  
                    logscan_3p//fit-2.800-2007.log  -11134.20    78    CONVERGED  
                    logscan_3p//fit-2.800-2008.log  -11134.20    78    CONVERGED  
                    logscan_3p//fit-2.800-2009.log  -11134.20    78    CONVERGED  
                    logscan_3p//fit-2.805-2010.log  -11134.30    78    CONVERGED  
                    logscan_3p//fit-2.805-2011.log  -11134.20    78    CONVERGED  
                    logscan_3p//fit-2.805-2012.log  -11134.20    78    CONVERGED  
                    logscan_3p//fit-2.805-2013.log  -11134.40    78    CONVERGED  
                    logscan_3p//fit-2.805-2014.log  -11134.20    78    CONVERGED  
                    logscan_3p//fit-2.805-2015.log  -11134.20    78    CONVERGED  
                    logscan_3p//fit-2.805-2016.log  -11134.20    78    CONVERGED  
                    logscan_3p//fit-2.805-2017.log  -11134.20    78       FAILED  
                    logscan_3p//fit-2.805-2018.log  -11134.20    78    CONVERGED  
                    logscan_3p//fit-2.805-2019.log  -11134.30    78       FAILED  
                    logscan_3p//fit-2.810-2020.log  -11134.30    78       FAILED  
                    logscan_3p//fit-2.810-2021.log  -11134.20    78    CONVERGED  
                    logscan_3p//fit-2.810-2022.log  -11134.20    78    CONVERGED  
                    logscan_3p//fit-2.810-2023.log  -11134.30    78    CONVERGED  
                    logscan_3p//fit-2.810-2024.log  -11134.40    78    CONVERGED  
                    logscan_3p//fit-2.810-2025.log  -11134.30    78    CONVERGED  
                    logscan_3p//fit-2.810-2026.log  -11134.30    78    CONVERGED  
                    logscan_3p//fit-2.810-2027.log  -11134.50    78    CONVERGED  
                    logscan_3p//fit-2.810-2028.log  -11134.20    78       FAILED  
                    logscan_3p//fit-2.810-2029.log  -11134.20    78    CONVERGED  
                    logscan_3p//fit-2.815-2030.log  -11134.20    78    CONVERGED  
                    logscan_3p//fit-2.815-2031.log  -11134.20    78    CONVERGED  
                    logscan_3p//fit-2.815-2032.log  -11134.20    78    CONVERGED  
                    logscan_3p//fit-2.815-2033.log  -11134.20    78    CONVERGED  
                    logscan_3p//fit-2.815-2034.log  -11134.40    78       FAILED  
                    logscan_3p//fit-2.815-2035.log  -11134.20    78    CONVERGED  
                    logscan_3p//fit-2.815-2036.log  -11134.40    78    CONVERGED  
                    logscan_3p//fit-2.815-2037.log  -11134.20    78       FAILED  
                    logscan_3p//fit-2.815-2038.log  -11134.20    78    CONVERGED  
                    logscan_3p//fit-2.815-2039.log  -11134.20    78    CONVERGED  
                    logscan_3p//fit-2.820-2040.log  -11134.20    78    CONVERGED  
                    logscan_3p//fit-2.820-2041.log  -11134.40    78       FAILED  
                    logscan_3p//fit-2.820-2042.log  -11134.20    78    CONVERGED  
                    logscan_3p//fit-2.820-2043.log  -11134.20    78    CONVERGED  
                    logscan_3p//fit-2.820-2044.log  -11134.30    78    CONVERGED  
                    logscan_3p//fit-2.820-2045.log  -11135.20    78       FAILED  
                    logscan_3p//fit-2.820-2046.log  -11134.30    78    CONVERGED  
                    logscan_3p//fit-2.820-2047.log  -11134.20    78       FAILED  
                    logscan_3p//fit-2.820-2048.log  -11134.20    78    CONVERGED  
                    logscan_3p//fit-2.820-2049.log  -11134.30    78       FAILED  
                    logscan_3p//fit-2.825-2050.log  -11134.20    78    CONVERGED  
                    logscan_3p//fit-2.825-2051.log  -11134.20    78    CONVERGED  
                    logscan_3p//fit-2.825-2052.log  -11134.20    78    CONVERGED  
                    logscan_3p//fit-2.825-2053.log  -11134.30    78    CONVERGED  
                    logscan_3p//fit-2.825-2054.log  -11134.20    78    CONVERGED  
                    logscan_3p//fit-2.825-2055.log  -11134.20    78    CONVERGED  
                    logscan_3p//fit-2.825-2056.log  -11134.20    78    CONVERGED  
                    logscan_3p//fit-2.825-2057.log  -11134.20    78    CONVERGED  
                    logscan_3p//fit-2.825-2058.log  -11134.20    78    CONVERGED  
                    logscan_3p//fit-2.825-2059.log  -11134.50    78    CONVERGED  
                    logscan_3p//fit-2.830-2060.log  -11134.40    78       FAILED  
                    logscan_3p//fit-2.830-2061.log  -11134.20    78    CONVERGED  
                    logscan_3p//fit-2.830-2062.log  -11134.30    78    CONVERGED  
                    logscan_3p//fit-2.830-2063.log  -11134.30    78       FAILED  
                    logscan_3p//fit-2.830-2064.log  -11134.20    78       FAILED  
                    logscan_3p//fit-2.830-2065.log  -11134.20    78       FAILED  
                    logscan_3p//fit-2.830-2066.log  -11134.30    78       FAILED  
                    logscan_3p//fit-2.830-2067.log  -11134.30    78    CONVERGED  
                    logscan_3p//fit-2.830-2068.log  -11134.30    78    CONVERGED  
                    logscan_3p//fit-2.830-2069.log  -11134.20    78       FAILED  
                    logscan_3p//fit-2.835-2070.log  -11134.20    78       FAILED  
                    logscan_3p//fit-2.835-2071.log  -11134.20    78    CONVERGED  
                    logscan_3p//fit-2.835-2072.log  -11134.40    78       FAILED  
                    logscan_3p//fit-2.835-2073.log  -11134.20    78    CONVERGED  
                    logscan_3p//fit-2.835-2074.log  -11134.20    78    CONVERGED  
                    logscan_3p//fit-2.835-2075.log  -11134.30    78       FAILED  
                    logscan_3p//fit-2.835-2076.log  -11134.20    78       FAILED  
                    logscan_3p//fit-2.835-2077.log  -11143.30    78       FAILED  
                    logscan_3p//fit-2.835-2078.log  -11140.40    78    CONVERGED  
                    logscan_3p//fit-2.835-2079.log  -11134.20    78    CONVERGED  
                    logscan_3p//fit-2.840-2080.log  -11134.30    78       FAILED  
                    logscan_3p//fit-2.840-2081.log  -11134.20    78    CONVERGED  
                    logscan_3p//fit-2.840-2082.log  -11134.20    78    CONVERGED  
                    logscan_3p//fit-2.840-2083.log  -11134.20    78    CONVERGED  
                    logscan_3p//fit-2.840-2084.log  -11142.10    78       FAILED  
                    logscan_3p//fit-2.840-2085.log  -11134.30    78    CONVERGED  
                    logscan_3p//fit-2.840-2086.log  -11134.20    78    CONVERGED  
                    logscan_3p//fit-2.840-2087.log  -11134.20    78       FAILED  
                    logscan_3p//fit-2.840-2088.log  -11134.20    78    CONVERGED  
                    logscan_3p//fit-2.840-2089.log  -11134.30    78    CONVERGED  
                    logscan_3p//fit-2.845-2090.log  -11134.20    78    CONVERGED  
                    logscan_3p//fit-2.845-2091.log  -11134.20    78    CONVERGED  
                    logscan_3p//fit-2.845-2092.log  -11134.20    78    CONVERGED  
                    logscan_3p//fit-2.845-2093.log  -11134.70    78       FAILED  
                    logscan_3p//fit-2.845-2094.log  -11134.30    78    CONVERGED  
                    logscan_3p//fit-2.845-2095.log  -11134.30    78    CONVERGED  
                    logscan_3p//fit-2.845-2096.log  -11134.30    78    CONVERGED  
                    logscan_3p//fit-2.845-2097.log  -11134.30    78    CONVERGED  
                    logscan_3p//fit-2.845-2098.log  -11134.20    78    CONVERGED  
                    logscan_3p//fit-2.845-2099.log  -11134.30    78    CONVERGED  
                    logscan_3p//fit-2.850-2100.log  -11134.20    78    CONVERGED  
                    logscan_3p//fit-2.850-2101.log  -11136.80    78       FAILED  
                    logscan_3p//fit-2.850-2102.log  -11134.20    78    CONVERGED  
                    logscan_3p//fit-2.850-2103.log  -11134.30    78       FAILED  
                    logscan_3p//fit-2.850-2104.log  -11134.20    78    CONVERGED  
                    logscan_3p//fit-2.850-2105.log  -11134.20    78    CONVERGED  
                    logscan_3p//fit-2.850-2106.log  -11138.80    78    CONVERGED  
                    logscan_3p//fit-2.850-2107.log  -11134.20    78       FAILED  
                    logscan_3p//fit-2.850-2108.log  -11135.00    78       FAILED  
                    logscan_3p//fit-2.850-2109.log  -11138.50    78       FAILED  
                    logscan_3p//fit-2.855-2110.log  -11134.20    78       FAILED  
                    logscan_3p//fit-2.855-2111.log  -11134.30    78    CONVERGED  
                    logscan_3p//fit-2.855-2112.log  -11134.20    78       FAILED  
                    logscan_3p//fit-2.855-2113.log  -11134.30    78    CONVERGED  
                    logscan_3p//fit-2.855-2114.log  -11140.60    78    CONVERGED  
                    logscan_3p//fit-2.855-2115.log  -11134.60    78    CONVERGED  
                    logscan_3p//fit-2.855-2116.log  -11134.20    78    CONVERGED  
                    logscan_3p//fit-2.855-2117.log  -11134.20    78    CONVERGED  
                    logscan_3p//fit-2.855-2118.log  -11138.40    78       FAILED  
                    logscan_3p//fit-2.855-2119.log  -11139.50    78       FAILED  
                    logscan_3p//fit-2.860-2120.log  -11134.30    78       FAILED  
                    logscan_3p//fit-2.860-2121.log  -11134.50    78    CONVERGED  
                    logscan_3p//fit-2.860-2122.log  -11134.20    78    CONVERGED  
                    logscan_3p//fit-2.860-2123.log  -11135.20    78       FAILED  
                    logscan_3p//fit-2.860-2124.log  -11134.60    78       FAILED  
                    logscan_3p//fit-2.860-2125.log  -11134.20    78       FAILED  
                    logscan_3p//fit-2.860-2126.log  -11134.20    78    CONVERGED  
                    logscan_3p//fit-2.860-2127.log  -11134.20    78    CONVERGED  
                    logscan_3p//fit-2.860-2128.log  -11135.00    78    CONVERGED  
                    logscan_3p//fit-2.860-2129.log  -11134.20    78    CONVERGED  
                    logscan_3p//fit-2.865-2130.log  -11134.70    78       FAILED  
                    logscan_3p//fit-2.865-2131.log  -11134.50    78       FAILED  
                    logscan_3p//fit-2.865-2132.log  -11136.50    78    CONVERGED  
                    logscan_3p//fit-2.865-2133.log  -11135.60    78    CONVERGED  
                    logscan_3p//fit-2.865-2134.log  -11137.00    78    CONVERGED  
                    logscan_3p//fit-2.865-2135.log  -11137.40    78       FAILED  
                    logscan_3p//fit-2.865-2136.log  -11134.80    78       FAILED  
                    logscan_3p//fit-2.865-2137.log  -11137.10    78       FAILED  
                    logscan_3p//fit-2.865-2138.log  -11139.10    78    CONVERGED  
                    logscan_3p//fit-2.865-2139.log  -11136.10    78    CONVERGED  
                    logscan_3p//fit-2.870-2140.log  -11134.20    78    CONVERGED  
                    logscan_3p//fit-2.870-2141.log  -11134.30    78    CONVERGED  
                    logscan_3p//fit-2.870-2142.log  -11138.90    78    CONVERGED  
                    logscan_3p//fit-2.870-2143.log  -11134.20    78    CONVERGED  
                    logscan_3p//fit-2.870-2144.log  -11134.20    78    CONVERGED  
                    logscan_3p//fit-2.870-2145.log  -11134.20    78    CONVERGED  
                    logscan_3p//fit-2.870-2146.log  -11139.60    78       FAILED  
                    logscan_3p//fit-2.870-2147.log  -11138.20    78    CONVERGED  
                    logscan_3p//fit-2.870-2148.log  -11139.30    78       FAILED  
                    logscan_3p//fit-2.870-2149.log  -11139.30    78    CONVERGED  
                    logscan_3p//fit-2.875-2150.log  -11134.20    78       FAILED  
                    logscan_3p//fit-2.875-2151.log  -11134.20    78    CONVERGED  
                    logscan_3p//fit-2.875-2152.log  -11134.50    78    CONVERGED  
                    logscan_3p//fit-2.875-2153.log  -11134.80    78    CONVERGED  
                    logscan_3p//fit-2.875-2154.log  -11134.20    78    CONVERGED  
                    logscan_3p//fit-2.875-2155.log  -11142.70    78       FAILED  
                    logscan_3p//fit-2.875-2156.log  -11141.80    78    CONVERGED  
                    logscan_3p//fit-2.875-2157.log  -11140.10    78    CONVERGED  
                    logscan_3p//fit-2.875-2158.log  -11143.30    78       FAILED  
                    logscan_3p//fit-2.875-2159.log  -11142.20    78    CONVERGED  
                    logscan_3p//fit-2.880-2160.log  -11134.40    78    CONVERGED  
                    logscan_3p//fit-2.880-2161.log  -11143.10    78    CONVERGED  
                    logscan_3p//fit-2.880-2162.log  -11137.30    78       FAILED  
                    logscan_3p//fit-2.880-2163.log  -11134.20    78    CONVERGED  
                    logscan_3p//fit-2.880-2164.log  -11134.20    78    CONVERGED  
                    logscan_3p//fit-2.880-2165.log  -11134.20    78    CONVERGED  
                    logscan_3p//fit-2.880-2166.log  -11138.40    78       FAILED  
                    logscan_3p//fit-2.880-2167.log  -11137.30    78       FAILED  
                    logscan_3p//fit-2.880-2168.log  -11134.20    78    CONVERGED  
                    logscan_3p//fit-2.880-2169.log  -11134.20    78    CONVERGED  
                    logscan_3p//fit-2.885-2170.log  -11134.20    78    CONVERGED  
                    logscan_3p//fit-2.885-2171.log  -11134.30    78    CONVERGED  
                    logscan_3p//fit-2.885-2172.log  -11137.10    78       FAILED  
                    logscan_3p//fit-2.885-2173.log  -11135.30    78       FAILED  
                    logscan_3p//fit-2.885-2174.log  -11134.20    78       FAILED  
                    logscan_3p//fit-2.885-2175.log  -11134.30    78    CONVERGED  
                    logscan_3p//fit-2.885-2176.log  -11134.20    78    CONVERGED  
                    logscan_3p//fit-2.885-2177.log  -11134.20    78    CONVERGED  
                    logscan_3p//fit-2.885-2178.log  -11135.40    78       FAILED  
                    logscan_3p//fit-2.885-2179.log  -11139.00    78       FAILED  
                    logscan_3p//fit-2.890-2180.log  -11135.10    78       FAILED  
                    logscan_3p//fit-2.890-2181.log  -11134.20    78       FAILED  
                    logscan_3p//fit-2.890-2182.log  -11138.90    78       FAILED  
                    logscan_3p//fit-2.890-2183.log  -11140.20    78    CONVERGED  
                    logscan_3p//fit-2.890-2184.log  -11136.60    78       FAILED  
                    logscan_3p//fit-2.890-2185.log  -11134.30    78    CONVERGED  
                    logscan_3p//fit-2.890-2186.log  -11134.50    78       FAILED  
                    logscan_3p//fit-2.890-2187.log  -11141.00    78       FAILED  
                    logscan_3p//fit-2.890-2188.log  -11136.50    78    CONVERGED  
                    logscan_3p//fit-2.890-2189.log  -11134.80    78    CONVERGED  
                    logscan_3p//fit-2.895-2190.log  -11134.40    78    CONVERGED  
                    logscan_3p//fit-2.895-2191.log  -11135.80    78       FAILED  
                    logscan_3p//fit-2.895-2192.log  -11141.30    78       FAILED  
                    logscan_3p//fit-2.895-2193.log  -11141.20    78       FAILED  
                    logscan_3p//fit-2.895-2194.log  -11141.90    78    CONVERGED  
                    logscan_3p//fit-2.895-2195.log  -11140.60    78    CONVERGED  
                    logscan_3p//fit-2.895-2196.log  -11141.10    78       FAILED  
                    logscan_3p//fit-2.895-2197.log  -11143.00    78    CONVERGED  
                    logscan_3p//fit-2.895-2198.log  -11142.90    78    CONVERGED  
                    logscan_3p//fit-2.895-2199.log  -11141.90    78       FAILED  
