bootfile,id,m0_2900,m0_3130,m0_3189,width_2900,width_3130,width_3189,width_NR0m
0,1007,2.8301,3.2539,2.9916,0.037351,0.23927,0.11771,0.028936
1,1010,2.8144,3.2414,2.9944,0.030325,0.23755,0.13789,0.91741
2,1028,2.8166,3.2600,2.9943,0.040444,0.22343,0.11024,-0.0457541
3,1039,2.8222,3.2528,3.0005,0.039766,0.20841,0.12235,-0.00712492
4,1042,2.8366,3.2370,3.0000,0.016594,0.17843,0.10121,-0.622056
5,1053,2.8190,3.2700,2.9832,0.042958,0.26076,0.14088,0.36979
6,1068,2.8199,3.2566,2.9777,0.035305,0.19289,0.12170,-0.0887361
7,1075,2.8219,3.2554,2.9949,0.039790,0.21275,0.12802,-0.0119662
8,1080,2.8173,3.2505,2.9725,0.030005,0.21125,0.10490,0.93765
9,1090,2.8105,3.2477,3.0048,0.028786,0.21458,0.10786,1.1937
10,1109,2.8199,3.2578,3.0111,0.045539,0.24881,0.12425,0.83569
11,1112,2.8347,3.2375,3.0092,0.026312,0.17599,0.10409,-1.18843
12,1127,2.8204,3.2499,2.9870,0.044557,0.20807,0.12188,-0.338430
13,1131,2.8139,3.2672,2.9722,0.035020,0.19325,0.11181,-0.136253
14,1142,2.8209,3.2563,2.9891,0.038214,0.20650,0.10248,0.096302
15,1150,2.8135,3.2514,2.9959,0.034571,0.21193,0.13711,1.8857
16,1165,2.8300,3.2434,2.9915,0.032966,0.19178,0.13542,-0.0569196
17,1172,2.8245,3.2570,2.9860,0.043950,0.22766,0.10624,-0.0855553
18,1185,2.8183,3.2572,3.0015,0.033098,0.23941,0.12570,1.2028
19,1195,2.8328,3.2405,2.9924,0.025767,0.18564,0.11325,-0.252275
20,1205,2.8356,3.2550,2.9762,0.031708,0.18135,0.12645,0.013029
21,1210,2.8209,3.2375,2.9841,0.043295,0.18027,0.11344,-0.267809
22,1227,2.8279,3.2623,2.9606,0.044356,0.22579,0.10337,0.0021406
23,1230,2.8176,3.2419,2.9966,0.033849,0.20324,0.13502,0.33219
24,1240,2.8350,3.2391,2.9712,0.025098,0.20454,0.099937,1.2991
25,1252,2.8194,3.2824,2.9805,0.044591,0.22477,0.11811,3.2027
26,1263,2.8192,3.2468,2.9965,0.036411,0.22789,0.12169,-0.104364
27,1274,2.8186,3.2548,2.9825,0.044015,0.19702,0.12337,-0.150179
28,1289,2.8136,3.2467,3.0080,0.030127,0.19032,0.11318,1.4414
29,1295,2.8355,3.2505,2.9908,0.028424,0.21736,0.10692,0.80454
30,1308,2.8330,3.2470,2.9867,0.028230,0.19570,0.12120,1.3172
31,1313,2.8233,3.2453,2.9857,0.039584,0.20130,0.12367,-0.162742
32,1326,2.8323,3.2414,2.9895,0.033026,0.20145,0.096445,-0.102319
33,1330,2.8167,3.2692,2.9817,0.035568,0.24311,0.12095,-0.138660
34,1341,2.8159,3.2537,2.9985,0.031320,0.22158,0.12031,0.85765
35,1352,2.8244,3.2566,3.0142,0.034385,0.19956,0.12647,2.6293
36,1368,2.8263,3.2424,3.0088,0.033587,0.19485,0.13193,0.90689
37,1375,2.8148,3.2584,2.9913,0.034197,0.22077,0.12476,1.8586
38,1384,2.8267,3.2600,2.9767,0.045426,0.22606,0.12662,0.25571
39,1395,2.8166,3.2506,2.9926,0.045769,0.22256,0.11431,-0.0575359
40,1408,2.8355,3.2418,2.9777,0.011389,0.18282,0.096943,1.2530
41,1417,2.8197,3.2758,2.9853,0.033383,0.27490,0.11340,0.15787
42,1421,2.8113,3.2501,2.9869,0.044222,0.20546,0.11520,-0.176954
43,1434,2.8200,3.2445,2.9810,0.042659,0.21556,0.12846,-0.0402960
44,1442,2.8222,3.2601,2.9886,0.042691,0.18900,0.11810,-0.0498429
45,1456,2.8328,3.2554,2.9741,0.029510,0.19247,0.10208,-0.907618
46,1460,2.8337,3.2456,3.0058,0.028681,0.20660,0.10583,1.1559
47,1474,2.8137,3.2444,2.9800,0.039800,0.17078,0.11832,-0.235519
48,1489,2.8285,3.2687,2.9711,0.042416,0.20508,0.14604,1.3591
49,1492,2.8284,3.2605,2.9538,0.038832,0.21390,0.088783,-0.0221757
50,1507,2.8280,3.2530,2.9972,0.036150,0.17854,0.12861,0.052942
51,1514,2.8288,3.2504,2.9718,0.036050,0.20160,0.10948,-0.0527151
52,1524,2.8183,3.2490,2.9977,0.033573,0.20366,0.12555,1.9101
53,1534,2.8185,3.2574,2.9937,0.035732,0.22595,0.12251,0.35368
54,1541,2.8371,3.2440,3.0027,0.0097467,0.19023,0.11953,-0.883634
55,1550,2.8220,3.2419,3.0092,0.039738,0.19247,0.11322,-0.0932601
56,1568,2.8234,3.2486,2.9896,0.033769,0.19296,0.12066,1.7568
57,1571,2.8347,3.2505,2.9919,0.033015,0.18961,0.11219,1.9901
58,1581,2.8237,3.2479,3.0010,0.041874,0.19938,0.10583,-0.137430
59,1593,2.8230,3.2632,3.0017,0.029377,0.18823,0.11544,2.1718
60,1607,2.8074,3.2477,2.9877,0.034844,0.20435,0.10353,1.7659
61,1610,2.8270,3.2463,3.0006,0.031297,0.19257,0.11075,-0.128548
62,1621,2.8231,3.2469,2.9852,0.040909,0.19476,0.12868,1.1035
63,1632,2.8195,3.2519,3.0003,0.033923,0.23233,0.12612,-0.00821991
64,1645,2.8250,3.2741,2.9887,0.037144,0.21983,0.11213,0.048864
65,1650,2.8172,3.2470,2.9919,0.033116,0.22524,0.11509,-0.0373329
66,1663,2.8277,3.2442,2.9870,0.038772,0.17579,0.11729,1.7084
67,1671,2.8309,3.2509,2.9603,0.040503,0.19713,0.10005,-0.0449060
68,1684,2.8268,3.2574,2.9813,0.041575,0.20830,0.12138,-0.100712
69,1693,2.8355,3.2365,2.9856,0.025178,0.20254,0.11383,0.76071
70,1700,2.8138,3.2531,2.9952,0.031444,0.21443,0.13192,0.041362
71,1711,2.8204,3.2576,2.9814,0.047134,0.21779,0.11206,-0.223186
72,1724,2.8177,3.2412,2.9977,0.036851,0.19189,0.12758,1.4717
73,1738,2.8202,3.2405,3.0006,0.038155,0.20573,0.11979,-0.00701072
74,1749,2.8196,3.2369,3.0010,0.045025,0.19438,0.12267,-0.109635
75,1754,2.8113,3.2482,2.9885,0.037351,0.20748,0.13034,0.43848
76,1764,2.8209,3.2433,2.9887,0.040263,0.18511,0.11426,-0.244304
77,1771,2.8101,3.2403,2.9901,0.042322,0.18533,0.11812,0.72637
78,1781,2.8230,3.2567,2.9862,0.043962,0.19946,0.11794,-0.296696
79,1792,2.8350,3.2338,2.9794,0.029472,0.16115,0.10584,1.6292
80,1800,2.8234,3.2441,2.9866,0.040550,0.18760,0.11930,-0.104328
81,1813,2.8225,3.2700,2.9618,0.046354,0.22431,0.096455,-0.0259705
82,1820,2.8396,3.2427,2.9709,0.028438,0.17283,0.12416,-0.334820
83,1838,2.8173,3.2439,2.9944,0.035823,0.23310,0.13743,2.3956
84,1842,2.8265,3.2520,2.9854,0.035622,0.21673,0.11432,2.4698
85,1858,2.8322,3.2694,2.9776,0.028193,0.22538,0.10698,2.7049
86,1867,2.8291,3.2661,2.9961,0.041890,0.24876,0.10753,0.94925
87,1879,2.8197,3.2513,3.0029,0.028153,0.19492,0.11919,0.13378
88,1881,2.8161,3.2388,2.9931,0.040218,0.20634,0.12177,0.96512
89,1896,2.8225,3.2417,2.9994,0.039700,0.19739,0.11373,-0.207214
90,1909,2.8142,3.2519,3.0035,0.030749,0.23023,0.13430,1.4870
91,1910,2.8279,3.2470,2.9881,0.042670,0.19260,0.11424,-0.0345641
92,1928,2.8202,3.2540,2.9926,0.037390,0.18659,0.13274,-0.122302
93,1939,2.8133,3.2412,2.9937,0.034561,0.22319,0.14040,1.4176
94,1949,2.8301,3.2498,2.9810,0.034798,0.22051,0.10831,-0.105646
95,1958,2.8137,3.2529,2.9821,0.050643,0.18393,0.13248,-0.00812775
96,1964,2.8274,3.2539,2.9766,0.034930,0.21373,0.10745,0.043379
97,1970,2.8228,3.2515,2.9957,0.041035,0.22571,0.11730,-0.0664018
98,1983,2.8256,3.2427,3.0040,0.043497,0.20072,0.13816,-0.0839241
99,1998,2.8286,3.2536,2.9676,0.031739,0.21149,0.10549,-0.933407
100,2002,2.8201,3.2736,2.9776,0.043586,0.23659,0.12278,0.25554
101,2014,2.8167,3.2416,3.0043,0.034400,0.19967,0.14638,2.4785
102,2022,2.8186,3.2508,2.9966,0.034904,0.21234,0.10410,0.82835
103,2035,2.8182,3.2439,2.9828,0.041667,0.22976,0.11758,0.80547
104,2041,2.8248,3.2445,2.9813,0.035192,0.19358,0.12143,-0.0758140
105,2057,2.8174,3.2460,2.9900,0.030890,0.18902,0.14238,0.34044
106,2067,2.8132,3.2595,2.9861,0.044022,0.19927,0.12368,-0.0633074
107,2072,2.8325,3.2492,2.9705,0.036856,0.17945,0.096473,-0.0231380
108,2083,2.8270,3.2476,2.9900,0.040601,0.17802,0.11277,-0.0830616
109,2092,2.8248,3.2419,2.9761,0.047638,0.19394,0.12373,1.0004
110,2104,2.8160,3.2625,2.9846,0.032225,0.23565,0.13101,0.75568
111,2115,2.8167,3.2453,2.9850,0.037306,0.20048,0.11703,-0.208092
112,2126,2.8277,3.2407,3.0044,0.036699,0.18108,0.11098,1.1866
113,2131,2.8357,3.2419,2.9927,0.020478,0.18630,0.11471,-0.0235419
114,2144,2.8168,3.2587,2.9901,0.029912,0.21214,0.12132,0.18127
115,2151,2.8273,3.2528,2.9889,0.040506,0.20325,0.12689,-0.156226
116,2166,2.8156,3.2571,2.9828,0.033047,0.18577,0.13301,0.033460
117,2170,2.8287,3.2492,2.9818,0.038840,0.20863,0.10902,-0.161889
118,2188,2.8277,3.2561,2.9857,0.041531,0.18874,0.098681,-0.0553132
119,2191,2.8325,3.2617,2.9748,0.032780,0.21758,0.093469,-0.305497
120,2201,2.8287,3.2547,2.9793,0.034625,0.22126,0.10760,-0.00789141
121,2215,2.8134,3.2606,2.9942,0.041239,0.20302,0.11506,0.18459
122,2221,2.8277,3.2562,2.9766,0.037965,0.20651,0.11614,1.9377
123,2233,2.8285,3.2634,2.9819,0.042546,0.21624,0.12468,-0.0589048
124,2243,2.8204,3.2472,2.9906,0.037110,0.21116,0.11775,-0.626887
125,2255,2.8212,3.2484,2.9887,0.043025,0.18685,0.13513,0.56668
126,2263,2.8120,3.2535,2.9834,0.038458,0.20072,0.11933,-0.182206
127,2274,2.8184,3.2450,3.0064,0.035777,0.19145,0.13765,0.013716
128,2284,2.8056,3.2519,2.9942,0.036593,0.19853,0.14866,0.43026
129,2291,2.8268,3.2490,2.9979,0.032755,0.22327,0.13780,1.7369
130,2300,2.8178,3.2485,2.9872,0.037042,0.18394,0.12060,-0.136953
131,2319,2.8246,3.2629,3.0118,0.041118,0.24370,0.11428,0.073620
132,2321,2.8174,3.2571,2.9766,0.043547,0.19959,0.12058,-0.0400723
133,2331,2.8203,3.2510,2.9828,0.036221,0.18798,0.12684,0.19983
134,2348,2.8180,3.2625,2.9851,0.036224,0.22047,0.12610,0.82549
135,2356,2.8317,3.2524,2.9883,0.031798,0.21489,0.11634,1.3121
136,2365,2.8367,3.2569,2.9932,0.018643,0.20888,0.099151,0.29300
137,2377,2.8251,3.2444,2.9871,0.039554,0.18155,0.12553,-0.715089
138,2380,2.8267,3.2685,2.9606,0.039834,0.20022,0.098546,-0.00243481
139,2391,2.8361,3.2395,2.9881,0.0083507,0.18252,0.11857,-0.906685
140,2402,2.8227,3.2493,2.9937,0.030869,0.19204,0.10767,1.9867
141,2411,2.8234,3.2424,2.9834,0.039064,0.19497,0.12397,-0.0567288
142,2427,2.8138,3.2522,2.9783,0.033794,0.19996,0.12298,0.040178
143,2438,2.8201,3.2551,2.9954,0.038447,0.22623,0.13420,0.73564
144,2442,2.8377,3.2521,2.9851,0.013723,0.18348,0.11005,-1.08163
145,2450,2.8308,3.2561,2.9763,0.028346,0.19485,0.11183,-0.00894716
146,2462,2.8158,3.2474,2.9584,0.040632,0.18993,0.088665,-0.0394177
147,2472,2.8213,3.2283,3.0015,0.042489,0.19845,0.12308,-0.203204
148,2483,2.8298,3.2576,2.9906,0.032299,0.20321,0.11896,-2.77066
149,2492,2.8352,3.2344,2.9761,0.028929,0.17900,0.098542,-0.948469
150,2500,2.8366,3.2422,2.9844,0.022377,0.19393,0.10351,-0.935148
151,2511,2.8230,3.2550,2.9897,0.043918,0.20902,0.13156,1.7566
152,2521,2.8258,3.2564,2.9927,0.042719,0.18568,0.12186,-0.145203
153,2537,2.8134,3.2660,2.9868,0.035068,0.23704,0.12989,0.050198
154,2542,2.8175,3.2485,2.9914,0.036274,0.20236,0.14856,0.82021
155,2550,2.8158,3.2550,2.9962,0.026809,0.23109,0.11938,0.22394
156,2562,2.8272,3.2607,3.0054,0.036359,0.22031,0.12106,-0.127190
157,2575,2.8342,3.2470,2.9926,0.024629,0.20185,0.10603,0.015352
158,2580,2.8154,3.2482,3.0019,0.027986,0.21770,0.12406,1.6386
159,2595,2.8324,3.2470,2.9653,0.039708,0.17781,0.096921,-0.0626043
160,2600,2.8278,3.2646,2.9944,0.044140,0.22877,0.11245,1.7753
161,2617,2.8163,3.2566,2.9707,0.047216,0.20731,0.10324,-0.110005
162,2622,2.8355,3.2481,2.9907,0.028622,0.18618,0.11207,-0.837400
163,2635,2.8290,3.2600,3.0104,0.029552,0.23499,0.12454,-0.235315
164,2645,2.8329,3.2570,2.9796,0.032073,0.22656,0.11570,-0.0922113
165,2652,2.8258,3.2887,2.9705,0.036916,0.26651,0.088518,0.032892
166,2665,2.8327,3.2520,2.9637,0.037024,0.18017,0.10660,-0.0604144
167,2674,2.8271,3.2553,2.9626,0.048091,0.20326,0.11493,-0.0259556
168,2683,2.8308,3.2601,2.9729,0.041412,0.20073,0.10293,-0.0699594
169,2692,2.8248,3.2607,2.9889,0.036124,0.21767,0.11118,-0.177982
170,2701,2.8249,3.2475,2.9821,0.042791,0.22178,0.10713,-0.0450098
171,2712,2.8239,3.2502,2.9844,0.030937,0.18666,0.098657,0.024219
172,2720,2.8331,3.2414,3.0020,0.032129,0.19700,0.11741,-0.0748529
173,2730,2.8358,3.2385,2.9855,0.0058499,0.15199,0.080267,-0.185269
174,2740,2.8254,3.2684,2.9879,0.031743,0.23755,0.10722,-0.301494
175,2754,2.8115,3.2540,2.9937,0.039945,0.21538,0.13632,0.13729
176,2760,2.8321,3.2513,2.9761,0.042605,0.21427,0.11504,-0.0910899
177,2778,2.8156,3.2597,2.9874,0.042390,0.24211,0.10961,-0.210821
178,2789,2.8179,3.2448,3.0150,0.036396,0.20615,0.14781,-0.0811023
179,2793,2.8203,3.2876,2.9709,0.049523,0.23752,0.088017,-0.0576826
180,2804,2.8183,3.2692,2.9854,0.042204,0.25183,0.11355,-0.0579498
181,2816,2.8191,3.2506,3.0063,0.037699,0.19719,0.13730,1.6167
182,2824,2.8210,3.2586,2.9852,0.048377,0.19195,0.11631,-0.0531583
183,2831,2.8300,3.2473,2.9844,0.037897,0.19277,0.11795,1.2608
184,2841,2.8372,3.2504,2.9908,0.019394,0.17435,0.12169,-0.981087
185,2852,2.8281,3.2579,2.9820,0.034086,0.21837,0.11281,0.065326
186,2864,2.8200,3.2469,2.9811,0.037035,0.20619,0.12090,-0.0893548
187,2871,2.8201,3.2417,2.9904,0.029603,0.20322,0.11171,-0.0544317
188,2888,2.8304,3.2480,2.9946,0.033458,0.23005,0.13173,2.4210
189,2893,2.8181,3.2446,2.9894,0.027211,0.21294,0.13693,-0.0573909
190,2905,2.8127,3.2457,2.9905,0.038709,0.21938,0.10694,-0.186756
191,2911,2.8353,3.2507,2.9944,0.023068,0.17746,0.11970,-0.0788491
192,2920,2.8218,3.2485,2.9854,0.035569,0.20357,0.11349,-0.111969
193,2931,2.8294,3.2469,2.9804,0.030445,0.19909,0.10791,1.0798
194,2945,2.8217,3.2556,2.9968,0.034958,0.21386,0.12359,-0.103206
195,2954,2.8195,3.2546,3.0022,0.035247,0.21597,0.12435,0.049280
196,2963,2.8273,3.2574,2.9935,0.034668,0.20679,0.11389,1.4437
197,2973,2.8379,3.2356,2.9938,0.031274,0.18043,0.10703,-0.0612823
198,2987,2.8207,3.2287,2.9949,0.037515,0.18079,0.12292,-0.154324
199,2999,2.8310,3.2517,2.9801,0.037786,0.20519,0.11678,2.1130
