width_Scan,width_NR0m,width_3189,width_3130,width_2900,m0_3189,m0_3130,m0_2900,ar_H1_f_2150,ar_H1_f_1950,ar_H1_Scan,ar_H1_3189,ar_H1_3130,ar_H1_2940,ar_H1_2900,ar_H1_2880,ar_H1_2860,ar_H1_2765,ar_H1_2150,ar_H0_f_2150,ar_H0_f_1950,ar_H0_Scan,ar_H0_NR0m,ar_H0_Fwave,ar_H0_3189,ar_H0_3130,ar_H0_2940,ar_H0_2900,ar_H0_2880,ar_H0_2860,ar_H0_2765,ai_H1_f_2150,ai_H1_f_1950,ai_H1_Scan,ai_H1_3189,ai_H1_3130,ai_H1_2940,ai_H1_2900,ai_H1_2880,ai_H1_2860,ai_H1_2765,ai_H1_2150,ai_H0_f_2150,ai_H0_f_1950,ai_H0_Scan,ai_H0_NR0m,ai_H0_Fwave,ai_H0_3189,ai_H0_3130,ai_H0_2940,ai_H0_2900,ai_H0_2880,ai_H0_2860,ai_H0_2765,SR_11,SR_10,SR_09,SR_08,SR_07,SR_06,SR_05,SR_04,SR_02,SR_01,SR_00,SI_11,SI_10,SI_09,SI_08,SI_07,SI_06,SI_05,SI_04,SI_02,SI_01,SI_00,NAME,JP,id,mass,PARAMETER,STRATEGY=,-
1.35905e-02,2.03065e+00,1.18752e-01,2.00151e-01,1.61584e-02,2.99477e+00,3.24146e+00,2.83661e+00,-8.43370e-02,1.22702e+00,2.35197e+00,4.31785e-01,3.61780e-01,9.38649e-02,4.49705e-01,-8.96044e-02,-5.84619e-01,-1.59674e-01,-9.51700e-01,-2.71417e-02,6.92085e-01,-1.23840e-01,-1.93161e-04,-3.18360e+00,7.28943e-01,-8.99961e-01,-4.82867e-02,8.34795e-02,3.68164e-02,2.98047e-01,-1.08523e-01,1.13985e+00,-1.40421e+00,1.85865e+00,-3.27080e-01,4.92871e-01,-1.04495e-01,-2.79272e-01,-1.46475e-01,9.31678e-01,-2.16403e+00,4.69337e-01,-8.26979e-01,-8.56114e-01,-1.93189e+00,5.93247e-04,-3.66918e-01,6.53077e-03,-4.00871e-01,-2.57122e-01,3.48050e-01,3.92891e-02,-2.28253e-01,2.31981e+00,-3.62135e-01,-1.17586e-01,-1.09359e-01,-2.07127e-01,-3.00898e-01,-1.41484e-01,4.63746e-01,7.74298e-01,1.03747e+00,1.03363e+00,1.10331e+00,2.18150e-01,1.41091e-01,1.99769e-01,2.42582e-01,3.87341e-01,5.45937e-01,7.80331e-01,5.34013e-01,-1.21889e-01,-2.46978e-01,1.65887e+00,VALUE,1p,0006,2.8,,,
2.35351e-02,2.08472e+00,1.19091e-01,1.96995e-01,1.07641e-02,2.99584e+00,3.24119e+00,2.83559e+00,-9.10293e-02,1.10302e+00,1.59578e-01,4.62753e-01,4.02462e-01,7.60894e-02,2.82347e-01,-1.21352e-01,-4.97871e-01,4.11593e-01,-1.13397e+00,-2.05935e-02,5.81577e-01,1.19007e-01,-1.14784e-04,-3.66702e+00,8.09306e-01,-9.18844e-01,-9.01380e-02,1.51687e-01,3.36471e-02,2.34472e-01,-5.04403e-01,1.29216e+00,-1.70802e+00,2.38523e-01,-3.36577e-01,6.36043e-01,-1.01275e-01,-2.32550e-01,-1.49701e-01,1.07162e+00,-2.31861e+00,4.84195e-01,-9.36588e-01,-1.10694e+00,-3.30833e-01,5.09599e-04,-3.54066e-01,-4.20727e-03,-4.16787e-01,-2.66301e-01,5.81427e-01,1.38301e-02,-3.56492e-01,2.67130e+00,-3.50085e-01,-1.21392e-01,-1.21814e-01,-2.19026e-01,-3.10622e-01,-1.58983e-01,4.32094e-01,7.52378e-01,1.03046e+00,1.03958e+00,1.11790e+00,1.84576e-01,1.33848e-01,1.88803e-01,2.23003e-01,3.59773e-01,5.30494e-01,7.91028e-01,5.52219e-01,-1.44434e-01,-2.59765e-01,1.61323e+00,VALUE,1p,0015,2.805,,,
2.74090e-02,2.04622e+00,1.20767e-01,2.02551e-01,1.26450e-02,2.99471e+00,3.24471e+00,2.83536e+00,-7.72080e-02,2.60188e+00,-2.27077e-01,7.93335e-01,1.25436e+00,-2.03543e-01,-3.33699e-01,-2.73339e-01,1.15268e+00,1.19999e+00,-2.49471e+00,-3.27316e-01,2.15181e+00,4.77597e-01,3.25327e-04,-6.62932e+00,1.47201e+00,-1.05259e+00,-4.41029e-01,1.19737e+00,8.25010e-03,-1.50599e+00,-1.97974e+00,2.12771e+00,-1.95961e+00,3.30583e-01,2.46864e-02,1.35109e+00,1.70636e-01,3.38237e-01,-1.38674e-02,1.13778e+00,-3.82164e+00,9.15114e-01,-1.61113e+00,-5.87316e-01,-1.09213e+00,7.66657e-04,-4.94104e-01,-6.86220e-01,-6.23498e-01,-1.03637e-01,5.19931e-01,2.33119e-01,9.75131e-02,4.42183e+00,-3.50934e-01,-1.19547e-01,-1.12518e-01,-1.91038e-01,-2.69260e-01,-1.14828e-01,4.64053e-01,7.63915e-01,1.03687e+00,1.04670e+00,1.30803e+00,1.70898e-01,1.30500e-01,1.80493e-01,2.21723e-01,3.60097e-01,5.30116e-01,7.70368e-01,5.34589e-01,-2.17193e-01,-3.75157e-01,1.52238e+00,VALUE,1p,0026,2.81,,,
3.43628e-02,2.11029e+00,1.17959e-01,1.98274e-01,1.39461e-02,3.00049e+00,3.23904e+00,2.83611e+00,-1.57058e-01,1.47529e+00,-1.16954e-01,4.68275e-01,6.97299e-01,-1.55463e-01,-1.68441e-01,-1.37053e-01,7.52356e-01,3.25237e-01,-1.35242e+00,5.92621e-03,1.03701e+00,5.29072e-01,1.14543e-05,-3.98239e+00,8.49976e-01,-8.24857e-01,-2.95256e-01,3.25540e-01,-4.52378e-02,-7.43825e-01,-1.40365e+00,1.37400e+00,-1.66556e+00,3.36949e-01,-6.50296e-02,7.24002e-01,7.67321e-02,-3.27233e-01,-1.98766e-02,8.40835e-01,-2.90796e+00,5.04766e-01,-1.04381e+00,-8.68100e-01,-5.20734e-01,4.70336e-04,-3.44888e-01,-1.83134e-02,-4.07588e-01,-1.55790e-01,-1.56051e-01,1.85479e-01,-1.28746e-01,2.72676e+00,-3.72155e-01,-1.31313e-01,-1.28279e-01,-2.23205e-01,-3.17191e-01,-1.59406e-01,4.24831e-01,7.41747e-01,1.02102e+00,1.03367e+00,1.11283e+00,1.42023e-01,1.08277e-01,1.66956e-01,2.05307e-01,3.38444e-01,5.22266e-01,7.89238e-01,5.56524e-01,-1.79247e-01,-2.61276e-01,1.59437e+00,VALUE,1p,0035,2.815,,,
3.34767e-02,2.06382e+00,1.15692e-01,1.99493e-01,1.46186e-02,2.99614e+00,3.23995e+00,2.83646e+00,-1.71924e-01,1.61351e+00,-4.18619e-01,7.23870e-01,6.65068e-01,8.29250e-02,2.17073e-01,-1.66594e-01,-3.14465e-01,1.17311e+00,-1.55800e+00,-1.56355e-02,1.11386e+00,6.20488e-01,-5.84124e-04,-4.42368e+00,6.85240e-01,-9.87729e-01,-9.46270e-02,9.59212e-02,-5.09353e-02,4.08538e-01,-1.01350e+00,1.50228e+00,-1.82513e+00,5.95787e-01,-3.20536e-01,5.73371e-01,-9.39737e-02,-5.75969e-01,-1.86196e-01,1.22616e+00,-3.50376e+00,5.50591e-01,-1.12801e+00,-9.52262e-01,-7.97779e-02,-1.60122e-05,-5.11422e-01,7.79756e-02,-6.71245e-01,-3.51724e-01,1.82716e-01,-2.69637e-03,-5.94785e-01,2.16456e+00,-3.54533e-01,-1.08546e-01,-1.09479e-01,-2.11181e-01,-2.94946e-01,-1.33297e-01,4.45065e-01,7.44511e-01,1.00475e+00,1.01623e+00,1.16366e+00,1.51429e-01,1.06419e-01,1.69718e-01,2.06692e-01,3.47264e-01,5.24063e-01,7.66698e-01,5.36974e-01,-2.10755e-01,-3.06199e-01,1.53242e+00,VALUE,1p,0042,2.82,,,
6.56283e-02,2.03369e+00,1.24694e-01,2.00636e-01,1.71372e-02,2.99797e+00,3.24302e+00,2.83569e+00,6.14568e-02,1.75519e+00,-8.71402e-02,5.29905e-01,8.06152e-01,-1.25233e-01,-2.59186e-01,-1.12578e-01,1.01349e+00,-2.18034e-01,-1.48467e+00,-2.55531e-01,1.43535e+00,9.16425e-01,-3.02331e-04,-4.39870e+00,9.15841e-01,-9.72046e-01,-3.07557e-01,1.94030e-01,2.74819e-02,-1.00046e+00,-2.43892e+00,1.48502e+00,-1.60895e+00,2.59680e-01,-1.73343e-01,7.47744e-01,2.13509e-01,-3.41962e-01,3.16522e-02,3.60409e-01,-2.37656e+00,8.65041e-01,-1.08533e+00,-5.81637e-01,-2.20800e-01,6.56443e-04,-4.97694e-02,-2.29890e-01,-4.00923e-01,2.67420e-03,-2.38452e-01,2.31470e-01,4.07440e-01,3.00278e+00,-3.69084e-01,-1.02930e-01,-9.69268e-02,-1.90731e-01,-2.72387e-01,-1.03400e-01,4.93164e-01,7.85694e-01,1.02826e+00,1.01999e+00,1.25457e+00,1.74956e-01,1.24361e-01,1.84200e-01,2.27382e-01,3.84790e-01,5.57174e-01,7.63167e-01,5.20728e-01,-2.19758e-01,-3.42687e-01,1.51924e+00,VALUE,1p,0059,2.825,,,
7.30395e-02,2.09380e+00,1.22223e-01,2.02958e-01,2.80656e-02,2.99069e+00,3.24671e+00,2.83609e+00,1.93418e-01,1.79925e+00,-5.48724e-01,4.71761e-01,7.18052e-01,-7.32852e-02,1.88013e-01,-2.06731e-01,4.20138e-01,4.62188e-01,-1.30649e+00,-3.95553e-01,1.57407e+00,5.34045e-01,1.76823e-04,-4.20680e+00,8.28115e-01,-1.10634e+00,-2.46676e-01,2.11601e-01,1.21667e-02,-4.29079e-01,-1.70145e+00,1.35870e+00,-1.37541e+00,5.51207e-01,-4.67016e-01,4.76524e-01,-8.01251e-02,-7.32891e-01,-1.01792e-01,1.26000e+00,-3.42358e+00,1.07663e+00,-9.86913e-01,-2.65317e-01,4.73713e-01,5.60879e-04,4.28704e-01,-3.08738e-01,-4.34284e-01,-2.26840e-01,2.85752e-01,9.91001e-02,-5.10051e-01,8.07625e-01,-3.64915e-01,-9.57187e-02,-7.89511e-02,-1.69920e-01,-2.59337e-01,-9.62472e-02,4.80972e-01,7.68774e-01,1.00698e+00,1.01171e+00,1.16103e+00,2.03245e-01,1.33603e-01,1.92521e-01,2.36817e-01,3.93834e-01,5.59108e-01,7.62618e-01,5.27816e-01,-2.44539e-01,-3.07707e-01,1.54843e+00,VALUE,1p,0066,2.83,,,
4.40263e-03,1.69471e+00,1.35577e-01,2.09186e-01,3.04562e-02,2.98917e+00,3.24885e+00,2.81310e+00,-4.27288e-01,2.04656e-01,1.99484e-01,4.01882e-01,1.00779e-01,8.04999e-02,1.18014e-01,-4.42687e-03,-4.88027e-01,6.74495e-01,-8.96188e-01,1.83761e-01,-9.80824e-01,-1.51106e-01,1.71158e-03,-2.61989e+00,1.05465e+00,-4.52540e-01,1.12484e-02,1.63427e-01,1.09680e-01,7.51136e-01,1.15376e+00,1.19200e+00,-1.34071e+00,9.60407e-02,-6.95791e-02,9.11753e-01,6.57548e-02,6.46939e-03,-1.41945e-01,8.83473e-02,-3.39119e-02,-1.25539e-01,-4.26601e-01,-1.59443e+00,-3.69488e-02,1.03848e-03,-1.76961e+00,1.01940e-01,-3.51752e-01,-6.26426e-02,1.03900e+00,-4.84002e-02,-2.21918e-01,1.05033e+00,-4.22039e-01,-1.44614e-01,-1.15424e-01,-1.90006e-01,-2.56403e-01,-1.16388e-01,4.78704e-01,7.79629e-01,1.04695e+00,1.04868e+00,1.08657e+00,2.80017e-01,2.01137e-01,2.66551e-01,3.25522e-01,4.66694e-01,5.78061e-01,7.78359e-01,5.29335e-01,-7.82372e-02,-2.08504e-01,1.68868e+00,VALUE,1p,0074,2.835,,,
7.47794e-02,2.13553e+00,1.26720e-01,1.96822e-01,2.78872e-02,2.99536e+00,3.24415e+00,2.83435e+00,-1.65913e-01,1.43686e+00,-1.26033e-01,5.01448e-01,3.68726e-01,-5.60090e-02,-2.95466e-01,-1.21779e-01,5.45166e-01,8.42938e-03,-9.02622e-01,-1.80129e-02,9.46369e-01,8.09656e-01,-2.21902e-04,-2.95327e+00,4.97271e-01,-6.26965e-01,-2.01883e-01,4.71539e-01,1.49976e-02,-7.59121e-01,-2.37730e+00,1.00726e+00,-1.01834e+00,3.71269e-02,-1.83323e-01,5.62131e-01,8.78575e-02,-1.55020e-01,-1.85718e-02,2.03841e-01,-1.25587e+00,3.97465e-01,-8.11880e-01,-4.95086e-01,4.05499e-01,2.84118e-04,-5.51982e-01,-6.82684e-02,-4.72727e-01,-1.07238e-02,6.55628e-02,1.52304e-01,2.26101e-01,1.15540e+00,-4.22671e-01,-1.08855e-01,-9.33036e-02,-1.91624e-01,-2.86208e-01,-1.33617e-01,4.64871e-01,7.69205e-01,1.02451e+00,1.02101e+00,1.05668e+00,1.67128e-01,1.23781e-01,1.89409e-01,2.40267e-01,4.03181e-01,5.53497e-01,7.78208e-01,5.36571e-01,-1.58261e-01,-2.20084e-01,1.61900e+00,VALUE,1p,0086,2.84,,,
2.29647e-02,1.51819e+00,1.32324e-01,2.02215e-01,3.70716e-02,2.99037e+00,3.24609e+00,2.80504e+00,-2.04308e-01,3.31075e-01,-4.24948e-01,8.26288e-01,5.54170e-01,1.03389e-01,-2.66007e-01,-1.36352e-01,8.36800e-02,1.88147e-01,-7.50167e-01,4.45663e-02,-6.23861e-01,-6.10465e-02,-1.78506e-03,-2.62723e+00,2.10413e-01,-1.80508e-01,-7.38209e-03,5.80430e-01,-1.04450e-01,1.54582e-01,1.04962e-01,1.04955e+00,-1.38454e+00,3.19659e-01,1.10769e-01,3.94932e-01,1.77194e-02,6.08828e-01,-8.85623e-02,4.02319e-01,-2.14422e+00,1.80391e-01,-5.39134e-01,-1.31327e+00,3.22180e-01,-3.13820e-03,-9.81679e-01,-3.44724e-01,-6.65546e-01,-1.88927e-01,9.22201e-02,-8.26216e-02,-6.01212e-01,-2.73804e-02,-4.72143e-01,-1.28221e-01,-1.18593e-01,-2.04553e-01,-2.70841e-01,-1.13967e-01,4.85431e-01,7.82213e-01,1.04633e+00,1.04879e+00,1.12291e+00,1.71465e-01,1.46759e-01,2.25670e-01,2.86800e-01,4.55088e-01,5.85233e-01,7.73814e-01,5.26674e-01,-8.86616e-02,-2.28050e-01,1.68535e+00,VALUE,1p,0091,2.845,,,
2.85273e-02,2.06439e+00,1.22015e-01,1.93213e-01,3.72443e-02,2.99512e+00,3.24250e+00,2.80560e+00,-2.55789e-01,5.52374e-01,-5.61202e-01,4.93061e-01,3.63334e-01,7.14794e-02,-2.65642e-01,-1.26591e-01,-2.11103e-01,1.63346e+00,-7.84708e-01,9.23934e-02,-2.48828e-01,-8.31351e-02,4.35454e-04,-2.59096e+00,5.53169e-01,-4.77394e-01,-5.82806e-02,4.25487e-01,-4.12088e-02,1.83273e-01,5.22199e-01,1.01210e+00,-1.36244e+00,-1.61184e-01,-1.84998e-01,6.55016e-01,-6.45744e-03,5.88314e-03,-1.22394e-01,5.69550e-01,-1.10263e+00,1.76050e-01,-6.36266e-01,-1.24131e+00,-2.63771e-02,2.63972e-04,-9.79908e-01,-3.76999e-02,-3.00696e-01,-1.86373e-01,5.25971e-01,-5.46290e-02,-5.54128e-01,9.23067e-01,-3.76281e-01,-9.03338e-02,-8.89603e-02,-2.01999e-01,-2.79602e-01,-1.16835e-01,4.90302e-01,7.87237e-01,1.03511e+00,1.02483e+00,1.09127e+00,2.15947e-01,1.41814e-01,2.20483e-01,2.76841e-01,4.33526e-01,5.70535e-01,7.74916e-01,5.25354e-01,-9.06070e-02,-2.04505e-01,1.61694e+00,VALUE,1p,0108,2.85,,,
9.38605e-02,2.06427e+00,1.28816e-01,1.97043e-01,2.96426e-02,2.99087e+00,3.24545e+00,2.83379e+00,-1.58330e-01,1.58445e+00,-5.00336e-01,5.53455e-01,4.87349e-01,6.08392e-02,2.39178e-01,-1.39336e-01,-1.40445e-01,1.18577e+00,-9.03768e-01,-6.50522e-02,1.08978e+00,1.60363e-01,-3.36269e-04,-2.97262e+00,4.14596e-01,-5.37172e-01,-9.81184e-02,2.56219e-01,2.00640e-02,-1.75280e-01,-1.02377e+00,9.95312e-01,-8.46532e-01,-1.26200e-01,-1.81967e-01,4.29190e-01,-8.04183e-02,-4.03640e-01,-1.47226e-01,8.78863e-01,-1.92596e+00,4.41691e-01,-8.29468e-01,-2.43315e-01,6.38794e-01,-3.32569e-04,-5.17795e-01,-2.57952e-01,-6.14315e-01,-1.49063e-01,4.44201e-01,6.01754e-03,-4.29172e-01,-4.42310e-01,-4.01270e-01,-1.01812e-01,-7.91612e-02,-1.77818e-01,-2.73234e-01,-1.20885e-01,4.74743e-01,7.72788e-01,1.02463e+00,1.01837e+00,1.06109e+00,2.06448e-01,1.43875e-01,2.01794e-01,2.51097e-01,4.17761e-01,5.62131e-01,7.74540e-01,5.33201e-01,-1.71023e-01,-2.29214e-01,1.63474e+00,VALUE,1p,0110,2.855,,,
9.95491e-02,2.06201e+00,1.27828e-01,1.96736e-01,3.01690e-02,2.98975e+00,3.24577e+00,2.83345e+00,-1.48101e-01,1.61986e+00,-7.15289e-02,5.18639e-01,4.42517e-01,-3.49133e-02,-1.44727e-01,-1.68384e-01,4.89032e-01,-7.02251e-02,-9.22409e-01,-8.33208e-02,1.11917e+00,4.92994e-01,-3.99902e-04,-3.02889e+00,4.31247e-01,-6.07444e-01,-2.00116e-01,7.15290e-01,-3.50538e-03,-8.14825e-01,-2.22494e+00,1.01037e+00,-8.42836e-01,-2.28546e-01,-3.23220e-01,5.37179e-01,3.01695e-02,-6.24940e-03,-2.49211e-02,3.16264e-01,-9.78364e-01,4.66630e-01,-8.39231e-01,-2.13745e-01,6.26575e-01,2.70627e-04,-4.95022e-01,-1.82650e-01,-5.13153e-01,-3.92216e-02,6.56261e-02,1.19963e-01,1.37782e-01,3.23031e-01,-3.88840e-01,-9.65976e-02,-7.41688e-02,-1.73270e-01,-2.68840e-01,-1.16809e-01,4.75406e-01,7.71823e-01,1.02351e+00,1.01728e+00,1.05747e+00,2.12447e-01,1.47353e-01,2.03841e-01,2.52864e-01,4.20421e-01,5.64396e-01,7.74412e-01,5.33792e-01,-1.71838e-01,-2.30567e-01,1.63668e+00,VALUE,1p,0120,2.86,,,
1.03289e-01,2.04144e+00,1.26806e-01,1.96221e-01,3.09796e-02,2.98933e+00,3.24565e+00,2.83318e+00,-1.47107e-01,1.64955e+00,-3.82047e-01,5.51037e-01,5.10264e-01,6.96365e-02,2.55021e-01,-1.50276e-01,-1.21401e-01,1.25191e+00,-9.56441e-01,-9.02564e-02,1.13559e+00,7.70225e-02,-3.11218e-04,-3.10971e+00,4.04208e-01,-5.71771e-01,-1.01495e-01,3.61691e-01,2.09950e-02,-2.00054e-01,-8.27039e-01,1.04129e+00,-8.88059e-01,-2.46350e-01,-2.64749e-01,4.81075e-01,-8.36491e-02,-4.14407e-01,-1.51957e-01,8.96671e-01,-1.75920e+00,4.79505e-01,-8.52052e-01,-2.40990e-01,6.73782e-01,-4.35449e-04,-4.87176e-01,-2.82930e-01,-5.85972e-01,-1.56961e-01,4.82268e-01,-7.78709e-03,-4.37324e-01,-5.79714e-01,-3.77366e-01,-9.38562e-02,-7.32149e-02,-1.72874e-01,-2.68739e-01,-1.16409e-01,4.73909e-01,7.70261e-01,1.02367e+00,1.01811e+00,1.05775e+00,2.15725e-01,1.49655e-01,2.05435e-01,2.53220e-01,4.19963e-01,5.65103e-01,7.75547e-01,5.35192e-01,-1.68389e-01,-2.32867e-01,1.64176e+00,VALUE,1p,0134,2.865,,,
1.05839e-01,2.21312e+00,1.25448e-01,1.95734e-01,3.16961e-02,2.98886e+00,3.24602e+00,2.83276e+00,-1.29449e-01,1.65090e+00,-1.28686e-01,5.08878e-01,5.00413e-01,-1.27781e-02,-7.10900e-02,-1.94458e-01,3.80199e-01,2.72472e-01,-9.64959e-01,-1.02643e-01,1.12757e+00,2.37097e-01,-2.77096e-04,-3.13321e+00,4.17742e-01,-5.91175e-01,-1.84928e-01,7.20161e-01,-2.14608e-02,-6.88266e-01,-1.69896e+00,1.04602e+00,-9.00007e-01,-2.40653e-01,-3.51974e-01,5.28796e-01,-3.36281e-02,-2.05139e-01,-7.03021e-02,6.16639e-01,-1.49350e+00,5.02777e-01,-8.54798e-01,-2.62171e-01,7.24204e-01,-5.33138e-05,-4.98131e-01,-2.40859e-01,-5.39814e-01,-1.05636e-01,2.76524e-01,6.59167e-02,-1.73971e-01,-4.39512e-01,-3.64640e-01,-8.73123e-02,-6.69811e-02,-1.66838e-01,-2.60807e-01,-1.09293e-01,4.79900e-01,7.73616e-01,1.02008e+00,1.00919e+00,1.04356e+00,2.21921e-01,1.52796e-01,2.08476e-01,2.57972e-01,4.26653e-01,5.69422e-01,7.75771e-01,5.34400e-01,-1.68678e-01,-2.25381e-01,1.61965e+00,VALUE,1p,0148,2.87,,,
1.05407e-01,2.07037e+00,1.24184e-01,1.95239e-01,3.21366e-02,2.98935e+00,3.24576e+00,2.83252e+00,-1.36859e-01,1.65037e+00,-1.99012e-01,5.08548e-01,5.18221e-01,3.33568e-02,7.81038e-02,-1.81321e-01,1.40242e-01,8.23618e-01,-9.57371e-01,-1.05102e-01,1.10620e+00,7.91312e-02,-4.18459e-04,-3.11822e+00,3.99073e-01,-5.73769e-01,-1.40650e-01,5.67109e-01,-8.40879e-03,-4.34765e-01,-1.03089e+00,1.04295e+00,-9.22699e-01,-2.69496e-01,-3.28014e-01,5.22953e-01,-7.28987e-02,-3.73291e-01,-1.21202e-01,8.11771e-01,-1.67978e+00,4.93215e-01,-8.48751e-01,-3.07676e-01,6.90699e-01,-2.61352e-04,-5.09592e-01,-2.63225e-01,-5.36261e-01,-1.43258e-01,4.26692e-01,1.61276e-02,-3.74943e-01,-6.62377e-01,-3.55366e-01,-8.45367e-02,-6.50312e-02,-1.65661e-01,-2.60449e-01,-1.07822e-01,4.83262e-01,7.75988e-01,1.02373e+00,1.01663e+00,1.04242e+00,2.25276e-01,1.54518e-01,2.10145e-01,2.60250e-01,4.28049e-01,5.70105e-01,7.72830e-01,5.30424e-01,-1.61412e-01,-2.20101e-01,1.63965e+00,VALUE,1p,0153,2.875,,,
1.05015e-01,2.12991e+00,1.22369e-01,1.94579e-01,3.26912e-02,2.98982e+00,3.24572e+00,2.83223e+00,-1.41828e-01,1.62564e+00,-2.93736e-02,4.47239e-01,5.24723e-01,-1.83346e-02,-1.18405e-01,-1.93006e-01,4.26792e-01,1.64620e-01,-9.38659e-01,-9.73403e-02,1.06655e+00,1.55688e-01,-3.78514e-04,-3.06729e+00,4.26042e-01,-5.41789e-01,-1.89180e-01,7.51023e-01,-2.33041e-02,-7.00647e-01,-1.55649e+00,1.02468e+00,-9.23426e-01,-2.84244e-01,-3.44439e-01,5.39058e-01,-2.47815e-02,-1.59573e-01,-5.55454e-02,5.20381e-01,-1.40740e+00,4.78896e-01,-8.38692e-01,-3.55286e-01,6.64447e-01,1.13966e-04,-5.52741e-01,-2.38731e-01,-5.07741e-01,-9.29902e-02,2.07036e-01,7.94604e-02,-1.03429e-01,-4.47113e-01,-3.44391e-01,-7.91595e-02,-6.10495e-02,-1.62548e-01,-2.56591e-01,-1.04628e-01,4.86899e-01,7.78243e-01,1.02320e+00,1.01349e+00,1.02606e+00,2.28155e-01,1.55369e-01,2.11707e-01,2.63669e-01,4.31480e-01,5.70856e-01,7.71899e-01,5.28613e-01,-1.53792e-01,-2.08277e-01,1.63481e+00,VALUE,1p,0168,2.88,,,
1.02193e-01,1.73277e+00,1.20740e-01,1.94872e-01,3.35262e-02,2.99102e+00,3.24590e+00,2.83183e+00,-1.45854e-01,1.65577e+00,-2.16134e-03,4.39116e-01,5.67641e-01,-1.44604e-02,-1.36594e-01,-1.95092e-01,4.54546e-01,1.44590e-01,-9.36851e-01,-1.25281e-01,1.06084e+00,1.36674e-01,-1.69546e-03,-3.10427e+00,4.27500e-01,-5.20047e-01,-1.93617e-01,7.89153e-01,-2.39881e-02,-7.23940e-01,-1.50223e+00,1.03652e+00,-9.72385e-01,-3.31325e-01,-3.42782e-01,5.48531e-01,-2.18142e-02,-1.29462e-01,-4.97328e-02,4.68039e-01,-1.39815e+00,4.82752e-01,-8.27226e-01,-4.12916e-01,6.13770e-01,7.17248e-04,-5.25025e-01,-2.40172e-01,-4.95740e-01,-8.75679e-02,1.68766e-01,8.76459e-02,-7.55150e-02,-4.57708e-01,-3.40802e-01,-7.84884e-02,-6.03771e-02,-1.61594e-01,-2.55897e-01,-1.00428e-01,4.91984e-01,7.80811e-01,1.03137e+00,1.03309e+00,1.03663e+00,2.27914e-01,1.55636e-01,2.12634e-01,2.65067e-01,4.32254e-01,5.71824e-01,7.62808e-01,5.19320e-01,-1.44633e-01,-2.07525e-01,1.68491e+00,VALUE,1p,0170,2.885,,,
2.70900e-01,2.02338e+00,1.28887e-01,2.00381e-01,3.36422e-02,2.98143e+00,3.24944e+00,2.82929e+00,-7.08726e-02,1.53936e+00,5.44715e-02,5.66922e-01,2.06307e-01,5.45596e-03,1.48464e-01,-8.65981e-02,2.52367e-01,-6.83100e-01,-7.81171e-01,-2.03759e-01,1.03851e+00,2.60518e-01,-1.50203e-04,-2.92373e+00,3.07283e-01,-6.47783e-01,-1.65129e-01,5.19245e-01,4.46654e-02,-5.77870e-01,-2.28906e+00,9.23855e-01,-7.90505e-01,-1.32273e-01,-6.02710e-01,4.75423e-01,1.13481e-01,4.53839e-01,4.78053e-02,-2.82745e-01,2.98109e-01,4.79644e-01,-7.65496e-01,-3.08866e-01,8.12192e-01,4.93020e-04,-3.90875e-01,-8.16075e-02,-6.06268e-01,-8.46823e-04,-3.89505e-01,1.57442e-01,5.42443e-01,2.55920e-01,-4.42160e-01,-8.81657e-02,-6.86430e-02,-1.62262e-01,-2.53076e-01,-1.17958e-01,4.74243e-01,7.75548e-01,1.02997e+00,1.03799e+00,9.48378e-01,1.87294e-01,1.41814e-01,2.03591e-01,2.61007e-01,4.39811e-01,5.76248e-01,7.80909e-01,5.35746e-01,-1.39341e-01,-1.47772e-01,1.69087e+00,VALUE,1p,0189,2.89,,,
3.10865e-01,2.09370e+00,1.29708e-01,2.00749e-01,3.45515e-02,2.98312e+00,3.25055e+00,2.82808e+00,5.80336e-03,1.78696e+00,-3.15518e-01,8.45350e-01,4.54703e-01,5.02937e-03,-1.55944e-01,-1.87276e-01,4.62813e-01,-3.28322e-01,-9.62471e-01,-2.58610e-01,1.27663e+00,-2.44229e-01,-3.87936e-04,-3.39762e+00,1.45395e-01,-5.85873e-01,-2.02493e-01,9.16697e-01,-3.37907e-02,-8.23253e-01,-1.89535e+00,1.06899e+00,-8.49187e-01,-1.97473e-01,-4.32313e-01,3.53500e-01,2.11212e-02,1.59750e-01,-1.33382e-02,2.53872e-01,-1.20394e+00,6.24288e-01,-8.36601e-01,-1.47768e-01,8.81996e-01,1.43708e-04,-2.02086e-01,-3.72946e-01,-8.38635e-01,-1.07594e-01,-8.88176e-02,1.03221e-01,6.95297e-03,-1.43773e+00,-4.41534e-01,-8.48553e-02,-6.43031e-02,-1.57876e-01,-2.51480e-01,-1.17055e-01,4.59955e-01,7.60917e-01,1.02476e+00,1.03271e+00,9.76915e-01,1.74469e-01,1.37551e-01,1.99065e-01,2.54273e-01,4.34366e-01,5.76557e-01,7.88853e-01,5.49568e-01,-1.52926e-01,-1.90474e-01,1.68949e+00,VALUE,1p,0191,2.895,,,
3.09276e-01,2.08833e+00,1.28559e-01,1.99822e-01,3.54581e-02,2.98178e+00,3.24998e+00,2.82690e+00,-9.94581e-02,1.45530e+00,2.75186e-01,3.77089e-01,1.22862e-01,6.51347e-02,6.01434e-01,-1.49707e-02,-1.48272e-01,-2.27603e-01,-7.32244e-01,-1.99786e-01,9.02669e-01,3.69694e-01,9.29951e-05,-2.79538e+00,4.43488e-01,-6.26762e-01,-1.06940e-01,6.33845e-02,1.14056e-01,-1.27787e-01,-1.53210e+00,8.95933e-01,-8.43770e-01,-3.02341e-01,-7.04808e-01,6.08411e-01,1.26973e-01,4.68711e-01,3.67451e-02,-4.30107e-01,1.27541e+00,4.35225e-01,-7.25093e-01,-5.32676e-01,5.75810e-01,3.81377e-04,-5.36241e-01,1.06089e-01,-4.44458e-01,3.82715e-02,-3.76531e-01,1.42541e-01,6.52913e-01,1.06955e+00,-4.39048e-01,-8.07006e-02,-6.09215e-02,-1.56898e-01,-2.40036e-01,-1.05548e-01,4.84577e-01,7.80381e-01,1.03562e+00,1.04052e+00,8.96213e-01,1.90093e-01,1.41005e-01,2.06622e-01,2.70099e-01,4.49974e-01,5.78318e-01,7.76704e-01,5.29713e-01,-1.01445e-01,-9.78438e-02,1.69584e+00,VALUE,1p,0205,2.9,,,
2.82077e-01,2.06032e+00,1.28593e-01,2.00432e-01,3.00808e-02,2.98896e+00,3.24591e+00,2.83299e+00,-1.50236e-01,1.43920e+00,2.68125e-01,3.98429e-01,3.54933e-01,3.04655e-02,-9.53769e-02,-2.44117e-02,9.51430e-02,1.67230e-02,-7.83950e-01,-4.29576e-02,1.04296e+00,3.08519e-01,4.43722e-04,-2.68076e+00,4.93248e-01,-5.37820e-01,-1.13593e-01,3.90747e-01,5.90807e-02,-4.85757e-01,-2.04226e+00,8.54474e-01,-6.21731e-01,-1.22668e-01,-2.68004e-01,5.84889e-01,1.52217e-01,2.69415e-01,-1.26438e-02,-4.00628e-01,-1.10019e-01,3.85083e-01,-7.62742e-01,1.88044e-02,8.60883e-01,1.55161e-05,-3.60909e-01,-1.40873e-02,-3.87423e-01,4.93152e-02,-2.84388e-01,1.62787e-01,6.03533e-01,1.49598e+00,-4.62655e-01,-1.13496e-01,-8.95971e-02,-1.89480e-01,-2.87592e-01,-1.38201e-01,4.56920e-01,7.62755e-01,1.01959e+00,1.01156e+00,1.06873e+00,1.24992e-01,9.26100e-02,1.64577e-01,2.15179e-01,3.92016e-01,5.49413e-01,7.76494e-01,5.41337e-01,-1.92133e-01,-2.48616e-01,1.62405e+00,VALUE,1p,0210,2.905,,,
3.08618e-01,2.04232e+00,1.28914e-01,2.02264e-01,2.93632e-02,2.98988e+00,3.24611e+00,2.83265e+00,-1.43044e-01,1.50150e+00,2.39952e-01,4.24779e-01,3.34028e-01,2.67396e-02,-1.16492e-01,-3.02764e-02,1.29633e-01,-1.41286e-01,-8.32862e-01,-5.83732e-02,1.10244e+00,3.21745e-01,-1.58719e-04,-2.82348e+00,5.01928e-01,-5.94575e-01,-1.31992e-01,3.96339e-01,5.36213e-02,-5.46593e-01,-2.17184e+00,9.04647e-01,-6.73570e-01,-7.09489e-02,-2.96996e-01,6.06207e-01,1.57309e-01,2.75025e-01,-5.84243e-03,-3.81331e-01,-2.16246e-01,4.27138e-01,-8.00033e-01,3.23692e-02,9.12128e-01,3.95613e-04,-3.03698e-01,1.62258e-02,-4.07741e-01,4.50973e-02,-2.79111e-01,1.73884e-01,5.99457e-01,1.56398e+00,-4.77145e-01,-1.20941e-01,-9.61718e-02,-1.95218e-01,-2.93233e-01,-1.44727e-01,4.50488e-01,7.60946e-01,1.02449e+00,1.01947e+00,1.10104e+00,1.12395e-01,9.02711e-02,1.61578e-01,2.08912e-01,3.83577e-01,5.47082e-01,7.81097e-01,5.46409e-01,-1.98878e-01,-2.66410e-01,1.63228e+00,VALUE,1p,0228,2.91,,,
3.46532e-01,2.06289e+00,1.25121e-01,1.97887e-01,2.74621e-02,2.99199e+00,3.24239e+00,2.83418e+00,-2.34462e-01,1.44461e+00,-4.24829e-01,5.62307e-01,3.33125e-01,-4.76838e-02,-3.54016e-02,-1.05666e-01,2.56638e-01,7.88655e-01,-8.89906e-01,6.00185e-02,1.04883e+00,-3.63991e-01,-3.76528e-04,-2.80866e+00,3.88797e-01,-5.60689e-01,-1.90470e-01,3.02288e-01,-4.30583e-02,-6.71103e-01,-1.71389e+00,9.18903e-01,-7.30075e-01,-3.53659e-01,-1.17316e-01,4.50783e-01,9.46015e-03,-3.46743e-01,-8.68508e-02,5.84045e-01,-2.01682e+00,2.76362e-01,-8.20420e-01,-5.93621e-02,7.36740e-01,-1.78303e-04,-5.13561e-01,-2.24242e-02,-6.02352e-01,-1.32343e-01,2.34639e-01,1.02665e-01,-2.89173e-01,-1.08709e-01,-4.64470e-01,-1.26496e-01,-1.09565e-01,-2.13499e-01,-3.14569e-01,-1.63191e-01,4.42770e-01,7.59760e-01,1.02436e+00,1.02140e+00,1.14561e+00,1.03974e-01,8.08785e-02,1.51212e-01,1.91449e-01,3.55964e-01,5.30493e-01,7.83896e-01,5.49017e-01,-2.12005e-01,-2.88149e-01,1.59607e+00,VALUE,1p,0232,2.915,,,
,,1.26453e-01,1.99442e-01,2.62654e-02,2.99118e+00,3.24397e+00,2.83409e+00,-1.68443e-01,1.40792e+00,1.91832e-01,4.44092e-01,3.88682e-01,-1.17302e-02,-1.83978e-01,-2.70859e-02,2.30166e-01,9.19747e-02,-8.02198e-01,3.99981e-03,1.07705e+00,2.63839e-01,9.34959e-05,-2.69257e+00,5.01001e-01,-5.35691e-01,-1.17297e-01,3.65604e-01,5.20899e-02,-5.89425e-01,-2.17407e+00,8.71322e-01,-6.25907e-01,2.85275e-03,-1.13553e-01,6.23931e-01,1.85342e-01,8.39304e-02,-2.73923e-02,-2.51990e-01,-5.05390e-01,3.25931e-01,-7.89130e-01,7.51171e-02,9.06906e-01,2.42501e-04,-3.71439e-01,-7.80126e-02,-3.40143e-01,6.08907e-02,-2.09358e-01,1.61198e-01,6.07518e-01,1.55148e+00,-4.48122e-01,-1.17265e-01,-9.62815e-02,-2.00994e-01,-3.10487e-01,-1.61216e-01,4.43048e-01,7.59711e-01,1.02029e+00,1.01707e+00,1.14169e+00,1.15974e-01,8.30110e-02,1.52891e-01,1.97951e-01,3.64018e-01,5.35140e-01,7.83794e-01,5.49859e-01,-2.33040e-01,-2.84380e-01,1.59774e+00,VALUE,1p,0246,2.92,INTERNAL,1,
3.50000e-01,2.02583e+00,1.29580e-01,2.00409e-01,2.77094e-02,2.98888e+00,3.24487e+00,2.83353e+00,-1.94183e-01,1.45656e+00,-4.72856e-01,5.71540e-01,3.98469e-01,7.98939e-03,1.04514e-01,-1.03891e-01,-3.57024e-02,1.20354e+00,-7.96750e-01,7.32791e-03,1.06223e+00,-4.45364e-01,-3.02309e-04,-2.70182e+00,3.63939e-01,-4.42164e-01,-1.21083e-01,2.00062e-01,-2.62098e-02,-4.09919e-01,-9.66178e-01,8.56995e-01,-5.73840e-01,-5.44282e-01,-4.75034e-02,3.50761e-01,-4.74439e-02,-3.51105e-01,-1.23932e-01,6.94802e-01,-2.05033e+00,3.12237e-01,-7.88240e-01,8.41036e-02,3.87650e-01,-2.97734e-04,-4.37637e-01,-1.76438e-01,-6.68607e-01,-1.56570e-01,3.19253e-01,5.40197e-02,-4.28779e-01,-3.59062e-01,-4.75053e-01,-1.21854e-01,-9.78187e-02,-1.99657e-01,-3.02788e-01,-1.56806e-01,4.42289e-01,7.57026e-01,1.02383e+00,1.02380e+00,1.10341e+00,1.15748e-01,8.84034e-02,1.57571e-01,2.02084e-01,3.70714e-01,5.33704e-01,7.77989e-01,5.43894e-01,-2.00400e-01,-2.69520e-01,1.63420e+00,VALUE,1p,0254,2.925,,,
3.49990e-01,2.07246e+00,1.33352e-01,2.03499e-01,3.05782e-02,2.98639e+00,3.24738e+00,2.83132e+00,-1.32009e-01,1.52872e+00,-4.13541e-01,5.78601e-01,5.48865e-01,6.17700e-02,8.83730e-02,-1.08273e-01,-1.10564e-01,1.33217e+00,-7.97219e-01,-6.49790e-02,1.09632e+00,-4.14020e-01,-2.87823e-04,-2.78406e+00,3.51043e-01,-3.30047e-01,-8.14692e-02,2.90264e-01,-1.84006e-02,-2.97769e-01,-5.05053e-01,8.69907e-01,-5.78843e-01,-6.46561e-01,4.32516e-02,3.58287e-01,-5.40320e-02,-3.69704e-01,-1.48686e-01,6.58096e-01,-1.98454e+00,4.13615e-01,-7.86357e-01,9.55549e-02,2.63909e-01,-2.28310e-04,-3.27541e-01,-3.76255e-01,-6.65390e-01,-1.37634e-01,3.98765e-01,2.84006e-02,-4.82536e-01,-6.51563e-01,-4.75531e-01,-1.20527e-01,-9.11178e-02,-1.90114e-01,-2.88443e-01,-1.45441e-01,4.49490e-01,7.59675e-01,1.02448e+00,1.02281e+00,1.04914e+00,1.30692e-01,1.01023e-01,1.71016e-01,2.19442e-01,3.94085e-01,5.48769e-01,7.81691e-01,5.46187e-01,-1.86697e-01,-2.42568e-01,1.66246e+00,VALUE,1p,0268,2.93,,,
3.50000e-01,2.08931e+00,1.33485e-01,2.03156e-01,3.22274e-02,2.98537e+00,3.24715e+00,2.82896e+00,-1.42025e-01,1.54025e+00,-6.71069e-02,7.49156e-01,2.69985e-01,-2.00428e-02,-1.85979e-01,-1.06776e-01,3.90016e-01,-6.97562e-01,-7.81707e-01,-6.64383e-02,1.05976e+00,-2.07162e-01,-3.34469e-04,-2.75018e+00,1.65108e-01,-5.89611e-01,-1.56077e-01,5.53663e-01,-9.99384e-03,-6.97145e-01,-2.22248e+00,8.66788e-01,-6.18366e-01,3.30458e-02,-2.79728e-01,3.59046e-01,3.91546e-02,2.78977e-01,-1.27294e-02,-7.58282e-02,-7.64378e-01,3.95350e-01,-7.78278e-01,-7.24974e-03,8.64045e-01,1.08983e-04,-4.00262e-01,-7.91322e-02,-6.50768e-01,-3.07945e-02,-2.13514e-01,1.59996e-01,2.09568e-01,2.49119e-01,-4.53421e-01,-1.12073e-01,-8.30533e-02,-1.84857e-01,-2.84174e-01,-1.39659e-01,4.60235e-01,7.66748e-01,1.02568e+00,1.02176e+00,1.02506e+00,1.45788e-01,1.09784e-01,1.80559e-01,2.32752e-01,4.06073e-01,5.55339e-01,7.78884e-01,5.38510e-01,-1.67647e-01,-2.22564e-01,1.67502e+00,,1p,0270,2.935,,,-
3.50000e-01,2.08703e+00,1.32891e-01,2.04427e-01,3.34646e-02,2.98342e+00,3.24822e+00,2.82665e+00,-9.16166e-02,1.63926e+00,2.54827e-01,7.57200e-01,2.43601e-01,-1.40396e-02,5.79518e-02,-7.81463e-02,3.30674e-01,-8.98739e-01,-8.69665e-01,-1.23459e-01,1.10548e+00,-2.44070e-02,-2.86013e-04,-2.98736e+00,1.84386e-01,-7.18595e-01,-1.59138e-01,3.72280e-01,3.47767e-02,-5.62698e-01,-2.24105e+00,9.59939e-01,-7.81521e-01,3.89394e-02,-5.19628e-01,4.27800e-01,7.21268e-02,5.52663e-01,2.65356e-02,-3.46184e-01,1.34972e-01,4.86715e-01,-7.95397e-01,-1.33328e-01,9.22225e-01,2.66070e-04,-3.52627e-01,3.42564e-02,-6.20945e-01,-6.04128e-03,-4.34437e-01,1.91183e-01,4.25189e-01,8.96963e-01,-4.32456e-01,-1.01263e-01,-7.33425e-02,-1.72762e-01,-2.69651e-01,-1.22645e-01,4.72888e-01,7.71840e-01,1.02465e+00,1.01928e+00,1.02089e+00,1.52110e-01,1.15055e-01,1.87032e-01,2.43528e-01,4.21926e-01,5.69561e-01,7.77564e-01,5.35315e-01,-1.61370e-01,-2.19967e-01,1.67449e+00,VALUE,1p,0281,2.94,,,
3.50000e-01,2.07197e+00,1.32286e-01,2.03291e-01,3.38589e-02,2.98222e+00,3.24763e+00,2.82483e+00,-1.13427e-01,1.58930e+00,-3.00811e-01,6.04292e-01,6.53062e-01,6.96641e-02,-2.71257e-01,-1.56462e-01,1.36112e-01,5.53228e-01,-8.34795e-01,-1.13821e-01,1.01104e+00,-7.05635e-01,-9.35953e-05,-2.89181e+00,3.15265e-01,-2.46939e-01,-5.88377e-02,6.55870e-01,-4.27097e-02,-2.70889e-01,-4.42789e-01,9.38745e-01,-8.34382e-01,-4.38629e-01,1.36738e-01,3.17152e-01,-4.93611e-02,-1.81994e-01,-1.31138e-01,5.46818e-01,-1.95190e+00,4.36230e-01,-7.71163e-01,-3.01148e-01,3.11813e-01,-4.11341e-04,-4.69330e-01,-6.45843e-01,-7.06730e-01,-1.29482e-01,3.50361e-01,2.01516e-02,-5.11801e-01,-1.37620e+00,-4.11638e-01,-9.08310e-02,-6.45711e-02,-1.67536e-01,-2.65150e-01,-1.18156e-01,4.84721e-01,7.80586e-01,1.02708e+00,1.02160e+00,9.99231e-01,1.60031e-01,1.20509e-01,1.94305e-01,2.55618e-01,4.33363e-01,5.75325e-01,7.74425e-01,5.27074e-01,-1.43599e-01,-1.95967e-01,1.68347e+00,,1p,0290,2.945,,,-
3.50000e-01,2.10466e+00,1.32584e-01,2.03911e-01,3.40158e-02,2.98168e+00,3.24789e+00,2.82424e+00,-9.55838e-02,1.61073e+00,7.21413e-01,2.58305e-01,2.80781e-01,7.07586e-02,7.43006e-01,5.19679e-02,-3.39770e-01,6.43485e-01,-8.75622e-01,-1.29400e-01,1.00634e+00,2.93218e-01,1.81085e-04,-3.00146e+00,6.91286e-01,-6.55417e-01,-6.09615e-02,-3.23050e-01,1.71113e-01,2.28892e-01,-2.91220e-01,9.84235e-01,-9.30851e-01,-3.86806e-01,-6.70082e-01,7.56292e-01,1.39020e-01,2.75913e-01,-3.12269e-02,-4.94170e-01,1.43371e+00,4.64104e-01,-7.77047e-01,-3.93835e-01,3.77586e-01,3.39197e-04,-4.57272e-01,1.17571e-01,-2.96051e-01,4.81325e-02,-8.54414e-02,1.16031e-01,5.20585e-01,1.95368e+00,-4.10125e-01,-8.99900e-02,-6.46776e-02,-1.65751e-01,-2.62594e-01,-1.15767e-01,4.84510e-01,7.79693e-01,1.02686e+00,1.02150e+00,9.92018e-01,1.61127e-01,1.22365e-01,1.96238e-01,2.58142e-01,4.36574e-01,5.78757e-01,7.77076e-01,5.29698e-01,-1.38493e-01,-1.92697e-01,1.68543e+00,,1p,0300,2.95,,,-
3.49999e-01,2.12061e+00,1.32455e-01,2.04040e-01,3.40538e-02,2.98152e+00,3.24818e+00,2.82376e+00,-7.16052e-02,1.60620e+00,2.01202e-01,8.79838e-02,7.28125e-01,1.64274e-01,3.50176e-01,-2.94026e-02,-5.33592e-01,2.11172e+00,-8.82043e-01,-1.56479e-01,1.00420e+00,-2.47440e-01,3.45132e-04,-3.05617e+00,8.60574e-01,-2.28448e-01,2.87678e-02,9.48485e-02,9.78657e-02,4.44975e-01,1.28546e+00,1.00250e+00,-9.77772e-01,-8.74759e-01,-5.40392e-02,7.09325e-01,3.69819e-02,-4.60739e-01,-1.86886e-01,3.33068e-01,-4.95763e-01,5.03053e-01,-7.77495e-01,-4.28875e-01,-1.35407e-01,-1.33514e-04,-3.87940e-01,-5.50947e-01,-3.38457e-01,-5.76546e-02,6.63142e-01,-4.60148e-02,-3.11325e-01,-4.69532e-02,-4.07340e-01,-8.76629e-02,-6.31037e-02,-1.65367e-01,-2.62732e-01,-1.17234e-01,4.79204e-01,7.75516e-01,1.02639e+00,1.02275e+00,9.74537e-01,1.61699e-01,1.25167e-01,1.98845e-01,2.60400e-01,4.38783e-01,5.81287e-01,7.82548e-01,5.35905e-01,-1.33384e-01,-1.84414e-01,1.69162e+00,VALUE,1p,0318,2.955,,,
3.50000e-01,2.26177e+00,1.32339e-01,2.03960e-01,3.40355e-02,2.98134e+00,3.24836e+00,2.82370e+00,-6.08512e-02,1.59024e+00,-2.71959e-01,6.74337e-01,6.88283e-01,6.71914e-02,-3.18385e-01,-1.74461e-01,2.23421e-01,3.32091e-01,-8.67803e-01,-1.61647e-01,9.92606e-01,-7.12954e-01,-6.74074e-05,-3.03655e+00,2.62742e-01,-2.60790e-01,-6.74700e-02,7.65637e-01,-4.82086e-02,-3.09520e-01,-4.53526e-01,9.90096e-01,-9.63775e-01,-4.07600e-01,9.24354e-02,2.87513e-01,-4.88822e-02,-8.97911e-02,-1.14904e-01,5.27532e-01,-1.91010e+00,5.10866e-01,-7.71976e-01,-4.28755e-01,3.06316e-01,-2.02597e-04,-3.87777e-01,-7.15657e-01,-7.48515e-01,-1.47160e-01,2.78351e-01,2.17253e-02,-5.04258e-01,-1.48518e+00,-4.05024e-01,-8.41734e-02,-5.93035e-02,-1.61111e-01,-2.58681e-01,-1.14686e-01,4.80058e-01,7.75287e-01,1.02339e+00,1.01583e+00,9.63523e-01,1.66547e-01,1.27189e-01,2.00416e-01,2.63360e-01,4.41625e-01,5.82485e-01,7.84026e-01,5.37306e-01,-1.31449e-01,-1.78441e-01,1.67503e+00,VALUE,1p,0320,2.96,,,
3.49985e-01,2.04474e+00,1.31957e-01,2.04466e-01,3.42764e-02,2.98096e+00,3.24865e+00,2.82343e+00,-4.64753e-02,1.61583e+00,7.11700e-01,9.95250e-02,3.80559e-01,1.14465e-01,8.65159e-01,5.59967e-02,-5.12217e-01,1.12715e+00,-9.22947e-01,-1.90276e-01,9.81153e-01,2.46618e-01,3.89406e-04,-3.19878e+00,8.65830e-01,-6.10610e-01,-3.33538e-02,-3.48420e-01,1.94706e-01,4.35906e-01,3.72044e-01,1.05606e+00,-1.10373e+00,-5.24442e-01,-6.52907e-01,8.51677e-01,1.48729e-01,4.06282e-02,-6.71069e-02,-3.64448e-01,1.41766e+00,5.39348e-01,-7.80886e-01,-5.67083e-01,2.27381e-01,3.24410e-04,-3.85781e-01,-2.29432e-02,-2.35956e-01,4.16521e-02,1.72430e-01,6.37912e-02,3.97388e-01,1.74803e+00,-4.06124e-01,-8.41046e-02,-6.05342e-02,-1.60432e-01,-2.55347e-01,-1.10037e-01,4.84531e-01,7.78029e-01,1.02825e+00,1.02882e+00,9.86350e-01,1.68245e-01,1.28967e-01,2.01761e-01,2.64536e-01,4.43414e-01,5.84252e-01,7.78851e-01,5.31554e-01,-1.31354e-01,-1.85550e-01,1.69383e+00,VALUE,1p,0332,2.965,,,
3.49993e-01,2.08491e+00,1.31607e-01,2.04963e-01,3.44692e-02,2.98104e+00,3.24914e+00,2.82289e+00,-8.55526e-03,1.57812e+00,4.60151e-01,7.04094e-01,1.69610e-01,-1.10473e-02,4.76263e-01,-4.38614e-02,2.47611e-01,-1.12040e+00,-9.08363e-01,-2.24625e-01,9.39409e-01,-1.30959e-02,-2.63759e-04,-3.22269e+00,2.38096e-01,-8.42444e-01,-1.65351e-01,6.75954e-02,9.69706e-02,-3.09773e-01,-1.73727e+00,1.06624e+00,-1.16939e+00,8.87925e-02,-8.11601e-01,4.71521e-01,1.13227e-01,6.94711e-01,6.40989e-02,-5.30551e-01,8.90809e-01,5.91877e-01,-7.63977e-01,-6.36949e-01,8.09987e-01,3.56024e-04,-3.10109e-01,8.19356e-02,-5.95743e-01,1.41224e-03,-4.75812e-01,1.85476e-01,5.44216e-01,1.15146e+00,-4.05450e-01,-8.10669e-02,-5.76323e-02,-1.56709e-01,-2.50055e-01,-1.05186e-01,4.86470e-01,7.78723e-01,1.02794e+00,1.02715e+00,9.75746e-01,1.70930e-01,1.31919e-01,2.05143e-01,2.69553e-01,4.50055e-01,5.89174e-01,7.80493e-01,5.32734e-01,-1.24361e-01,-1.80028e-01,1.69456e+00,VALUE,1p,0348,2.97,,,
3.50000e-01,2.08468e+00,1.31487e-01,2.04661e-01,3.46171e-02,2.98076e+00,3.24914e+00,2.82336e+00,-2.39263e-02,1.60432e+00,4.32955e-01,7.01680e-01,1.60367e-01,-9.17942e-03,4.64097e-01,-4.48003e-02,2.27943e-01,-1.05694e+00,-9.00202e-01,-2.16310e-01,9.67729e-01,-2.01777e-02,-2.25565e-04,-3.19097e+00,2.39902e-01,-8.26622e-01,-1.61342e-01,7.74299e-02,9.76097e-02,-3.05979e-01,-1.74196e+00,1.04813e+00,-1.10933e+00,8.66294e-02,-8.01763e-01,4.78468e-01,1.16618e-01,6.78379e-01,5.90589e-02,-5.20848e-01,8.81007e-01,5.66841e-01,-7.67938e-01,-5.89510e-01,7.93799e-01,3.72509e-04,-3.51968e-01,8.01420e-02,-5.95372e-01,5.35913e-03,-4.88056e-01,1.82966e-01,5.60848e-01,1.13713e+00,-4.04388e-01,-7.87967e-02,-5.52123e-02,-1.55076e-01,-2.49337e-01,-1.06021e-01,4.86332e-01,7.78620e-01,1.02815e+00,1.02758e+00,9.70839e-01,1.75499e-01,1.33130e-01,2.05254e-01,2.69806e-01,4.49804e-01,5.87725e-01,7.79837e-01,5.32041e-01,-1.25184e-01,-1.76106e-01,1.69761e+00,,1p,0350,2.975,,,-
3.49998e-01,2.03502e+00,1.31311e-01,2.04874e-01,3.49109e-02,2.98068e+00,3.24931e+00,2.82334e+00,-1.00770e-02,1.59858e+00,4.28114e-01,-2.68904e-02,6.70698e-01,1.81096e-01,5.98951e-01,1.77010e-03,-6.24678e-01,1.99805e+00,-8.94172e-01,-2.35940e-01,9.53431e-01,-1.25592e-02,5.32721e-04,-3.20505e+00,9.63542e-01,-3.28824e-01,2.43511e-02,-3.99077e-02,1.48022e-01,5.46415e-01,1.33393e+00,1.05616e+00,-1.14205e+00,-7.80151e-01,-2.65430e-01,8.31927e-01,8.09035e-02,-4.45973e-01,-1.57706e-01,1.75474e-01,3.07000e-01,5.91316e-01,-7.60515e-01,-6.28654e-01,-8.28194e-02,1.14710e-05,-3.32547e-01,-4.81895e-01,-2.35759e-01,-3.18501e-02,6.23858e-01,-3.83255e-02,-1.31727e-01,5.24957e-01,-4.03940e-01,-7.67560e-02,-5.26793e-02,-1.51930e-01,-2.44611e-01,-1.00392e-01,4.91361e-01,7.81538e-01,1.02977e+00,1.02978e+00,9.73159e-01,1.81472e-01,1.35708e-01,2.07218e-01,2.72813e-01,4.54173e-01,5.90426e-01,7.77156e-01,5.28886e-01,-1.22812e-01,-1.73598e-01,1.70030e+00,VALUE,1p,0366,2.98,,,
3.49999e-01,2.04462e+00,1.32740e-01,2.06497e-01,3.48871e-02,2.98225e+00,3.24920e+00,2.82216e+00,6.73228e-02,1.55031e+00,2.67202e-01,8.33241e-02,8.81318e-01,2.03817e-01,3.26767e-01,-6.47007e-02,-4.68778e-01,1.96778e+00,-9.74195e-01,-2.83628e-01,8.49595e-01,-2.36923e-01,5.47445e-04,-3.45883e+00,9.50924e-01,-2.57251e-01,2.72785e-02,3.19209e-01,9.95528e-02,4.93064e-01,1.62395e+00,1.16564e+00,-1.41408e+00,-8.75035e-01,-1.08591e-01,7.60042e-01,3.90855e-02,-5.35957e-01,-1.80270e-01,4.22270e-01,-4.04904e-01,7.02172e-01,-7.60628e-01,-8.66542e-01,-1.73193e-01,-1.12424e-04,-2.54682e-01,-7.63618e-01,-3.13345e-01,-8.66929e-02,8.34747e-01,-8.76833e-02,-4.41151e-01,-3.38998e-01,-4.03113e-01,-7.59970e-02,-5.14921e-02,-1.46509e-01,-2.35837e-01,-8.61882e-02,5.02549e-01,7.85509e-01,1.03003e+00,1.03044e+00,1.00871e+00,1.98099e-01,1.43035e-01,2.13884e-01,2.82070e-01,4.64273e-01,5.99193e-01,7.74874e-01,5.26440e-01,-1.32305e-01,-1.91269e-01,1.68383e+00,VALUE,1p,0375,2.985,,,
3.50000e-01,1.93437e+00,1.30897e-01,2.05210e-01,3.53462e-02,2.98084e+00,3.24963e+00,2.82357e+00,6.65974e-03,1.61520e+00,2.79505e-01,8.13365e-01,1.88962e-01,-1.34404e-02,3.66547e-01,-7.63212e-02,3.25792e-01,-1.24417e+00,-9.00999e-01,-2.59505e-01,9.57608e-01,-1.42261e-01,-6.30454e-04,-3.26579e+00,1.33542e-01,-8.32036e-01,-1.79148e-01,2.23077e-01,7.70504e-02,-4.09158e-01,-1.90944e+00,1.07505e+00,-1.18378e+00,1.15192e-01,-7.83860e-01,3.96547e-01,1.05959e-01,7.13072e-01,6.56659e-02,-4.63907e-01,5.90869e-01,6.14680e-01,-7.57610e-01,-6.68345e-01,8.05879e-01,4.69210e-04,-2.99256e-01,1.94269e-04,-6.81149e-01,-8.80464e-03,-5.58710e-01,1.80593e-01,5.27773e-01,7.47952e-01,-4.05603e-01,-7.41707e-02,-5.08643e-02,-1.49783e-01,-2.42033e-01,-9.85302e-02,4.91010e-01,7.80743e-01,1.03236e+00,1.03617e+00,9.72379e-01,1.87998e-01,1.38364e-01,2.08759e-01,2.74511e-01,4.55875e-01,5.91108e-01,7.76060e-01,5.28294e-01,-1.20153e-01,-1.70915e-01,1.71471e+00,,1p,0383,2.99,,,-
3.50000e-01,2.07200e+00,1.30443e-01,2.05179e-01,3.56483e-02,2.98068e+00,3.25001e+00,2.82399e+00,8.07344e-03,1.63881e+00,6.39623e-01,3.17854e-02,4.07060e-01,1.49107e-01,9.31943e-01,4.42060e-02,-6.04648e-01,1.26130e+00,-9.07797e-01,-2.61691e-01,9.95248e-01,2.29699e-01,3.54799e-04,-3.27793e+00,9.10837e-01,-5.97838e-01,-1.96632e-02,-3.06405e-01,1.98303e-01,4.98483e-01,5.07325e-01,1.06713e+00,-1.13847e+00,-4.70119e-01,-6.66551e-01,8.88939e-01,1.41873e-01,-8.76250e-02,-7.41085e-02,-2.42997e-01,1.39340e+00,6.11713e-01,-7.69798e-01,-6.22830e-01,2.41485e-01,2.94701e-04,-3.15518e-01,-1.27366e-01,-2.06858e-01,2.81934e-02,2.21996e-01,3.89329e-02,3.23509e-01,1.50195e+00,-4.08595e-01,-7.26111e-02,-4.97153e-02,-1.48359e-01,-2.40391e-01,-9.93008e-02,4.89334e-01,7.79720e-01,1.02973e+00,1.03139e+00,9.56270e-01,1.88485e-01,1.38707e-01,2.08194e-01,2.73642e-01,4.55128e-01,5.90446e-01,7.78724e-01,5.30911e-01,-1.20923e-01,-1.64429e-01,1.70469e+00,,1p,0391,2.995,,,-
3.50000e-01,2.04347e+00,1.30082e-01,2.05125e-01,3.58255e-02,2.98075e+00,3.25024e+00,2.82376e+00,2.13556e-02,1.59870e+00,3.27230e-01,7.25492e-01,1.54693e-01,4.81638e-03,5.01018e-01,-5.54502e-02,2.05477e-01,-1.06509e+00,-8.89605e-01,-2.74786e-01,9.42644e-01,-7.84241e-02,-2.90076e-04,-3.26395e+00,2.05521e-01,-8.45809e-01,-1.65845e-01,1.19505e-01,1.00064e-01,-3.05870e-01,-1.75238e+00,1.06481e+00,-1.18326e+00,8.78815e-02,-8.56087e-01,4.56845e-01,1.23477e-01,6.78561e-01,6.44432e-02,-5.21753e-01,8.79054e-01,6.22445e-01,-7.51939e-01,-6.99397e-01,7.69378e-01,4.26131e-04,-3.13715e-01,5.24217e-02,-6.28270e-01,1.15985e-02,-5.49282e-01,1.73982e-01,5.96653e-01,9.71120e-01,-4.08069e-01,-6.99448e-02,-4.72606e-02,-1.44881e-01,-2.35046e-01,-9.41186e-02,4.94573e-01,7.82971e-01,1.03082e+00,1.03312e+00,9.54853e-01,1.91712e-01,1.39662e-01,2.09702e-01,2.77032e-01,4.59784e-01,5.92754e-01,7.75781e-01,5.27274e-01,-1.18224e-01,-1.58079e-01,1.70390e+00,VALUE,1p,0401,3.0,,,
3.49976e-01,2.01328e+00,1.30075e-01,2.04604e-01,3.60149e-02,2.98088e+00,3.25000e+00,2.82412e+00,-2.11890e-03,1.63119e+00,-4.39156e-02,3.68840e-01,8.40562e-01,1.32552e-01,-7.29164e-02,-1.37703e-01,-1.00968e-01,1.36920e+00,-8.88388e-01,-2.60216e-01,9.78496e-01,-4.36004e-01,2.38431e-04,-3.23860e+00,5.82039e-01,-1.35127e-01,-3.42139e-02,6.75074e-01,1.98764e-02,-8.33941e-03,6.47604e-01,1.05277e+00,-1.12637e+00,-6.88140e-01,1.13524e-01,5.15644e-01,-3.72321e-02,-4.61594e-01,-1.59391e-01,6.59573e-01,-1.37977e+00,5.92763e-01,-7.64195e-01,-6.50576e-01,-3.37787e-02,-5.19103e-04,-3.51409e-01,-8.96226e-01,-5.76025e-01,-1.48128e-01,5.78044e-01,-4.56370e-02,-5.63005e-01,-1.26025e+00,-4.08647e-01,-6.95315e-02,-4.74177e-02,-1.46949e-01,-2.38691e-01,-9.86915e-02,4.90712e-01,7.80850e-01,1.03204e+00,1.03458e+00,9.50026e-01,1.93648e-01,1.40252e-01,2.09309e-01,2.75844e-01,4.57072e-01,5.90123e-01,7.77131e-01,5.28747e-01,-1.14427e-01,-1.54284e-01,1.71209e+00,VALUE,1p,0417,3.005,,,
3.50000e-01,2.04558e+00,1.29984e-01,2.04787e-01,3.62215e-02,2.98102e+00,3.25040e+00,2.82396e+00,2.08443e-02,1.59546e+00,5.32629e-01,-4.36620e-02,5.45556e-01,1.79101e-01,7.89247e-01,1.89270e-02,-6.63236e-01,1.70384e+00,-8.68044e-01,-2.78431e-01,9.45589e-01,1.55734e-01,4.96626e-04,-3.22520e+00,9.82278e-01,-4.37693e-01,1.10126e-02,-1.86491e-01,1.75887e-01,5.54172e-01,1.03451e+00,1.04354e+00,-1.15493e+00,-5.70149e-01,-4.67774e-01,8.87937e-01,9.41335e-02,-3.63864e-01,-1.22420e-01,4.91462e-02,8.46234e-01,6.14960e-01,-7.47239e-01,-6.89109e-01,6.54895e-02,8.80292e-05,-3.09927e-01,-3.29978e-01,-1.83339e-01,-1.41042e-02,4.74177e-01,-1.10080e-02,3.79009e-02,9.65902e-01,-4.11428e-01,-6.79545e-02,-4.58569e-02,-1.44193e-01,-2.35001e-01,-9.56393e-02,4.92513e-01,7.81665e-01,1.03157e+00,1.03349e+00,9.42463e-01,1.95640e-01,1.40545e-01,2.10078e-01,2.78031e-01,4.60279e-01,5.92390e-01,7.77225e-01,5.28602e-01,-1.11738e-01,-1.48265e-01,1.70916e+00,,1p,0422,3.01,,,-
3.49976e-01,2.08004e+00,1.29587e-01,2.04572e-01,3.64165e-02,2.98122e+00,3.25038e+00,2.82417e+00,1.77513e-02,1.60684e+00,2.48392e-01,7.66514e-01,1.47788e-01,9.79656e-03,4.67464e-01,-6.43208e-02,2.02951e-01,-1.06736e+00,-8.75929e-01,-2.77756e-01,9.53509e-01,-1.28265e-01,-2.92038e-04,-3.24041e+00,1.79815e-01,-8.30180e-01,-1.60767e-01,1.48793e-01,9.79520e-02,-3.11253e-01,-1.76167e+00,1.04802e+00,-1.14882e+00,9.46065e-02,-8.29455e-01,4.28070e-01,1.22044e-01,6.78973e-01,6.25198e-02,-5.03587e-01,7.82467e-01,6.10588e-01,-7.54983e-01,-6.95703e-01,7.26082e-01,3.34081e-04,-3.39040e-01,2.48931e-02,-6.53750e-01,1.67310e-02,-5.76235e-01,1.69274e-01,6.10041e-01,8.68132e-01,-4.09047e-01,-6.54752e-02,-4.38050e-02,-1.42840e-01,-2.33153e-01,-9.43815e-02,4.93470e-01,7.82101e-01,1.03094e+00,1.03258e+00,9.35338e-01,2.01281e-01,1.42280e-01,2.10676e-01,2.78657e-01,4.60885e-01,5.92307e-01,7.76778e-01,5.27848e-01,-1.09828e-01,-1.43525e-01,1.70680e+00,VALUE,1p,0439,3.015,,,
5.17749e-03,2.00891e+00,1.09642e-01,2.09360e-01,3.68164e-02,2.97990e+00,3.25225e+00,2.82839e+00,1.25305e-01,1.44274e+00,1.12489e-01,1.96696e-01,2.31184e-01,1.13423e-01,7.34170e-01,-5.20920e-02,-6.71375e-01,7.41060e-01,-7.60333e-01,-3.19473e-01,7.89395e-01,2.83041e-02,-9.32881e-05,-3.20654e+00,6.48315e-01,-8.83675e-01,-1.05094e-02,-3.87562e-01,1.58213e-01,4.63923e-01,4.91061e-02,1.00919e+00,-1.26486e+00,-1.26940e-01,-6.65191e-01,4.72008e-01,2.16489e-02,-1.73344e-01,-8.85812e-02,1.11889e-01,5.12059e-01,7.48493e-01,-6.95991e-01,-8.47553e-01,-9.32424e-02,6.15584e-04,-7.56078e-02,8.23047e-03,-4.45765e-01,3.35416e-04,-1.26222e-01,1.14220e-01,3.45177e-01,1.77023e+00,-3.15523e-01,-8.44738e-02,-6.44389e-02,-1.45978e-01,-2.24120e-01,-8.78104e-02,4.90468e-01,7.81044e-01,1.03598e+00,1.03814e+00,9.18294e-01,2.47039e-01,1.70202e-01,2.31490e-01,2.95547e-01,4.57751e-01,5.77147e-01,7.66762e-01,5.19706e-01,-8.12241e-02,-1.31061e-01,1.71590e+00,VALUE,1p,0440,3.02,,,
1.50651e-02,1.97166e+00,1.08747e-01,2.08502e-01,3.64480e-02,2.97711e+00,3.25129e+00,2.82962e+00,9.31079e-02,1.51112e+00,-5.97508e-02,2.34454e-02,4.51393e-01,8.14749e-02,3.11011e-01,-7.36076e-02,-3.24840e-01,1.64275e+00,-7.46171e-01,-2.96042e-01,8.84346e-01,-1.13982e-01,5.36838e-04,-3.12785e+00,7.80291e-01,-6.36957e-01,-2.81878e-02,4.30473e-03,1.45564e-01,1.09712e-01,7.17625e-01,9.68909e-01,-1.12766e+00,-1.17558e-01,-1.97498e-01,7.68308e-01,-2.77368e-02,-6.63364e-01,-1.28488e-01,7.52584e-01,-7.00596e-01,6.83523e-01,-7.17193e-01,-7.42629e-01,-1.74844e-01,4.37091e-04,-1.69631e-01,-4.08069e-01,-1.43250e-01,-5.90006e-02,2.84448e-01,8.39906e-02,-1.70138e-01,7.72984e-01,-2.94061e-01,-8.08561e-02,-5.79462e-02,-1.40844e-01,-2.23627e-01,-8.90271e-02,4.92562e-01,7.83488e-01,1.03726e+00,1.03948e+00,8.93817e-01,2.44794e-01,1.67201e-01,2.25337e-01,2.89940e-01,4.51546e-01,5.71474e-01,7.62151e-01,5.13646e-01,-7.18235e-02,-1.11104e-01,1.72926e+00,VALUE,1p,0459,3.025,,,
3.49999e-01,2.06760e+00,1.29137e-01,2.04913e-01,3.73414e-02,2.98137e+00,3.25119e+00,2.82423e+00,6.13371e-02,1.63414e+00,2.40915e-01,5.92354e-02,8.28767e-01,1.75649e-01,3.08035e-01,-7.72721e-02,-4.28214e-01,1.94794e+00,-8.98894e-01,-3.27259e-01,9.72419e-01,-1.36038e-01,3.76112e-04,-3.36469e+00,8.88595e-01,-1.93593e-01,-6.97899e-03,3.57643e-01,9.91332e-02,3.13919e-01,1.22497e+00,1.07789e+00,-1.22427e+00,-7.14098e-01,-6.31665e-02,7.52442e-01,-3.55625e-03,-6.49131e-01,-1.66291e-01,5.71675e-01,-4.98232e-01,6.73567e-01,-7.57661e-01,-7.52736e-01,-8.05930e-02,-2.93038e-04,-2.51494e-01,-8.00907e-01,-3.49052e-01,-1.01166e-01,7.12813e-01,-7.04265e-02,-4.49265e-01,-4.73603e-01,-4.10423e-01,-5.99786e-02,-3.97076e-02,-1.38818e-01,-2.28021e-01,-9.05741e-02,4.92614e-01,7.80481e-01,1.03170e+00,1.03461e+00,9.24350e-01,2.02957e-01,1.43131e-01,2.10742e-01,2.79517e-01,4.63443e-01,5.95006e-01,7.78436e-01,5.30221e-01,-1.04820e-01,-1.36702e-01,1.71396e+00,VALUE,1p,0460,3.03,,,
3.50000e-01,1.79472e+00,1.22678e-01,1.77844e-01,3.49008e-02,2.98005e+00,3.24514e+00,2.83050e+00,-3.10878e-01,7.57032e-01,6.00081e-01,6.68634e-01,3.74488e-01,8.79595e-02,6.95795e-01,3.13725e-03,-3.62981e-01,4.06609e-01,-8.87647e-01,-1.34362e-01,-7.56691e-02,-2.16832e-01,4.84778e-04,-2.87616e+00,3.29151e-01,-2.99993e-01,-4.38136e-02,-1.95378e-02,1.96464e-01,3.52358e-01,-5.02700e-01,1.12900e+00,-1.44999e+00,-1.93636e-01,-4.20810e-01,4.78898e-01,1.81355e-01,5.64144e-01,6.72253e-02,-4.06848e-01,1.50777e+00,1.46565e-01,-6.60250e-01,-1.46157e+00,1.46498e-01,1.41348e-03,-1.24270e+00,-4.52387e-01,-6.81387e-01,1.95271e-02,-2.81567e-01,2.02511e-02,7.44800e-01,1.04778e+00,-2.69109e-01,-1.33887e-02,-2.73922e-02,-1.41611e-01,-2.20647e-01,-7.00275e-02,5.12728e-01,7.92562e-01,1.03995e+00,1.05090e+00,1.00529e+00,2.53827e-01,1.85633e-01,2.42883e-01,3.00965e-01,4.69460e-01,5.98612e-01,7.67239e-01,5.18154e-01,-8.43244e-02,-1.24801e-01,1.66581e+00,,1p,0475,3.035,,,-
3.49999e-01,2.06677e+00,1.29940e-01,2.04256e-01,3.76072e-02,2.98189e+00,3.25067e+00,2.82427e+00,2.16407e-02,1.60727e+00,5.47541e-01,1.24299e-02,4.18983e-01,1.67496e-01,9.10074e-01,2.01792e-02,-6.57490e-01,1.37644e+00,-8.83729e-01,-2.88999e-01,9.40008e-01,1.90142e-01,4.09853e-04,-3.27300e+00,9.86584e-01,-5.45404e-01,-1.23277e-03,-3.07666e-01,1.93702e-01,5.58587e-01,7.18243e-01,1.05321e+00,-1.19143e+00,-3.74175e-01,-6.49682e-01,9.16173e-01,9.65281e-02,-2.57047e-01,-9.11932e-02,-5.14978e-02,1.15388e+00,6.05962e-01,-7.62376e-01,-7.75958e-01,1.90947e-01,2.31014e-04,-3.64543e-01,-1.43911e-01,-1.80252e-01,3.58188e-04,3.43864e-01,1.60757e-02,1.73796e-01,1.28167e+00,-4.15017e-01,-6.06125e-02,-4.10658e-02,-1.42553e-01,-2.31971e-01,-9.46671e-02,4.94239e-01,7.82960e-01,1.03259e+00,1.03383e+00,9.23825e-01,2.04540e-01,1.41804e-01,2.10423e-01,2.80027e-01,4.62221e-01,5.92841e-01,7.77147e-01,5.27161e-01,-1.01565e-01,-1.31088e-01,1.71254e+00,VALUE,1p,0482,3.04,,,
3.49998e-01,1.62440e+00,1.23810e-01,1.79011e-01,3.53425e-02,2.97988e+00,3.24454e+00,2.83010e+00,-2.65117e-01,6.39925e-01,5.06151e-01,6.98103e-01,5.17291e-01,-2.84132e-02,4.13015e-02,-1.07912e-01,4.56650e-01,-8.31726e-01,-9.21181e-01,-1.27625e-01,-2.47367e-01,-2.58361e-01,-3.04433e-03,-2.97426e+00,3.55733e-01,-2.80849e-01,-1.42518e-01,5.54976e-01,1.05324e-01,-3.19659e-01,-1.65051e+00,1.17922e+00,-1.53093e+00,4.33474e-02,-2.07217e-01,5.04513e-01,1.36321e-01,6.78278e-01,1.23132e-01,-3.87901e-01,6.41570e-01,2.08760e-01,-6.45570e-01,-1.49760e+00,3.54285e-01,2.70677e-04,-1.12731e+00,-6.61846e-01,-6.04554e-01,-1.25728e-02,-4.07318e-01,7.97229e-02,7.23554e-01,3.26202e-01,-2.55586e-01,-1.75797e-02,-2.95760e-02,-1.45425e-01,-2.28436e-01,-7.21744e-02,5.11386e-01,7.90220e-01,1.04293e+00,1.05674e+00,1.03715e+00,2.61792e-01,1.87849e-01,2.44959e-01,3.03746e-01,4.71879e-01,6.01850e-01,7.66612e-01,5.18863e-01,-8.49919e-02,-1.44657e-01,1.67843e+00,VALUE,1p,0495,3.045,,,
3.50000e-01,2.05261e+00,1.29800e-01,2.04631e-01,3.79779e-02,2.98186e+00,3.25125e+00,2.82412e+00,4.38330e-02,1.55359e+00,5.30068e-01,-2.04088e-02,4.25542e-01,1.67127e-01,9.07992e-01,1.55055e-02,-6.50294e-01,1.37099e+00,-8.50491e-01,-3.17227e-01,8.77470e-01,1.75879e-01,4.45923e-04,-3.24098e+00,9.80652e-01,-5.38979e-01,-5.11964e-03,-2.79706e-01,1.93597e-01,5.65533e-01,7.55803e-01,1.04293e+00,-1.22798e+00,-3.56307e-01,-6.46876e-01,9.08518e-01,8.44600e-02,-2.92836e-01,-8.67495e-02,-1.98284e-02,1.13150e+00,6.30889e-01,-7.35270e-01,-8.41555e-01,1.87140e-01,2.23757e-04,-3.25675e-01,-1.76296e-01,-1.59719e-01,-7.49675e-04,3.69866e-01,5.35217e-03,1.40839e-01,1.21104e+00,-4.13856e-01,-5.40325e-02,-3.48723e-02,-1.37048e-01,-2.24972e-01,-8.77948e-02,4.98643e-01,7.84847e-01,1.03332e+00,1.03420e+00,9.13833e-01,2.11573e-01,1.42813e-01,2.11635e-01,2.83891e-01,4.68554e-01,5.97125e-01,7.75950e-01,5.25523e-01,-9.25474e-02,-1.21336e-01,1.71798e+00,,1p,0501,3.05,,,-
3.49997e-01,1.94627e+00,1.30447e-01,2.04556e-01,3.81518e-02,2.98184e+00,3.25096e+00,2.82410e+00,2.56464e-02,1.57152e+00,4.16417e-01,-6.61112e-02,6.41959e-01,1.72817e-01,6.03620e-01,-2.76874e-02,-5.84487e-01,1.85108e+00,-8.62363e-01,-3.07829e-01,8.83725e-01,6.37409e-02,7.43234e-04,-3.25181e+00,1.06166e+00,-3.05821e-01,6.62889e-03,-6.94274e-03,1.53178e-01,5.07199e-01,1.23811e+00,1.04807e+00,-1.23194e+00,-5.34151e-01,-3.21001e-01,8.87578e-01,2.88105e-02,-5.78845e-01,-1.40012e-01,3.44689e-01,3.02874e-01,6.05832e-01,-7.44373e-01,-8.64115e-01,-7.21291e-03,-4.02739e-05,-3.72550e-01,-4.68841e-01,-1.97469e-01,-5.55882e-02,6.56779e-01,-4.05991e-02,-2.14452e-01,4.38380e-01,-4.15850e-01,-5.40842e-02,-3.54000e-02,-1.39154e-01,-2.27278e-01,-8.98227e-02,4.98958e-01,7.85559e-01,1.03542e+00,1.03900e+00,9.12871e-01,2.08398e-01,1.40673e-01,2.09950e-01,2.82445e-01,4.66176e-01,5.94758e-01,7.72874e-01,5.21871e-01,-8.86378e-02,-1.17545e-01,1.72981e+00,VALUE,1p,0513,3.055,,,
3.49995e-01,1.99850e+00,1.30668e-01,2.05051e-01,3.84968e-02,2.98195e+00,3.25137e+00,2.82402e+00,6.00454e-02,1.58224e+00,3.08921e-01,-1.61332e-02,7.78269e-01,1.64465e-01,3.76006e-01,-6.50935e-02,-4.56757e-01,1.91055e+00,-8.81155e-01,-3.37556e-01,9.01963e-01,-4.13036e-02,5.64395e-04,-3.33801e+00,1.01245e+00,-2.15216e-01,-8.49988e-03,2.50336e-01,1.20747e-01,3.74289e-01,1.28977e+00,1.07091e+00,-1.28615e+00,-6.00084e-01,-1.31561e-01,8.18850e-01,-4.33261e-03,-6.73942e-01,-1.56887e-01,5.31644e-01,-2.63025e-01,6.60162e-01,-7.49233e-01,-8.78945e-01,-6.33240e-02,-2.63271e-04,-2.83162e-01,-6.96998e-01,-2.72466e-01,-8.53212e-02,7.36962e-01,-6.12781e-02,-4.05364e-01,-1.31728e-01,-4.18715e-01,-5.39212e-02,-3.55653e-02,-1.39165e-01,-2.26507e-01,-8.87195e-02,4.96725e-01,7.83457e-01,1.03417e+00,1.03706e+00,9.13654e-01,2.06247e-01,1.40515e-01,2.09887e-01,2.81670e-01,4.66353e-01,5.96679e-01,7.76181e-01,5.26221e-01,-9.24676e-02,-1.19906e-01,1.72307e+00,VALUE,1p,0520,3.06,,,
2.06887e-02,2.06078e+00,1.16987e-01,2.18077e-01,3.66470e-02,2.98367e+00,3.25382e+00,2.82581e+00,1.88537e-01,1.37262e+00,-8.91754e-02,3.17898e-02,4.81805e-01,9.13554e-02,3.13685e-01,-5.82485e-02,-4.82311e-01,1.44980e+00,-7.01198e-01,-3.64647e-01,7.04653e-01,3.54271e-02,4.41862e-04,-3.18582e+00,8.80634e-01,-7.06332e-01,-3.38992e-02,1.03429e-02,1.18812e-01,2.15204e-01,9.70181e-01,1.00023e+00,-1.38415e+00,-3.94678e-02,-1.37319e-01,7.86413e-01,-3.26037e-02,-6.78342e-01,-1.50495e-01,6.05579e-01,-4.38679e-01,8.13939e-01,-6.51397e-01,-9.17909e-01,6.06277e-03,2.59874e-04,8.80320e-02,-4.63225e-01,-1.00052e-01,-6.40892e-02,4.60639e-01,2.75128e-02,-3.22709e-01,8.91489e-01,-3.73261e-01,-9.68909e-02,-6.46210e-02,-1.46741e-01,-2.17240e-01,-7.45768e-02,4.94036e-01,7.81496e-01,1.03333e+00,1.02813e+00,9.18283e-01,2.38560e-01,1.63629e-01,2.29394e-01,2.93172e-01,4.61668e-01,5.86809e-01,7.69845e-01,5.24476e-01,-7.75529e-02,-1.42940e-01,1.72444e+00,VALUE,1p,0530,3.065,,,
3.14255e-02,2.03524e+00,1.18566e-01,2.18328e-01,3.72918e-02,2.98148e+00,3.25435e+00,2.82508e+00,2.14130e-01,1.25811e+00,-9.44108e-02,1.47086e-02,5.55664e-01,6.99573e-02,2.00191e-01,-6.89119e-02,-3.80209e-01,1.47368e+00,-6.89672e-01,-3.78013e-01,5.67883e-01,3.17532e-03,5.39050e-04,-3.18364e+00,8.99418e-01,-6.46821e-01,-2.91002e-02,8.44637e-02,1.09550e-01,1.92847e-01,1.02658e+00,1.01947e+00,-1.48591e+00,-7.75068e-02,-9.38326e-02,7.89959e-01,-3.71349e-02,-7.05399e-01,-1.51012e-01,6.21454e-01,-6.06759e-01,8.39375e-01,-6.19800e-01,-1.03690e+00,8.21677e-03,1.92663e-04,1.28387e-01,-5.18484e-01,-8.29696e-02,-6.38090e-02,5.17557e-01,1.66675e-02,-3.84412e-01,7.37063e-01,-3.71807e-01,-9.11736e-02,-6.05784e-02,-1.46177e-01,-2.13172e-01,-6.71504e-02,4.97872e-01,7.81870e-01,1.03382e+00,1.02826e+00,9.30668e-01,2.33239e-01,1.58067e-01,2.27156e-01,2.92762e-01,4.66833e-01,5.91796e-01,7.68266e-01,5.23834e-01,-6.95637e-02,-1.42166e-01,1.72060e+00,VALUE,1p,0546,3.07,,,
4.30545e-02,1.94512e+00,1.21390e-01,2.19007e-01,3.79103e-02,2.97986e+00,3.25500e+00,2.82433e+00,2.14480e-01,1.11994e+00,-1.98801e-02,-5.44734e-03,3.24267e-01,8.75318e-02,6.12789e-01,-2.66248e-02,-6.02833e-01,9.85859e-01,-6.56817e-01,-3.69662e-01,4.03657e-01,5.76029e-02,4.21659e-04,-3.09733e+00,9.23069e-01,-8.54852e-01,1.39128e-02,-3.67730e-01,1.49698e-01,4.98594e-01,5.91970e-01,1.01755e+00,-1.52936e+00,-1.32014e-01,-5.18785e-01,6.42613e-01,-6.35688e-03,-4.55496e-01,-1.10077e-01,2.06404e-01,3.05423e-01,8.24054e-01,-5.81882e-01,-1.11631e+00,-3.08254e-02,6.93454e-04,1.25444e-01,-7.65089e-02,-2.07778e-01,-2.95146e-02,3.17940e-01,4.88233e-02,-1.62500e-02,1.63271e+00,-3.76163e-01,-8.60269e-02,-5.67154e-02,-1.46717e-01,-2.12599e-01,-6.28815e-02,5.00874e-01,7.83091e-01,1.03581e+00,1.03151e+00,9.35645e-01,2.31635e-01,1.52335e-01,2.25184e-01,2.93498e-01,4.72349e-01,5.96471e-01,7.67136e-01,5.22867e-01,-5.80532e-02,-1.41820e-01,1.73504e+00,VALUE,1p,0552,3.075,,,
4.77856e-02,2.06423e+00,1.24305e-01,2.17616e-01,3.82322e-02,2.97961e+00,3.25530e+00,2.82407e+00,2.18655e-01,1.10755e+00,-1.28526e-01,4.46630e-01,9.04300e-01,-4.54229e-03,-4.60326e-01,-1.45130e-01,3.03210e-01,7.52811e-01,-6.76461e-01,-3.72037e-01,3.90232e-01,-6.96790e-02,2.76148e-04,-3.13122e+00,4.89505e-01,-2.73533e-01,-6.98261e-02,6.87703e-01,3.90996e-02,-3.60419e-01,3.62713e-01,1.02894e+00,-1.55117e+00,-5.55698e-02,2.31939e-01,5.60623e-01,-2.76567e-02,-3.39411e-01,-1.18696e-01,5.41734e-01,-1.83323e+00,8.35909e-01,-5.94038e-01,-1.14307e+00,5.58626e-02,-4.36220e-04,1.09586e-01,-8.39241e-01,-3.00736e-01,-5.02947e-02,2.23035e-01,3.59191e-02,-3.61176e-01,-4.71697e-01,-3.72939e-01,-8.13969e-02,-5.37240e-02,-1.47018e-01,-2.11846e-01,-6.16090e-02,5.01562e-01,7.82698e-01,1.03281e+00,1.02461e+00,9.40008e-01,2.30052e-01,1.49084e-01,2.22946e-01,2.92077e-01,4.73217e-01,5.97741e-01,7.68453e-01,5.24407e-01,-6.21973e-02,-1.43420e-01,1.71269e+00,VALUE,1p,0561,3.08,,,
5.20440e-02,1.66651e+00,1.27870e-01,2.15723e-01,3.84660e-02,2.97889e+00,3.25594e+00,2.82396e+00,2.15615e-01,1.09845e+00,1.12023e-02,-8.20017e-02,4.50462e-01,7.61408e-02,4.57007e-01,-5.15910e-02,-4.95277e-01,1.27913e+00,-6.86793e-01,-3.85405e-01,3.56283e-01,5.90057e-02,1.96922e-03,-3.17008e+00,1.02978e+00,-7.40765e-01,1.70014e-02,-2.55992e-01,1.42566e-01,4.95012e-01,9.02919e-01,1.06109e+00,-1.61094e+00,-1.68295e-01,-4.30839e-01,7.32399e-01,-2.18990e-02,-6.07048e-01,-1.24139e-01,3.67516e-01,-2.37393e-02,8.36327e-01,-5.73829e-01,-1.19254e+00,-4.88762e-02,1.31180e-03,1.59627e-01,-2.01948e-01,-1.22856e-01,-4.25307e-02,5.05202e-01,2.72934e-02,-1.84724e-01,1.38541e+00,-3.69811e-01,-7.67865e-02,-5.22035e-02,-1.51362e-01,-2.18768e-01,-6.52016e-02,4.99284e-01,7.80545e-01,1.04073e+00,1.04575e+00,9.51011e-01,2.27120e-01,1.45017e-01,2.20137e-01,2.89323e-01,4.70562e-01,5.96422e-01,7.62511e-01,5.20072e-01,-5.84359e-02,-1.44263e-01,1.76150e+00,VALUE,1p,0572,3.085,,,
5.56087e-02,1.68144e+00,1.30820e-01,2.12390e-01,3.85045e-02,2.97909e+00,3.25617e+00,2.82407e+00,1.56081e-01,1.13713e+00,7.84765e-02,2.03220e-02,3.15990e-01,8.32577e-02,6.40614e-01,-3.68983e-02,-5.36540e-01,8.77553e-01,-6.97258e-01,-3.51984e-01,3.80774e-01,1.03958e-01,1.66642e-03,-3.08942e+00,9.06526e-01,-7.96703e-01,2.66920e-02,-4.61325e-01,1.54122e-01,5.58564e-01,4.50729e-01,1.03850e+00,-1.51682e+00,-1.32478e-01,-6.52177e-01,6.49537e-01,2.13689e-03,-3.85376e-01,-9.79846e-02,1.30032e-01,3.68818e-01,7.67963e-01,-5.87047e-01,-1.16849e+00,-1.88572e-03,1.51324e-03,-1.88093e-02,5.22521e-02,-2.23766e-01,-1.64967e-02,2.80495e-01,5.31382e-02,6.92647e-02,1.76623e+00,-3.60257e-01,-6.94971e-02,-4.52988e-02,-1.47852e-01,-2.15864e-01,-6.24034e-02,5.09240e-01,7.88689e-01,1.04185e+00,1.04317e+00,9.55450e-01,2.33031e-01,1.44959e-01,2.19951e-01,2.91965e-01,4.74534e-01,5.97914e-01,7.57541e-01,5.11966e-01,-5.34000e-02,-1.37363e-01,1.74837e+00,VALUE,1p,0581,3.09,,,
5.85497e-02,1.83181e+00,1.32750e-01,2.10515e-01,3.87143e-02,2.97902e+00,3.25719e+00,2.82427e+00,2.06278e-01,1.16977e+00,1.07989e-01,3.55793e-01,2.49670e-01,7.44217e-02,7.33326e-01,-4.69095e-02,-4.13043e-01,-1.30931e-02,-6.94717e-01,-3.92289e-01,4.52673e-01,1.17819e-01,-8.26813e-06,-3.14126e+00,5.45749e-01,-9.00980e-01,1.38404e-02,-5.51385e-01,1.60540e-01,4.54870e-01,-4.31934e-01,1.03646e+00,-1.53569e+00,-3.78434e-02,-9.09147e-01,4.28497e-01,4.04398e-02,5.99142e-02,-4.93176e-02,-2.36465e-01,5.49750e-01,8.46479e-01,-5.89669e-01,-1.13263e+00,9.68732e-02,1.27192e-03,1.35588e-01,2.37244e-01,-4.15338e-01,2.50968e-02,-1.89112e-01,9.52366e-02,4.47604e-01,1.99387e+00,-3.56060e-01,-6.49581e-02,-4.23678e-02,-1.47797e-01,-2.16134e-01,-6.43397e-02,5.02144e-01,7.83036e-01,1.03802e+00,1.03672e+00,9.40732e-01,2.30494e-01,1.42769e-01,2.17806e-01,2.89149e-01,4.74377e-01,5.99764e-01,7.65188e-01,5.20858e-01,-5.43156e-02,-1.32907e-01,1.73688e+00,VALUE,1p,0597,3.095,,,
6.22694e-02,1.77187e+00,1.35045e-01,2.07207e-01,3.87361e-02,2.97913e+00,3.25750e+00,2.82459e+00,1.61344e-01,1.21510e+00,5.46529e-02,-1.30132e-01,5.65978e-01,6.49698e-02,2.14308e-01,-8.43785e-02,-3.05077e-01,1.49305e+00,-7.26736e-01,-3.72133e-01,4.93849e-01,4.15772e-02,1.58110e-03,-3.14358e+00,1.02983e+00,-5.35442e-01,3.60258e-03,-4.79607e-02,1.26512e-01,3.66614e-01,1.01890e+00,1.04082e+00,-1.49022e+00,-1.77360e-01,-2.50321e-01,7.52070e-01,-3.74646e-02,-7.06256e-01,-1.27527e-01,5.54446e-01,-5.24125e-01,7.98672e-01,-6.12678e-01,-1.12194e+00,-4.09459e-02,-2.12482e-04,2.83173e-02,-4.12129e-01,-1.18308e-01,-5.19776e-02,5.68287e-01,1.86049e-02,-3.14232e-01,9.50675e-01,-3.46394e-01,-5.95118e-02,-3.98476e-02,-1.50097e-01,-2.20116e-01,-6.88271e-02,5.01802e-01,7.83598e-01,1.03920e+00,1.04083e+00,9.37869e-01,2.29925e-01,1.41238e-01,2.16263e-01,2.87381e-01,4.71805e-01,5.97511e-01,7.63415e-01,5.18643e-01,-5.71746e-02,-1.26813e-01,1.73696e+00,VALUE,1p,0600,3.1,,,
6.49142e-02,1.85592e+00,1.35871e-01,2.05236e-01,3.88438e-02,2.97924e+00,3.25795e+00,2.82505e+00,1.53455e-01,1.23627e+00,8.74125e-02,-1.39893e-01,5.21850e-01,7.19968e-02,2.73448e-01,-8.17615e-02,-3.29792e-01,1.47228e+00,-7.13531e-01,-3.67577e-01,5.19892e-01,5.50412e-02,1.11776e-03,-3.09195e+00,1.00573e+00,-5.58309e-01,5.30000e-03,-1.04175e-01,1.31986e-01,3.90412e-01,9.66439e-01,1.02575e+00,-1.44220e+00,-1.57186e-01,-3.13007e-01,7.34344e-01,-3.39555e-02,-6.89790e-01,-1.21671e-01,5.34640e-01,-4.28251e-01,7.91551e-01,-6.12219e-01,-1.08806e+00,-2.94590e-02,2.02705e-04,-5.80707e-03,-3.67719e-01,-1.15262e-01,-4.76236e-02,5.26143e-01,2.26138e-02,-2.72646e-01,1.03716e+00,-3.36884e-01,-5.45049e-02,-3.53746e-02,-1.46611e-01,-2.15748e-01,-6.46207e-02,5.06201e-01,7.86568e-01,1.03834e+00,1.03621e+00,9.30962e-01,2.36116e-01,1.42656e-01,2.17321e-01,2.89837e-01,4.75905e-01,5.99349e-01,7.62566e-01,5.16679e-01,-5.21154e-02,-1.20815e-01,1.73241e+00,VALUE,1p,0610,3.105,,,
7.03340e-02,1.96494e+00,1.37569e-01,2.03631e-01,3.88153e-02,2.97948e+00,3.25900e+00,2.82543e+00,1.72008e-01,1.31838e+00,3.25042e-02,1.27110e-02,7.45321e-01,3.94549e-02,-1.79968e-01,-1.26143e-01,4.11476e-02,1.39327e+00,-7.40177e-01,-3.89088e-01,6.26972e-01,-1.32914e-02,6.17410e-04,-3.16680e+00,8.45236e-01,-3.52175e-01,-3.35627e-02,3.48852e-01,9.93906e-02,2.35157e-02,8.58425e-01,1.03279e+00,-1.42731e+00,-1.88766e-01,5.11864e-02,6.67655e-01,-5.16426e-02,-6.85948e-01,-1.25796e-01,6.97333e-01,-1.36211e+00,8.36273e-01,-6.34853e-01,-1.03597e+00,-5.89982e-02,-4.48356e-04,4.45384e-02,-7.75758e-01,-1.93587e-01,-6.35493e-02,4.88289e-01,2.05785e-02,-4.03642e-01,1.58152e-01,-3.33257e-01,-5.03792e-02,-3.28545e-02,-1.45800e-01,-2.15019e-01,-6.53110e-02,5.04832e-01,7.85517e-01,1.03533e+00,1.03000e+00,9.28707e-01,2.34456e-01,1.41230e-01,2.15640e-01,2.87707e-01,4.74878e-01,5.99337e-01,7.64792e-01,5.19121e-01,-6.06110e-02,-1.22429e-01,1.71297e+00,VALUE,1p,0621,3.11,,,
8.14712e-02,1.75110e+00,1.40344e-01,2.01818e-01,3.89226e-02,2.97947e+00,3.25970e+00,2.82575e+00,1.46126e-01,1.35500e+00,2.51909e-02,1.12102e-01,7.83146e-01,2.83220e-02,-3.06928e-01,-1.40033e-01,1.83575e-01,1.20552e+00,-7.50826e-01,-3.88035e-01,6.48153e-01,-3.32218e-02,1.02538e-03,-3.16699e+00,7.41964e-01,-2.87598e-01,-4.89581e-02,4.85015e-01,8.95503e-02,-1.07326e-01,6.45891e-01,1.04033e+00,-1.41077e+00,-2.04834e-01,1.33496e-01,6.02925e-01,-5.49220e-02,-6.16290e-01,-1.19348e-01,6.92845e-01,-1.62008e+00,8.10043e-01,-6.33052e-01,-1.03921e+00,-7.13774e-02,-1.36490e-03,1.95879e-03,-8.76324e-01,-2.67216e-01,-6.56200e-02,4.10327e-01,2.61539e-02,-3.74356e-01,-9.29583e-02,-3.30185e-01,-4.46531e-02,-2.98249e-02,-1.45896e-01,-2.16804e-01,-6.58935e-02,5.06836e-01,7.86990e-01,1.04022e+00,1.04186e+00,9.31132e-01,2.34956e-01,1.38854e-01,2.13985e-01,2.87255e-01,4.74317e-01,5.98254e-01,7.59419e-01,5.13567e-01,-5.40563e-02,-1.17616e-01,1.73960e+00,VALUE,1p,0635,3.115,,,
9.57873e-02,2.05576e+00,1.42716e-01,2.01977e-01,3.90007e-02,2.98017e+00,3.26129e+00,2.82559e+00,1.85988e-01,1.40302e+00,7.84341e-02,2.81269e-02,7.70375e-01,4.38039e-02,-2.10162e-01,-1.34510e-01,8.47070e-02,1.37761e+00,-7.59669e-01,-4.18799e-01,7.39116e-01,8.90947e-03,3.58686e-04,-3.22424e+00,8.28521e-01,-3.05231e-01,-4.03789e-02,3.93901e-01,1.04114e-01,-2.42652e-03,8.52833e-01,1.03282e+00,-1.39144e+00,-2.25497e-01,5.38213e-02,6.36162e-01,-5.93936e-02,-6.90789e-01,-1.20849e-01,7.16175e-01,-1.45754e+00,8.75159e-01,-6.47931e-01,-9.76471e-01,-7.87294e-02,-3.98614e-04,1.18554e-01,-8.51961e-01,-2.45417e-01,-6.80595e-02,4.79760e-01,1.83174e-02,-3.94433e-01,9.21939e-02,-3.39013e-01,-3.93585e-02,-2.72073e-02,-1.46287e-01,-2.18355e-01,-7.12499e-02,4.94901e-01,7.78644e-01,1.03378e+00,1.02851e+00,8.97372e-01,2.28363e-01,1.33275e-01,2.10038e-01,2.83301e-01,4.72893e-01,5.99991e-01,7.73096e-01,5.29241e-01,-5.77719e-02,-1.06217e-01,1.71323e+00,VALUE,1p,0641,3.12,,,
1.09289e-01,2.00467e+00,1.43801e-01,2.01972e-01,3.90749e-02,2.98015e+00,3.26220e+00,2.82575e+00,1.89798e-01,1.47872e+00,2.17740e-01,-1.15562e-01,4.20614e-01,1.11400e-01,6.05036e-01,-7.52885e-02,-5.03944e-01,1.21102e+00,-7.73801e-01,-4.38209e-01,8.13525e-01,1.34508e-01,5.42974e-04,-3.26857e+00,9.76358e-01,-6.61032e-01,2.13712e-02,-4.10798e-01,1.69309e-01,5.79225e-01,6.60403e-01,1.04236e+00,-1.38001e+00,-5.63152e-02,-7.03372e-01,7.20031e-01,-9.58802e-03,-5.51285e-01,-9.68828e-02,3.47252e-01,1.38730e-01,8.97495e-01,-6.56865e-01,-9.40143e-01,1.02042e-01,3.57433e-04,1.36799e-01,-1.31996e-01,-1.78190e-01,-1.80669e-02,3.19647e-01,4.38033e-02,-8.32793e-03,1.71663e+00,-3.43141e-01,-3.38986e-02,-2.26782e-02,-1.43452e-01,-2.15967e-01,-6.82895e-02,4.97506e-01,7.79862e-01,1.03463e+00,1.03014e+00,9.01578e-01,2.26966e-01,1.29797e-01,2.07611e-01,2.82712e-01,4.73951e-01,6.00859e-01,7.70470e-01,5.26479e-01,-5.80203e-02,-1.08694e-01,1.72253e+00,VALUE,1p,0650,3.125,,,
1.31191e-01,1.73170e+00,1.45280e-01,2.01399e-01,3.90015e-02,2.97985e+00,3.26227e+00,2.82580e+00,1.55039e-01,1.54906e+00,9.89512e-02,1.05579e-01,7.91054e-01,3.68201e-02,-3.01996e-01,-1.43553e-01,1.70114e-01,1.28309e+00,-7.79473e-01,-4.41705e-01,8.71677e-01,-5.25281e-03,7.57409e-04,-3.25154e+00,7.69652e-01,-2.54715e-01,-5.44137e-02,4.84625e-01,1.00326e-01,-9.72421e-02,6.92744e-01,1.03630e+00,-1.33494e+00,-2.95470e-01,1.15725e-01,5.44310e-01,-6.92360e-02,-6.59005e-01,-1.18574e-01,7.35576e-01,-1.66413e+00,8.62696e-01,-6.57748e-01,-8.99229e-01,-1.09197e-01,-1.65990e-03,8.85529e-02,-9.45517e-01,-3.68917e-01,-7.66051e-02,4.15465e-01,2.41423e-02,-3.73135e-01,-5.10708e-02,-3.50984e-01,-2.44714e-02,-1.35785e-02,-1.39605e-01,-2.17092e-01,-6.77191e-02,5.02727e-01,7.83750e-01,1.03966e+00,1.04049e+00,9.09146e-01,2.24779e-01,1.22057e-01,2.00968e-01,2.80592e-01,4.72600e-01,6.00180e-01,7.62212e-01,5.17421e-01,-5.63675e-02,-1.08174e-01,1.75018e+00,VALUE,1p,0669,3.13,,,
1.57406e-01,1.70471e+00,1.46788e-01,1.98976e-01,3.89090e-02,2.98002e+00,3.26069e+00,2.82576e+00,1.02463e-01,1.54650e+00,6.74312e-02,2.65122e-01,7.54757e-01,1.86720e-02,-4.19097e-01,-1.53227e-01,3.03611e-01,1.01618e+00,-7.90687e-01,-4.08947e-01,8.59330e-01,-8.34096e-02,-2.41270e-05,-3.18435e+00,6.52982e-01,-2.02905e-01,-7.34069e-02,6.09295e-01,8.23603e-02,-2.27728e-01,4.14109e-01,1.01451e+00,-1.28033e+00,-3.36949e-01,1.82925e-01,4.19079e-01,-6.72178e-02,-5.19257e-01,-1.07852e-01,6.73752e-01,-1.85978e+00,7.72446e-01,-6.72250e-01,-8.98385e-01,-1.35022e-01,-1.96317e-03,-5.45197e-02,-9.89538e-01,-5.11709e-01,-8.00429e-02,3.14183e-01,2.98638e-02,-3.24502e-01,-3.05217e-01,-3.59657e-01,-1.70973e-02,-5.93475e-03,-1.38584e-01,-2.22571e-01,-7.45216e-02,5.02640e-01,7.85025e-01,1.04146e+00,1.04256e+00,9.05801e-01,2.22937e-01,1.18123e-01,1.96235e-01,2.79981e-01,4.71322e-01,6.00721e-01,7.63734e-01,5.17312e-01,-5.54356e-02,-1.01666e-01,1.75639e+00,VALUE,1p,0670,3.135,,,
1.80858e-01,1.88127e+00,1.45886e-01,1.98257e-01,3.89882e-02,2.97986e+00,3.25979e+00,2.82545e+00,1.36663e-01,1.57237e+00,-2.50962e-02,5.71141e-01,6.78756e-01,-1.09499e-02,-5.62648e-01,-1.72459e-01,5.01161e-01,4.66266e-01,-8.06065e-01,-4.36665e-01,9.13171e-01,-2.26423e-01,-5.99210e-04,-3.25423e+00,3.73651e-01,-2.83335e-01,-1.07296e-01,7.62944e-01,6.53615e-02,-4.32137e-01,-1.29497e-01,1.00729e+00,-1.29030e+00,-3.47917e-01,1.97566e-01,2.63600e-01,-5.01285e-02,-2.44435e-01,-8.68627e-02,5.09684e-01,-2.11026e+00,8.09131e-01,-6.84718e-01,-8.72396e-01,-1.16820e-01,-8.03434e-04,4.09416e-02,-1.04411e+00,-6.79732e-01,-6.38828e-02,4.39739e-02,4.66953e-02,-1.76269e-01,-5.71760e-01,-3.74859e-01,-1.36875e-02,-6.26728e-05,-1.34742e-01,-2.24723e-01,-8.14570e-02,4.91480e-01,7.77128e-01,1.03602e+00,1.03525e+00,8.77144e-01,2.08581e-01,1.14464e-01,1.89981e-01,2.75637e-01,4.66996e-01,6.00776e-01,7.73325e-01,5.28093e-01,-5.65915e-02,-9.24369e-02,1.74602e+00,VALUE,1p,0685,3.14,,,
1.99272e-01,2.01823e+00,1.44770e-01,1.97473e-01,3.91617e-02,2.97937e+00,3.25871e+00,2.82561e+00,1.53219e-01,1.67225e+00,-1.63761e-01,1.10854e+00,3.76361e-01,-3.04704e-02,-3.52866e-01,-1.71754e-01,5.78612e-01,-8.06002e-01,-8.60576e-01,-4.62716e-01,1.02611e+00,-4.19569e-01,-5.93783e-04,-3.39031e+00,-1.29231e-01,-6.10952e-01,-1.36382e-01,5.95133e-01,7.45886e-02,-5.28286e-01,-1.48311e+00,1.03320e+00,-1.29610e+00,-1.30961e-01,-2.29286e-01,2.28493e-01,2.99130e-02,4.09653e-01,-3.03419e-02,-6.78786e-02,-1.60721e+00,8.46333e-01,-7.23708e-01,-8.23068e-01,1.19637e-01,4.15570e-05,6.36394e-02,-6.63817e-01,-7.57222e-01,1.56933e-02,-6.38805e-01,1.04929e-01,4.23691e-01,-7.15292e-02,-3.79609e-01,-9.48736e-03,6.26253e-03,-1.29285e-01,-2.22943e-01,-8.13397e-02,4.91365e-01,7.76377e-01,1.03399e+00,1.02996e+00,8.81053e-01,2.00413e-01,1.14404e-01,1.87042e-01,2.74034e-01,4.64862e-01,6.00838e-01,7.76445e-01,5.31910e-01,-7.28677e-02,-9.91130e-02,1.72982e+00,VALUE,1p,0693,3.145,,,
2.13295e-01,2.04714e+00,1.44264e-01,1.96593e-01,3.91988e-02,2.97901e+00,3.25773e+00,2.82560e+00,1.65825e-01,1.71657e+00,4.59914e-01,-1.05319e-01,6.15946e-01,1.44646e-01,6.71262e-01,-7.02177e-02,-5.73020e-01,1.43782e+00,-8.89054e-01,-4.79205e-01,1.06498e+00,1.56351e-01,5.35541e-04,-3.46412e+00,1.10574e+00,-3.95276e-01,3.33776e-02,-4.09132e-01,1.79672e-01,6.20500e-01,7.40508e-01,1.05220e+00,-1.32820e+00,-8.72593e-02,-7.53143e-01,7.58956e-01,-6.26933e-03,-6.03278e-01,-1.01535e-01,3.66737e-01,2.04557e-01,8.69850e-01,-7.34895e-01,-8.26477e-01,1.69873e-01,3.52116e-05,6.64372e-02,-1.84828e-01,-2.39103e-01,-2.24918e-02,3.70705e-01,3.12275e-02,-1.70916e-02,1.71847e+00,-3.81445e-01,-5.50186e-03,1.22767e-02,-1.23199e-01,-2.17936e-01,-7.55439e-02,4.97415e-01,7.79598e-01,1.03308e+00,1.02703e+00,8.96920e-01,1.97611e-01,1.14412e-01,1.85469e-01,2.75040e-01,4.66995e-01,6.03070e-01,7.73297e-01,5.28187e-01,-8.02305e-02,-1.10955e-01,1.72333e+00,VALUE,1p,0701,3.15,,,
2.24375e-01,2.02009e+00,1.43118e-01,1.95307e-01,3.91504e-02,2.97833e+00,3.25716e+00,2.82608e+00,1.59123e-01,1.74474e+00,4.27809e-01,3.31778e-02,5.02731e-01,1.43464e-01,8.10971e-01,-6.04565e-02,-6.08695e-01,9.58767e-01,-8.74393e-01,-4.83089e-01,1.12630e+00,1.02144e-01,5.35572e-04,-3.43315e+00,9.14979e-01,-4.74230e-01,2.94677e-02,-5.37687e-01,1.85052e-01,6.12467e-01,1.45078e-01,1.02862e+00,-1.25471e+00,5.41113e-02,-9.60247e-01,7.73158e-01,2.87474e-02,-3.46544e-01,-7.29466e-02,1.27171e-01,5.67590e-01,8.62693e-01,-7.39314e-01,-7.33606e-01,3.12617e-01,2.38085e-04,1.03577e-01,2.40290e-02,-2.12480e-01,1.85385e-02,3.89145e-02,6.88452e-02,2.79483e-01,2.08837e+00,-3.77350e-01,1.08492e-03,1.98962e-02,-1.19565e-01,-2.20664e-01,-8.13158e-02,4.91780e-01,7.76601e-01,1.03304e+00,1.02813e+00,8.85390e-01,1.86857e-01,1.12063e-01,1.80998e-01,2.72314e-01,4.61888e-01,5.99724e-01,7.75087e-01,5.30693e-01,-8.03567e-02,-1.03384e-01,1.72740e+00,VALUE,1p,0711,3.155,,,
2.33926e-01,2.04670e+00,1.42309e-01,1.93885e-01,3.89123e-02,2.97832e+00,3.25600e+00,2.82630e+00,1.33850e-01,1.74710e+00,4.74105e-01,-1.54807e-01,7.23917e-01,1.21213e-01,3.10793e-01,-9.53069e-02,-3.66003e-01,1.80684e+00,-8.85370e-01,-4.60123e-01,1.11563e+00,1.14020e-01,4.12295e-04,-3.41265e+00,1.11134e+00,-2.27744e-01,6.35256e-03,-2.59218e-02,1.48857e-01,3.70640e-01,1.00237e+00,1.02987e+00,-1.23564e+00,-2.46594e-01,-3.36366e-01,6.03211e-01,-5.96393e-02,-8.26756e-01,-1.26102e-01,7.04946e-01,-5.83374e-01,8.25680e-01,-7.49535e-01,-7.36627e-01,-1.08119e-02,-3.29536e-04,1.07504e-02,-5.98205e-01,-3.85351e-01,-7.21181e-02,5.29508e-01,1.06010e-02,-2.97009e-01,8.81640e-01,-3.74315e-01,3.68013e-03,2.33913e-02,-1.17189e-01,-2.19845e-01,-8.03802e-02,4.95063e-01,7.78573e-01,1.03282e+00,1.02658e+00,8.88693e-01,1.89379e-01,1.14951e-01,1.82168e-01,2.74872e-01,4.63737e-01,6.00497e-01,7.74353e-01,5.29426e-01,-8.27597e-02,-1.05152e-01,1.72349e+00,VALUE,1p,0723,3.16,,,
2.42982e-01,2.05388e+00,1.42041e-01,1.92105e-01,3.89826e-02,2.97773e+00,3.25512e+00,2.82664e+00,1.43685e-01,1.77024e+00,5.18984e-01,-1.75821e-01,7.17636e-01,1.32270e-01,4.17484e-01,-8.62574e-02,-4.45071e-01,1.79324e+00,-8.90544e-01,-4.73436e-01,1.15946e+00,1.30515e-01,4.26141e-04,-3.43240e+00,1.11466e+00,-2.39918e-01,1.57251e-02,-1.26245e-01,1.57911e-01,4.34742e-01,9.33366e-01,1.02576e+00,-1.22511e+00,-1.96018e-01,-4.45400e-01,6.09670e-01,-5.07381e-02,-8.09325e-01,-1.22515e-01,6.62985e-01,-3.91761e-01,8.42255e-01,-7.53930e-01,-6.93032e-01,3.60974e-02,-2.86813e-04,6.35524e-02,-5.23884e-01,-3.62201e-01,-6.28131e-02,4.69989e-01,1.65455e-02,-2.33793e-01,1.09117e+00,-3.69830e-01,9.11011e-03,3.00151e-02,-1.13406e-01,-2.20809e-01,-8.22505e-02,4.93255e-01,7.77458e-01,1.03219e+00,1.02555e+00,8.88840e-01,1.83483e-01,1.14579e-01,1.79365e-01,2.73715e-01,4.61366e-01,6.00174e-01,7.75827e-01,5.31208e-01,-8.65382e-02,-1.07501e-01,1.72281e+00,VALUE,1p,0734,3.165,,,
2.52906e-01,2.06401e+00,1.41211e-01,1.91305e-01,3.91567e-02,2.97723e+00,3.25425e+00,2.82674e+00,1.65799e-01,1.82121e+00,-4.15781e-03,9.55352e-01,2.32108e-01,3.76904e-02,3.52357e-01,-1.22321e-01,5.89158e-02,-8.59897e-01,-9.14775e-01,-5.03478e-01,1.22481e+00,-4.34721e-01,-1.98073e-04,-3.52405e+00,-2.07299e-02,-7.55646e-01,-8.71464e-02,-1.48288e-02,1.27048e-01,-9.16959e-02,-1.77282e+00,1.04732e+00,-1.25121e+00,1.55118e-01,-9.64707e-01,5.61114e-01,9.73626e-02,5.04717e-01,-9.34620e-04,-4.20680e-01,-1.46992e-01,8.87760e-01,-7.66691e-01,-6.63711e-01,3.90958e-01,4.55730e-04,1.49465e-01,-5.79014e-02,-4.21149e-01,8.76262e-02,-8.78847e-01,1.37137e-01,8.70088e-01,1.31594e+00,-3.71009e-01,1.15390e-02,3.48933e-02,-1.10009e-01,-2.21234e-01,-8.34430e-02,4.89627e-01,7.74445e-01,1.03169e+00,1.02574e+00,8.88829e-01,1.75323e-01,1.16375e-01,1.78371e-01,2.73260e-01,4.59365e-01,6.00161e-01,7.78643e-01,5.35190e-01,-9.06426e-02,-1.11122e-01,1.72491e+00,VALUE,1p,0741,3.17,,,
2.59312e-01,1.86485e+00,1.40240e-01,1.89848e-01,3.87393e-02,2.97701e+00,3.25306e+00,2.82706e+00,1.32939e-01,1.80032e+00,5.25407e-01,-1.51665e-01,7.39560e-01,1.16311e-01,2.55321e-01,-1.00294e-01,-3.20966e-01,1.83084e+00,-8.90784e-01,-4.81139e-01,1.19854e+00,8.35049e-02,6.11344e-04,-3.43893e+00,1.04959e+00,-2.18204e-01,-5.09994e-03,6.01332e-02,1.44350e-01,2.89601e-01,9.26230e-01,1.02944e+00,-1.21298e+00,-2.56138e-01,-2.81227e-01,4.95244e-01,-7.32286e-02,-8.75431e-01,-1.28460e-01,7.98265e-01,-7.66322e-01,8.39294e-01,-7.56370e-01,-6.53033e-01,-4.57416e-02,-8.62862e-04,7.46796e-02,-7.19914e-01,-4.53893e-01,-8.08870e-02,4.86852e-01,4.79662e-03,-3.22948e-01,6.77216e-01,-3.61211e-01,1.68518e-02,4.05887e-02,-1.06792e-01,-2.20661e-01,-8.16963e-02,4.95682e-01,7.78803e-01,1.03441e+00,1.03188e+00,9.02316e-01,1.80751e-01,1.17791e-01,1.77806e-01,2.74778e-01,4.59483e-01,5.98686e-01,7.70968e-01,5.26594e-01,-9.30486e-02,-1.14346e-01,1.73659e+00,VALUE,1p,0753,3.175,,,
2.53732e-01,1.55427e+00,1.39509e-01,1.78365e-01,3.51326e-02,2.97681e+00,3.25215e+00,2.83299e+00,6.48758e-02,1.73594e+00,2.56163e-01,8.74136e-01,6.88802e-01,-5.35240e-02,-2.12568e-01,-1.43104e-01,6.23412e-01,-4.35228e-01,-9.54957e-01,-4.38724e-01,1.05152e+00,-3.67440e-01,-3.50929e-03,-3.40100e+00,2.41716e-01,-3.22093e-01,-1.51271e-01,7.07925e-01,1.00834e-01,-6.48000e-01,-1.63684e+00,1.04003e+00,-1.28563e+00,4.17550e-01,-1.95808e-01,5.34288e-01,1.10151e-01,1.89549e-01,-1.00831e-02,-1.76617e-01,-6.92537e-01,7.21976e-01,-7.76489e-01,-8.76823e-01,4.91933e-01,-2.73550e-03,-2.04216e-01,-8.91296e-01,-3.52136e-01,-3.69483e-03,-5.37748e-01,1.21089e-01,6.78610e-01,7.81505e-01,-3.03399e-01,1.17791e-02,1.35778e-02,-1.08014e-01,-2.05568e-01,-5.19722e-02,5.29013e-01,7.96642e-01,1.03889e+00,1.03697e+00,8.85012e-01,2.16358e-01,1.56671e-01,2.09374e-01,2.85634e-01,4.74875e-01,6.09099e-01,7.51332e-01,5.02339e-01,-6.61569e-02,-7.46336e-02,1.74148e+00,VALUE,1p,0768,3.18,,,
2.62879e-01,2.05615e+00,1.39413e-01,1.76636e-01,3.52958e-02,2.97677e+00,3.25117e+00,2.83279e+00,1.22562e-01,1.76840e+00,-1.73629e-01,2.08495e-01,4.42730e-01,-3.24475e-03,-1.37124e-01,-1.87100e-01,4.39381e-01,5.08840e-01,-9.70106e-01,-4.41935e-01,1.10667e+00,-8.17269e-01,-2.33349e-05,-3.48761e+00,9.17007e-01,-6.23116e-01,-1.05966e-01,6.38480e-01,6.66140e-02,-4.51497e-01,-6.25200e-01,1.06787e+00,-1.31268e+00,-1.19987e-01,-2.53180e-01,5.91314e-01,-4.73102e-02,-6.49290e-01,-8.07781e-02,8.97945e-01,-1.85797e+00,7.99292e-01,-7.99681e-01,-8.35646e-01,-5.25089e-02,-6.12608e-04,-1.28064e-01,-9.10108e-01,-2.67294e-01,-1.64646e-01,2.95115e-01,3.65977e-02,-3.96468e-01,-3.57721e-01,-3.00654e-01,1.82265e-02,2.38917e-02,-1.01166e-01,-2.04304e-01,-5.55533e-02,5.21983e-01,7.91789e-01,1.02924e+00,1.01388e+00,8.87937e-01,2.24489e-01,1.57332e-01,2.07016e-01,2.86087e-01,4.73567e-01,6.08748e-01,7.64133e-01,5.15372e-01,-7.59964e-02,-9.09876e-02,1.69322e+00,VALUE,1p,0770,3.185,,,
2.64097e-01,1.48485e+00,1.39719e-01,1.75931e-01,3.49179e-02,2.97627e+00,3.25045e+00,2.83325e+00,2.18258e-02,1.78762e+00,-1.56413e-01,1.81473e-01,3.32831e-01,7.37764e-03,-1.60787e-02,-1.60425e-01,2.78952e-01,7.29098e-01,-9.24312e-01,-4.03155e-01,1.10845e+00,-7.66232e-01,2.94985e-03,-3.28796e+00,9.24507e-01,-6.00945e-01,-8.34218e-02,5.20312e-01,7.14758e-02,-3.39883e-01,-5.29562e-01,9.95209e-01,-1.13710e+00,-1.46101e-01,-2.52891e-01,5.91888e-01,-5.26152e-02,-6.66716e-01,-9.97912e-02,9.43422e-01,-1.70267e+00,6.53893e-01,-7.80448e-01,-7.56581e-01,-1.14911e-01,-4.65507e-03,-3.01051e-01,-7.82348e-01,-2.85257e-01,-1.61899e-01,3.00395e-01,4.39015e-02,-3.95351e-01,-2.57067e-01,-2.97324e-01,2.05944e-02,2.28686e-02,-1.02949e-01,-2.06601e-01,-5.27742e-02,5.33056e-01,8.00026e-01,1.04181e+00,1.03949e+00,8.75138e-01,2.14313e-01,1.55995e-01,2.07120e-01,2.86246e-01,4.73252e-01,6.06309e-01,7.45705e-01,4.96241e-01,-6.33349e-02,-6.48527e-02,1.75478e+00,VALUE,1p,0782,3.19,,,
2.74850e-01,2.07791e+00,1.37241e-01,1.78210e-01,3.48347e-02,2.97518e+00,3.24980e+00,2.83321e+00,1.92883e-01,1.72114e+00,7.73642e-02,6.25905e-02,2.90168e-01,9.98636e-02,4.04901e-01,-1.42954e-01,-2.74533e-01,1.36170e+00,-9.05472e-01,-4.55936e-01,1.06344e+00,-5.92537e-01,-4.62964e-04,-3.43410e+00,9.47960e-01,-8.20760e-01,-1.59702e-02,1.05329e-01,1.11626e-01,2.19821e-01,1.73676e-01,1.03700e+00,-1.40329e+00,-4.24606e-01,-6.82973e-01,4.38113e-01,-5.76875e-02,-7.79642e-01,-1.17478e-01,1.04300e+00,-1.44520e+00,7.32636e-01,-7.51436e-01,-8.83533e-01,-3.46747e-01,1.99694e-04,-7.46837e-02,-5.46481e-01,-3.62292e-01,-1.67744e-01,3.31252e-01,1.98619e-03,-4.53299e-01,1.52490e-01,-2.91448e-01,2.51649e-02,3.02249e-02,-9.37134e-02,-2.00893e-01,-6.32941e-02,5.10414e-01,7.85514e-01,1.03017e+00,1.01728e+00,8.92904e-01,2.31677e-01,1.61078e-01,2.09016e-01,2.86468e-01,4.71343e-01,6.07311e-01,7.72310e-01,5.23072e-01,-9.69976e-02,-1.03318e-01,1.73021e+00,VALUE,1p,0791,3.195,,,
2.73917e-01,1.50381e+00,1.39725e-01,1.74232e-01,3.53713e-02,2.97598e+00,3.24869e+00,2.83312e+00,4.94510e-02,1.82303e+00,1.88394e-01,1.17529e-01,2.71353e-01,1.22621e-01,5.55144e-01,-1.13817e-01,-4.59292e-01,1.52975e+00,-9.26855e-01,-4.19301e-01,1.14621e+00,-4.33629e-01,5.07530e-03,-3.33860e+00,9.69484e-01,-6.83082e-01,2.65914e-02,-2.89486e-02,1.24895e-01,3.95858e-01,3.08451e-01,1.00234e+00,-1.14449e+00,-4.90610e-01,-7.29134e-01,3.79564e-01,-3.34235e-02,-6.80612e-01,-1.21447e-01,8.91493e-01,-1.12548e+00,6.98182e-01,-7.77202e-01,-7.20233e-01,-4.93444e-01,-3.62139e-04,-2.18979e-01,-3.69532e-01,-4.69539e-01,-1.39798e-01,2.97093e-01,1.29734e-02,-3.18818e-01,3.07837e-01,-2.91222e-01,2.59356e-02,3.09687e-02,-9.72684e-02,-2.06715e-01,-5.48450e-02,5.29918e-01,7.97790e-01,1.04094e+00,1.03852e+00,8.72450e-01,2.18141e-01,1.60724e-01,2.07933e-01,2.88247e-01,4.73177e-01,6.06568e-01,7.47986e-01,4.98986e-01,-6.47951e-02,-7.15850e-02,1.76077e+00,VALUE,1p,0800,3.2,,,
2.81023e-01,1.98773e+00,1.39102e-01,1.73163e-01,3.54202e-02,2.97608e+00,3.24753e+00,2.83310e+00,1.16607e-01,1.82841e+00,2.05386e-01,1.15222e-01,2.95806e-01,1.29146e-01,5.76715e-01,-1.15062e-01,-4.78060e-01,1.55413e+00,-9.37775e-01,-4.18928e-01,1.18586e+00,-4.41132e-01,6.57997e-04,-3.41574e+00,9.60850e-01,-7.18386e-01,2.28138e-02,-2.90709e-02,1.30810e-01,4.07015e-01,3.56468e-01,1.02494e+00,-1.17887e+00,-5.10372e-01,-7.68203e-01,3.60145e-01,-3.45648e-02,-7.00105e-01,-1.19371e-01,9.13104e-01,-1.14620e+00,7.64814e-01,-7.98832e-01,-6.87969e-01,-5.15552e-01,-3.97376e-04,-1.31860e-01,-4.07695e-01,-4.56699e-01,-1.43958e-01,2.94611e-01,1.88064e-03,-3.25078e-01,3.18038e-01,-2.87066e-01,2.99193e-02,3.77740e-02,-9.24445e-02,-2.06250e-01,-6.11473e-02,5.20315e-01,7.91818e-01,1.03115e+00,1.01733e+00,8.69830e-01,2.25706e-01,1.63578e-01,2.07338e-01,2.88200e-01,4.70985e-01,6.05793e-01,7.63071e-01,5.13882e-01,-7.60027e-02,-8.32643e-02,1.71571e+00,VALUE,1p,0815,3.205,,,
2.81073e-01,1.54202e+00,1.39427e-01,1.72979e-01,3.53755e-02,2.97612e+00,3.24697e+00,2.83328e+00,6.80570e-02,1.86460e+00,1.66981e-01,7.98418e-01,6.55474e-01,-5.78942e-02,-2.35599e-01,-1.60182e-01,6.53573e-01,-3.43356e-01,-9.55009e-01,-4.15020e-01,1.20934e+00,-4.73671e-01,-3.88894e-03,-3.41303e+00,2.81511e-01,-3.11865e-01,-1.63005e-01,8.00678e-01,8.10679e-02,-7.50035e-01,-1.60730e+00,1.00996e+00,-1.12721e+00,5.10233e-01,-1.97267e-01,5.80232e-01,8.53164e-02,2.76329e-02,-2.71773e-02,4.70908e-02,-8.98065e-01,7.16405e-01,-7.98682e-01,-6.60632e-01,4.76381e-01,-2.15190e-03,-1.77981e-01,-9.43687e-01,-2.59078e-01,-1.95606e-02,-4.42148e-01,1.06183e-01,5.72122e-01,5.42158e-01,-2.82210e-01,2.80938e-02,3.42696e-02,-9.59850e-02,-2.09849e-01,-6.11270e-02,5.23361e-01,7.93468e-01,1.03906e+00,1.03758e+00,8.69447e-01,2.17711e-01,1.65941e-01,2.09340e-01,2.87473e-01,4.68489e-01,6.03673e-01,7.52654e-01,5.04744e-01,-7.32415e-02,-7.49609e-02,1.75319e+00,VALUE,1p,0823,3.21,,,
2.85476e-01,1.88299e+00,1.38131e-01,1.72345e-01,3.53967e-02,2.97572e+00,3.24537e+00,2.83314e+00,9.39705e-02,1.85903e+00,-2.23997e-01,2.58716e-01,3.75332e-01,-1.12178e-02,-9.89653e-02,-1.68288e-01,3.95398e-01,5.12946e-01,-9.03248e-01,-3.89873e-01,1.20397e+00,-8.41323e-01,-7.01652e-04,-3.33593e+00,8.00689e-01,-6.09774e-01,-1.14773e-01,6.47313e-01,7.19470e-02,-5.00323e-01,-7.17610e-01,1.00515e+00,-1.10665e+00,7.86226e-03,-2.01809e-01,6.06939e-01,-4.33771e-02,-6.32506e-01,-9.18666e-02,8.98454e-01,-1.70857e+00,7.05223e-01,-7.96042e-01,-6.21068e-01,-2.41782e-02,-7.83588e-04,-1.94675e-01,-9.26789e-01,-1.91997e-01,-1.44983e-01,2.05848e-01,3.85302e-02,-2.67614e-01,-2.55391e-01,-2.82102e-01,3.18637e-02,4.07542e-02,-9.14135e-02,-2.08987e-01,-6.46585e-02,5.20040e-01,7.92530e-01,1.03502e+00,1.02417e+00,8.73455e-01,2.28930e-01,1.67713e-01,2.09686e-01,2.89894e-01,4.68322e-01,6.01515e-01,7.59066e-01,5.09450e-01,-7.72296e-02,-8.56436e-02,1.74588e+00,VALUE,1p,0838,3.215,,,
2.90948e-01,2.12675e+00,1.36633e-01,1.76355e-01,3.49946e-02,2.97530e+00,3.24571e+00,2.83333e+00,2.23355e-01,1.67950e+00,-1.24989e-01,1.17940e-01,3.71746e-01,1.72228e-02,4.15463e-02,-1.65244e-01,2.32944e-01,7.58472e-01,-8.69463e-01,-4.38627e-01,1.07776e+00,-7.70168e-01,1.19990e-04,-3.38200e+00,8.10755e-01,-7.20620e-01,-1.03716e-01,4.80282e-01,8.27039e-02,-3.17207e-01,-3.74681e-01,9.94853e-01,-1.35793e+00,-9.70776e-02,-3.81605e-01,6.08714e-01,-6.06801e-02,-7.53063e-01,-9.61656e-02,1.03504e+00,-1.68727e+00,7.43006e-01,-7.31539e-01,-8.24525e-01,-9.89312e-02,4.23424e-04,4.38518e-03,-8.56552e-01,-1.01535e-01,-1.54563e-01,2.62047e-01,1.83678e-02,-3.68622e-01,-1.12636e-01,-2.67220e-01,3.05340e-02,3.76284e-02,-8.97392e-02,-2.02752e-01,-7.15093e-02,5.02367e-01,7.81353e-01,1.02663e+00,1.01189e+00,8.78384e-01,2.38822e-01,1.71948e-01,2.13465e-01,2.89064e-01,4.68575e-01,6.04127e-01,7.77312e-01,5.29266e-01,-1.05671e-01,-1.03293e-01,1.71393e+00,VALUE,1p,0845,3.22,,,
2.90960e-01,2.10248e+00,1.37315e-01,1.72032e-01,3.53639e-02,2.97576e+00,3.24343e+00,2.83319e+00,1.29246e-01,1.84501e+00,-7.16945e-02,5.78008e-01,5.88624e-01,-5.65945e-02,-2.76007e-01,-1.75695e-01,6.65240e-01,-1.14723e-01,-8.88529e-01,-3.84962e-01,1.20649e+00,-6.76919e-01,-3.85507e-04,-3.34701e+00,4.52135e-01,-4.25328e-01,-1.66352e-01,8.36325e-01,6.52548e-02,-7.85987e-01,-1.32946e+00,1.00879e+00,-1.13584e+00,4.00858e-01,-1.35724e-01,6.40681e-01,2.78471e-02,-2.74579e-01,-5.07697e-02,4.44539e-01,-1.37140e+00,7.07549e-01,-7.90662e-01,-6.16764e-01,3.46386e-01,1.87849e-04,-1.46352e-01,-1.01578e+00,-1.27915e-01,-6.94264e-02,-1.76372e-01,7.56226e-02,2.23511e-01,1.07730e-01,-2.75299e-01,3.16785e-02,4.10979e-02,-9.20217e-02,-2.11975e-01,-7.29134e-02,5.08788e-01,7.85800e-01,1.03121e+00,1.01734e+00,8.65280e-01,2.35007e-01,1.73902e-01,2.13714e-01,2.91080e-01,4.65535e-01,5.99375e-01,7.68656e-01,5.19826e-01,-8.54974e-02,-9.25483e-02,1.74132e+00,VALUE,1p,0851,3.225,,,
2.94150e-01,2.14521e+00,1.36076e-01,1.74275e-01,3.52089e-02,2.97534e+00,3.24296e+00,2.83319e+00,1.44179e-01,1.77004e+00,-1.73731e-01,3.63379e-01,4.80296e-01,-3.70019e-02,-1.98255e-01,-1.69986e-01,5.32256e-01,2.25610e-01,-8.19046e-01,-3.69223e-01,1.12744e+00,-7.42982e-01,-2.41740e-04,-3.21630e+00,6.02575e-01,-5.34176e-01,-1.44208e-01,7.26644e-01,6.62996e-02,-6.50661e-01,-9.34835e-01,9.71815e-01,-1.14913e+00,2.17237e-01,-1.45477e-01,6.64531e-01,-1.69601e-02,-4.98206e-01,-7.41070e-02,7.27178e-01,-1.56665e+00,6.57075e-01,-7.54346e-01,-6.63965e-01,1.68657e-01,2.43058e-04,-1.72424e-01,-9.68793e-01,-6.47588e-02,-1.06127e-01,3.87421e-02,5.15100e-02,-5.15742e-02,-8.63529e-02,-2.71749e-01,3.04109e-02,4.01175e-02,-9.08321e-02,-2.09279e-01,-7.44463e-02,5.07550e-01,7.86156e-01,1.03137e+00,1.01563e+00,8.58635e-01,2.44977e-01,1.76383e-01,2.16749e-01,2.93373e-01,4.67753e-01,5.99263e-01,7.70386e-01,5.20077e-01,-8.51569e-02,-8.89962e-02,1.75351e+00,VALUE,1p,0861,3.23,,,
2.93745e-01,2.05792e+00,1.35467e-01,1.75186e-01,3.52914e-02,2.97568e+00,3.24249e+00,2.83307e+00,1.45503e-01,1.75868e+00,-2.05983e-01,2.29379e-01,3.80777e-01,-3.99976e-03,-5.40175e-02,-1.60015e-01,3.20878e-01,5.89096e-01,-8.04455e-01,-3.63017e-01,1.11346e+00,-7.66305e-01,-3.71834e-04,-3.19148e+00,7.22886e-01,-6.29423e-01,-1.16559e-01,5.92236e-01,7.43859e-02,-4.60998e-01,-5.75323e-01,9.66697e-01,-1.15221e+00,6.26468e-02,-2.18334e-01,6.51774e-01,-4.46113e-02,-6.50462e-01,-9.57276e-02,9.16881e-01,-1.60335e+00,6.41786e-01,-7.46469e-01,-6.71490e-01,1.76698e-02,2.99007e-04,-1.71387e-01,-8.87363e-01,-6.02986e-02,-1.30385e-01,1.93234e-01,2.84105e-02,-2.39210e-01,-1.52794e-01,-2.69772e-01,2.83779e-02,3.75029e-02,-9.27490e-02,-2.10486e-01,-7.64152e-02,5.05855e-01,7.85536e-01,1.03309e+00,1.01956e+00,8.60861e-01,2.46947e-01,1.79982e-01,2.20069e-01,2.94598e-01,4.67157e-01,5.97966e-01,7.70104e-01,5.19713e-01,-8.42799e-02,-8.83217e-02,1.76528e+00,VALUE,1p,0873,3.235,,,
2.93157e-01,2.08083e+00,1.35824e-01,1.73235e-01,3.52266e-02,2.97571e+00,3.24058e+00,2.83311e+00,1.47043e-01,1.76139e+00,-1.91097e-01,9.63409e-02,2.83387e-01,3.29421e-02,1.23595e-01,-1.45200e-01,8.22003e-02,9.09214e-01,-8.07692e-01,-3.65531e-01,1.11879e+00,-7.22156e-01,-4.37744e-04,-3.21115e+00,8.48234e-01,-7.39338e-01,-7.49449e-02,3.90349e-01,9.06047e-02,-1.96672e-01,-2.01340e-01,9.75915e-01,-1.15829e+00,-1.53588e-01,-3.41773e-01,5.57536e-01,-6.46926e-02,-7.51583e-01,-1.06576e-01,1.03028e+00,-1.55955e+00,6.68573e-01,-7.45589e-01,-6.66527e-01,-2.32970e-01,-1.55162e-05,-1.36346e-01,-7.62886e-01,-1.41614e-01,-1.47684e-01,2.82857e-01,1.59093e-02,-3.37057e-01,-6.46779e-02,-2.63786e-01,2.80270e-02,3.91775e-02,-9.37431e-02,-2.13128e-01,-7.83237e-02,5.04104e-01,7.84760e-01,1.03275e+00,1.01888e+00,8.62632e-01,2.49731e-01,1.82171e-01,2.20484e-01,2.95156e-01,4.65954e-01,5.97038e-01,7.70082e-01,5.20082e-01,-8.11265e-02,-9.25972e-02,1.76330e+00,VALUE,1p,0880,3.24,,,
2.89284e-01,2.06377e+00,1.36046e-01,1.72753e-01,3.52013e-02,2.97630e+00,3.23897e+00,2.83314e+00,1.35487e-01,1.76092e+00,-1.01285e-01,5.55454e-02,2.19617e-01,7.31650e-02,3.30709e-01,-1.23439e-01,-1.86770e-01,1.18791e+00,-8.10828e-01,-3.49523e-01,1.11170e+00,-6.10113e-01,-4.31558e-04,-3.20642e+00,8.95746e-01,-7.98510e-01,-3.70091e-02,1.96342e-01,1.09195e-01,5.30828e-02,7.54019e-02,9.79191e-01,-1.15070e+00,-2.91757e-01,-4.79714e-01,4.71769e-01,-6.46771e-02,-7.57764e-01,-1.14047e-01,1.03240e+00,-1.34766e+00,6.54879e-01,-7.49309e-01,-6.70545e-01,-3.85850e-01,-1.76690e-04,-1.67226e-01,-6.08197e-01,-2.18814e-01,-1.46460e-01,2.94615e-01,6.62681e-03,-3.28597e-01,1.35653e-01,-2.58461e-01,2.52609e-02,3.72737e-02,-9.60802e-02,-2.14975e-01,-8.03541e-02,5.02855e-01,7.83985e-01,1.03320e+00,1.02018e+00,8.61563e-01,2.54061e-01,1.86538e-01,2.23232e-01,2.96362e-01,4.64552e-01,5.94754e-01,7.69569e-01,5.20137e-01,-8.17160e-02,-9.15975e-02,1.76379e+00,VALUE,1p,0892,3.245,,,
2.83280e-01,2.08419e+00,1.35532e-01,1.74902e-01,3.51436e-02,2.97613e+00,3.23815e+00,2.83312e+00,1.59348e-01,1.67071e+00,-1.39336e-01,5.04189e-02,2.47337e-01,5.23634e-02,2.34426e-01,-1.31303e-01,-6.55829e-02,1.04313e+00,-7.73037e-01,-3.49132e-01,1.02460e+00,-6.16278e-01,-4.09017e-04,-3.14664e+00,8.52133e-01,-7.84324e-01,-5.51548e-02,2.65316e-01,9.98489e-02,-5.54597e-02,-1.16431e-02,9.60747e-01,-1.21203e+00,-2.09632e-01,-4.08618e-01,5.23189e-01,-6.76962e-02,-7.56125e-01,-1.08965e-01,1.03209e+00,-1.40576e+00,6.43675e-01,-7.17345e-01,-7.52278e-01,-3.00497e-01,1.49597e-04,-1.40005e-01,-6.65020e-01,-1.27120e-01,-1.42923e-01,2.85069e-01,9.55910e-03,-3.25665e-01,9.96593e-02,-2.52973e-01,2.14211e-02,3.40760e-02,-9.78057e-02,-2.13911e-01,-8.27256e-02,4.99674e-01,7.83020e-01,1.03246e+00,1.01855e+00,8.61109e-01,2.60575e-01,1.89351e-01,2.26088e-01,2.97774e-01,4.66207e-01,5.95409e-01,7.72706e-01,5.22751e-01,-8.18594e-02,-9.27227e-02,1.76263e+00,VALUE,1p,0900,3.25,,,
1.60623e-01,1.65191e+00,1.31281e-01,1.76910e-01,3.75399e-02,2.97986e+00,3.21770e+00,2.82980e+00,-6.03893e-03,1.53584e+00,-8.36177e-02,1.84096e-01,4.00824e-01,5.19785e-02,-8.21936e-02,-1.46705e-01,1.45491e-01,8.67737e-01,-7.89747e-01,-2.84888e-01,7.25262e-01,-4.09035e-01,-2.39681e-03,-3.08506e+00,8.20744e-01,-7.42650e-01,-8.23638e-02,6.26582e-01,7.48083e-02,-2.68619e-01,5.81585e-02,9.98148e-01,-1.31080e+00,-1.33528e-01,5.90929e-02,5.50396e-01,-6.34886e-02,-6.43912e-01,-1.01853e-01,8.88797e-01,-1.43154e+00,5.01648e-01,-7.12882e-01,-1.11043e+00,-2.68744e-01,-3.33030e-04,-5.53341e-01,-8.21630e-01,-1.45906e-01,-1.16084e-01,4.17451e-01,-3.12154e-02,-3.31885e-01,-5.26198e-01,-2.26811e-01,-2.36638e-02,3.57005e-03,-1.13511e-01,-2.11526e-01,-7.59538e-02,5.16727e-01,7.97520e-01,1.04360e+00,1.03710e+00,8.81307e-01,2.60324e-01,2.13308e-01,2.47014e-01,3.13409e-01,4.68288e-01,5.87602e-01,7.50958e-01,4.98761e-01,-4.74248e-02,-9.10192e-02,1.79295e+00,VALUE,1p,0913,3.255,,,
1.52373e-01,2.05910e+00,1.30995e-01,1.75113e-01,3.69084e-02,2.98013e+00,3.21706e+00,2.83005e+00,4.03089e-02,1.45170e+00,-1.26849e-01,2.74060e-01,4.57470e-01,2.49193e-02,-1.94441e-01,-1.55597e-01,2.83823e-01,6.05783e-01,-7.73126e-01,-2.83066e-01,7.11065e-01,-4.23188e-01,-4.46910e-04,-3.06716e+00,7.06901e-01,-6.75531e-01,-1.03496e-01,6.86215e-01,5.98613e-02,-3.96761e-01,-1.60297e-01,9.54976e-01,-1.28889e+00,-7.38844e-02,9.72732e-02,5.64375e-01,-6.14958e-02,-5.51397e-01,-9.10182e-02,8.18468e-01,-1.52115e+00,5.13096e-01,-7.13675e-01,-1.07171e+00,-2.16604e-01,2.39206e-04,-4.47575e-01,-8.47485e-01,-1.06813e-01,-1.07508e-01,3.00037e-01,-1.03999e-02,-2.53409e-01,-5.21529e-01,-2.23439e-01,-2.83699e-02,-2.33204e-03,-1.22349e-01,-2.20785e-01,-9.55595e-02,4.94734e-01,7.85042e-01,1.03438e+00,1.02145e+00,8.34937e-01,2.54396e-01,2.09975e-01,2.44726e-01,3.08533e-01,4.62659e-01,5.85142e-01,7.71450e-01,5.20123e-01,-4.71297e-02,-7.33683e-02,1.75532e+00,VALUE,1p,0925,3.26,,,
1.43487e-01,2.05469e+00,1.31185e-01,1.70808e-01,3.66437e-02,2.98030e+00,3.21485e+00,2.83041e+00,2.72044e-02,1.41994e+00,1.75910e-02,2.24906e-02,3.20918e-01,8.67447e-02,1.96289e-01,-1.06698e-01,-1.43316e-01,1.18028e+00,-7.57573e-01,-2.75424e-01,6.92274e-01,-2.58581e-01,-5.08028e-04,-3.01197e+00,9.25998e-01,-7.70793e-01,-4.26214e-02,3.06400e-01,1.03114e-01,1.54635e-02,4.01036e-01,9.33872e-01,-1.24892e+00,-2.04724e-01,-1.61019e-01,4.43605e-01,-6.84337e-02,-7.19175e-01,-1.07398e-01,9.12431e-01,-1.11886e+00,4.78901e-01,-6.97247e-01,-1.06858e+00,-3.57047e-01,2.83882e-05,-4.83377e-01,-5.87274e-01,-2.06319e-01,-1.09528e-01,4.60608e-01,-2.93012e-02,-3.25841e-01,-1.31390e-01,-2.06060e-01,-2.54398e-02,-3.07051e-04,-1.23802e-01,-2.21825e-01,-1.00722e-01,4.93489e-01,7.86010e-01,1.03575e+00,1.02401e+00,8.26124e-01,2.59692e-01,2.13351e-01,2.46278e-01,3.09347e-01,4.61492e-01,5.82719e-01,7.71066e-01,5.19269e-01,-4.70455e-02,-6.49381e-02,1.75447e+00,VALUE,1p,0930,3.265,,,
1.36721e-01,2.04344e+00,1.31310e-01,1.68196e-01,3.61317e-02,2.98011e+00,3.21416e+00,2.83097e+00,1.82532e-02,1.41350e+00,-1.49626e-01,6.43108e-01,6.51128e-01,-2.74029e-02,-3.15361e-01,-1.64602e-01,5.32316e-01,-1.60797e-01,-7.41666e-01,-2.59131e-01,7.13267e-01,-4.00095e-01,1.27264e-04,-2.95437e+00,2.74869e-01,-4.03880e-01,-1.51295e-01,8.06359e-01,3.83221e-02,-6.80404e-01,-9.81831e-01,9.08117e-01,-1.18893e+00,1.91759e-01,7.33017e-02,5.47184e-01,-1.43591e-03,-1.16579e-01,-4.59980e-02,3.91355e-01,-1.27793e+00,4.48553e-01,-6.88622e-01,-1.02514e+00,3.83097e-02,5.04006e-04,-5.08215e-01,-8.07846e-01,-8.84144e-02,-3.93830e-02,-1.68441e-01,4.24830e-02,2.22888e-01,-2.25430e-01,-1.97368e-01,-2.37316e-02,5.77101e-05,-1.26074e-01,-2.23844e-01,-1.05458e-01,4.93530e-01,7.87866e-01,1.03726e+00,1.02677e+00,8.25924e-01,2.61398e-01,2.12852e-01,2.45439e-01,3.07440e-01,4.58191e-01,5.78815e-01,7.68941e-01,5.16700e-01,-5.07131e-02,-5.98208e-02,1.75015e+00,VALUE,1p,0943,3.27,,,
1.30528e-01,2.07385e+00,1.31172e-01,1.67431e-01,3.57526e-02,2.98021e+00,3.21479e+00,2.83127e+00,3.72431e-02,1.39573e+00,-1.75246e-01,4.25044e-01,5.52693e-01,-1.42304e-02,-2.61802e-01,-1.51388e-01,4.33739e-01,2.37038e-01,-7.39359e-01,-2.56428e-01,7.30697e-01,-4.05890e-01,1.05421e-04,-2.96453e+00,4.77626e-01,-4.96686e-01,-1.35268e-01,7.35020e-01,4.88271e-02,-5.91337e-01,-5.97131e-01,8.91432e-01,-1.16906e+00,6.70190e-02,9.53325e-02,5.77617e-01,-3.63796e-02,-3.69394e-01,-7.73127e-02,6.38565e-01,-1.45623e+00,4.50427e-01,-6.84436e-01,-9.93813e-01,-8.68862e-02,4.50748e-04,-4.44103e-01,-8.27358e-01,-4.75545e-02,-7.22331e-02,6.26838e-02,2.33293e-02,-9.99244e-03,-3.24975e-01,-2.00578e-01,-2.83220e-02,-5.94968e-03,-1.32530e-01,-2.30306e-01,-1.16207e-01,4.82706e-01,7.82140e-01,1.03634e+00,1.02816e+00,8.04326e-01,2.56933e-01,2.10001e-01,2.43576e-01,3.02488e-01,4.52178e-01,5.74499e-01,7.74405e-01,5.23452e-01,-5.07527e-02,-4.62046e-02,1.74490e+00,VALUE,1p,0950,3.275,,,
1.26512e-01,2.06341e+00,1.31026e-01,1.65651e-01,3.52777e-02,2.97993e+00,3.21499e+00,2.83173e+00,3.01640e-02,1.39486e+00,-1.43194e-01,2.08863e-01,4.19369e-01,1.06615e-02,-9.35523e-02,-1.26525e-01,2.30297e-01,6.70968e-01,-7.27470e-01,-2.40754e-01,7.49407e-01,-3.50143e-01,-4.99170e-05,-2.91913e+00,6.69862e-01,-6.02097e-01,-1.03527e-01,5.49004e-01,6.78442e-02,-4.00354e-01,-2.01784e-01,8.73334e-01,-1.12067e+00,-6.02046e-02,2.13118e-02,5.65287e-01,-6.32411e-02,-5.67651e-01,-9.87465e-02,8.29063e-01,-1.42321e+00,4.30020e-01,-6.79051e-01,-9.54183e-01,-2.15193e-01,4.70780e-04,-4.62611e-01,-7.38281e-01,-5.40699e-02,-9.78259e-02,2.37076e-01,1.21931e-02,-1.79641e-01,-2.11536e-01,-1.96196e-01,-2.68029e-02,-6.09936e-03,-1.34497e-01,-2.31878e-01,-1.19127e-01,4.83686e-01,7.84203e-01,1.03715e+00,1.02921e+00,8.08321e-01,2.55641e-01,2.07612e-01,2.41997e-01,3.00209e-01,4.49573e-01,5.71368e-01,7.71768e-01,5.20213e-01,-5.16714e-02,-4.64667e-02,1.74112e+00,VALUE,1p,0960,3.28,,,
1.24871e-01,2.05950e+00,1.31187e-01,1.63985e-01,3.49806e-02,2.97979e+00,3.21545e+00,2.83199e+00,4.03306e-02,1.36455e+00,1.85436e-01,2.85983e-02,2.31998e-01,1.24015e-01,5.52857e-01,-5.92540e-02,-5.14354e-01,1.23820e+00,-7.08467e-01,-2.40247e-01,7.39710e-01,-4.68530e-03,-4.46092e-04,-2.87969e+00,8.21293e-01,-7.72310e-01,1.38891e-02,-1.12939e-01,1.31032e-01,3.44803e-01,3.66042e-01,8.52127e-01,-1.09450e+00,-1.82130e-01,-5.21100e-01,2.64753e-01,-4.47524e-02,-5.38651e-01,-8.99652e-02,7.23047e-01,-5.34850e-01,4.31307e-01,-6.62942e-01,-9.33341e-01,-3.39170e-01,1.75070e-04,-4.23233e-01,-1.97179e-01,-3.33181e-01,-7.78474e-02,1.94051e-01,2.28195e-02,-6.78366e-02,7.20373e-01,-1.93676e-01,-2.65564e-02,-6.48467e-03,-1.36243e-01,-2.33231e-01,-1.22317e-01,4.80843e-01,7.83121e-01,1.03761e+00,1.03052e+00,7.95553e-01,2.55993e-01,2.06686e-01,2.41134e-01,2.98670e-01,4.48907e-01,5.70780e-01,7.73367e-01,5.22261e-01,-4.88554e-02,-3.71010e-02,1.74108e+00,VALUE,1p,0971,3.285,,,
1.24248e-01,2.00099e+00,1.31191e-01,1.63215e-01,3.49735e-02,2.97968e+00,3.21656e+00,2.83213e+00,5.72244e-02,1.38455e+00,-1.79935e-01,4.59413e-01,6.16620e-01,-3.30975e-02,-2.56460e-01,-1.42650e-01,4.69013e-01,1.78275e-01,-7.27235e-01,-2.48792e-01,7.64111e-01,-3.62596e-01,5.57295e-04,-2.94050e+00,3.87799e-01,-4.00766e-01,-1.42587e-01,6.99770e-01,5.04905e-02,-6.42414e-01,-7.15296e-01,8.58881e-01,-1.10542e+00,1.19024e-01,5.60496e-02,5.58544e-01,-1.53602e-02,-3.13007e-01,-7.47141e-02,5.31652e-01,-1.40956e+00,4.53969e-01,-6.67616e-01,-9.27029e-01,-4.62355e-02,2.37891e-04,-3.77712e-01,-7.97454e-01,-4.23756e-02,-4.85014e-02,-4.84816e-02,4.01802e-02,1.41355e-01,-9.02951e-02,-1.94070e-01,-2.80649e-02,-8.09460e-03,-1.37336e-01,-2.34201e-01,-1.23559e-01,4.78554e-01,7.81426e-01,1.03831e+00,1.03484e+00,7.95540e-01,2.53141e-01,2.05019e-01,2.39525e-01,2.95983e-01,4.46448e-01,5.69516e-01,7.72748e-01,5.22661e-01,-5.09621e-02,-3.62238e-02,1.74150e+00,VALUE,1p,0980,3.29,,,
1.24543e-01,2.03450e+00,1.31814e-01,1.61303e-01,3.47973e-02,2.97974e+00,3.21698e+00,2.83237e+00,4.21232e-02,1.37385e+00,1.28824e-01,1.22808e-02,2.14995e-01,1.06680e-01,4.83112e-01,-6.33192e-02,-4.29308e-01,1.20555e+00,-7.04019e-01,-2.35040e-01,7.60284e-01,-3.59983e-02,-2.51991e-04,-2.86157e+00,8.16337e-01,-7.65506e-01,1.63034e-03,-4.28061e-02,1.23099e-01,2.43970e-01,2.98244e-01,8.34726e-01,-1.04670e+00,-1.74397e-01,-4.53025e-01,3.35546e-01,-5.73951e-02,-5.76379e-01,-9.50287e-02,7.98689e-01,-6.77571e-01,4.34464e-01,-6.58418e-01,-8.97427e-01,-3.46051e-01,4.64574e-04,-4.23937e-01,-2.69377e-01,-2.59783e-01,-9.03590e-02,2.16701e-01,2.22201e-02,-1.25105e-01,6.42883e-01,-1.89192e-01,-2.64264e-02,-6.07725e-03,-1.35539e-01,-2.30928e-01,-1.20801e-01,4.83217e-01,7.84431e-01,1.03785e+00,1.03110e+00,7.88406e-01,2.56727e-01,2.06222e-01,2.40275e-01,2.97832e-01,4.49322e-01,5.69583e-01,7.69792e-01,5.18991e-01,-4.74446e-02,-3.00880e-02,1.73583e+00,VALUE,1p,0991,3.295,,,
