,id,id,id,id,id,id,id,id,m0_2900,m0_2900,m0_2900,m0_2900,m0_2900,m0_2900,m0_2900,m0_2900,m0_3130,m0_3130,m0_3130,m0_3130,m0_3130,m0_3130,m0_3130,m0_3130,m0_3189,m0_3189,m0_3189,m0_3189,m0_3189,m0_3189,m0_3189,m0_3189,width_2900,width_2900,width_2900,width_2900,width_2900,width_2900,width_2900,width_2900,width_3130,width_3130,width_3130,width_3130,width_3130,width_3130,width_3130,width_3130,width_3189,width_3189,width_3189,width_3189,width_3189,width_3189,width_3189,width_3189,width_NR0m,width_NR0m,width_NR0m,width_NR0m,width_NR0m,width_NR0m,width_NR0m,width_NR0m
,count,mean,std,min,25%,50%,75%,max,count,mean,std,min,25%,50%,75%,max,count,mean,std,min,25%,50%,75%,max,count,mean,std,min,25%,50%,75%,max,count,mean,std,min,25%,50%,75%,max,count,mean,std,min,25%,50%,75%,max,count,mean,std,min,25%,50%,75%,max,count,mean,std,min,25%,50%,75%,max
state_undetailed,,,,,,,,,,,,,,,,,,,,,,,,,,,,,,,,,,,,,,,,,,,,,,,,,,,,,,,,,,,,,,,,
Lc2860_mass,117.0,866.5555555555555,48.733873450157226,800.0,830.0,859.0,888.0,994.0,117.0,2.827611965811965,0.0010636763178551297,2.825,2.8279,2.8281,2.8281,2.8284,117.0,3.2518076923076924,0.0003494216517564326,3.2511,3.2516,3.2517,3.252,3.2528,117.0,2.9872452991452985,0.00019891764302380795,2.9868,2.9871,2.9872,2.9874,2.9878,117.0,0.03613637606837606,0.00032794424269819383,0.035296,0.036183,0.036238,0.036319,0.036471,117.0,0.21074572649572654,0.0008247761621518859,0.20964,0.21022,0.21047,0.21084,0.21291,117.0,0.11999008547008545,0.0018787984493610652,0.11894,0.11914,0.11921,0.11934,0.12464,117.0,1.7430538461538458,0.043648200852564156,1.6646,1.7115,1.7318,1.7708,1.9027
Lc2860_width,99.0,1051.2222222222222,30.788467081285802,1000.0,1025.5,1051.0,1075.5,1154.0,99.0,2.8269393939393943,0.00040778600375788706,2.8266,2.8268,2.8269,2.8269,2.8297,99.0,3.2514262626262624,0.00045548490836931686,3.2508,3.2512,3.2513,3.2516,3.2542,99.0,2.9899191919191916,0.0014810143220019443,2.9795,2.99,2.9901,2.9902,2.9905,99.0,0.037179797979797986,0.0006002600453442604,0.033029,0.0372065,0.037248,0.037311,0.037545,99.0,0.20913151515151518,0.0007661330992644144,0.20792,0.208765,0.20894,0.20930500000000002,0.21375,99.0,0.11833222222222221,0.0006821941724237226,0.11797,0.11815500000000001,0.11821,0.11833,0.12294,99.0,1.731582828282828,0.038580877256464446,1.6655,1.7077499999999999,1.7284,1.7441,1.9368
Lc2880_mass,116.0,1268.8793103448277,51.924218220220794,1200.0,1229.75,1258.5,1291.25,1399.0,116.0,2.8272077586206894,0.00010966420054674811,2.827,2.8271,2.8272,2.8273,2.8274,116.0,3.2522801724137933,0.00022773738788591397,3.2517,3.2521,3.25225,3.2525,3.2528,116.0,2.986768965517242,0.0001903834999716713,2.9863,2.986675,2.9868,2.9869,2.9872,116.0,0.03619236206896552,8.186036855542471e-05,0.036023,0.03612975,0.036195,0.03625225,0.036375,116.0,0.21132577586206897,0.0003393885828882606,0.21051,0.21107,0.21128,0.21158,0.21214,116.0,0.12070793103448275,0.00012870267212103454,0.12042,0.12063,0.12069,0.1207925,0.12113,116.0,1.7327568965517242,0.03736630713016376,1.6721,1.7123499999999998,1.7255500000000001,1.749325,1.8607
Lc2880_width,152.0,1487.842105263158,59.94711855755107,1400.0,1437.75,1477.5,1535.25,1599.0,152.0,2.827451973684211,0.00016315206198319696,2.827,2.8273,2.8275,2.8276,2.8278,152.0,3.2519269736842102,0.00022344989059642153,3.2512,3.2518,3.2519,3.2521,3.2524,152.0,2.986994078947368,0.00026425793957170473,2.9865,2.9868,2.9869,2.9872,2.9876,152.0,0.036061473684210525,9.879351316402505e-05,0.035813,0.03598775,0.0360635,0.03613525,0.036266,152.0,0.21090111842105264,0.0003788017869949961,0.20992,0.2106475,0.21093,0.21112,0.21211,152.0,0.12041671052631578,0.00017360523199836,0.12004,0.1203,0.12043,0.12052,0.12093,152.0,1.7358868421052633,0.03571554781218641,1.6605,1.71345,1.7328000000000001,1.7558,1.8515
Lc2940_mass,193.0,1699.9844559585492,58.306792475585716,1600.0,1650.0,1700.0,1750.0,1799.0,193.0,2.8273839378238343,0.00021842484469639952,2.8269,2.8272,2.8274,2.8276,2.8278,193.0,3.252,0.0002121320343560118,3.2515,3.2518,3.252,3.2522,3.2525,193.0,2.9870906735751293,0.0005004332104288436,2.9862,2.9866,2.9869,2.9876,2.988,193.0,0.03610639896373057,7.409826948442995e-05,0.035954,0.036053,0.036105,0.036157,0.036291,193.0,0.2110988601036269,0.0004965587265054757,0.21009,0.2107,0.21109,0.21144,0.21219,193.0,0.12040689119170984,0.00029178986726882764,0.11986,0.12016,0.12042,0.12065,0.12136,193.0,1.7294165803108812,0.031215685071688218,1.6711,1.7081,1.7235,1.7448,1.8383
Lc2940_width,110.0,1864.4818181818182,46.3698201079902,1800.0,1827.25,1859.5,1886.75,1995.0,110.0,2.8273781818181813,0.00010080576125027233,2.8271,2.8273,2.8274,2.8274,2.8276,110.0,3.251524545454546,0.0003574081940597014,3.2508,3.2513,3.2514,3.2516,3.2526,110.0,2.9882809090909093,0.0010420952301608381,2.9854,2.9885,2.9887,2.9888,2.9892,110.0,0.036129972727272724,8.505674944130694e-05,0.035928,0.03608025,0.0361305,0.0361775,0.036352,110.0,0.21058336363636365,0.0003626843783492503,0.20921,0.210305,0.210565,0.21084250000000002,0.21154,110.0,0.12076881818181817,0.0004605137374918166,0.11937,0.12082,0.12092,0.1210175,0.12134,110.0,1.7289190909090908,0.03677133530460108,1.6069,1.7070500000000002,1.7236500000000001,1.7471750000000001,1.8545
f21950_mass,129.0,524.1472868217054,52.015487593719655,403.0,493.0,533.0,566.0,599.0,129.0,2.8273596899224804,0.0005130362103212759,2.8263,2.8266,2.8276,2.8277,2.8278,129.0,3.2524077519379837,0.001149973668387445,3.2504,3.2508,3.253,3.2532,3.2536,129.0,2.9877209302325585,0.00043042029216455946,2.9872,2.9874,2.9875,2.9882,2.9886,129.0,0.036527395348837206,0.0004995281119874011,0.03561,0.035793,0.03677,0.036871,0.037027,129.0,0.21123054263565894,0.001372563358099044,0.20845,0.20962,0.21187,0.21215,0.21276,129.0,0.12128751937984497,0.0006677785362300985,0.11985,0.12045,0.12162,0.12172,0.12204,129.0,1.74196511627907,0.07371799586426767,1.5257,1.6989,1.7183,1.7923,1.9666
f21950_width,191.0,696.848167539267,56.82311412846003,600.0,648.5,696.0,746.5,796.0,191.0,2.827390575916231,0.00015497090812238896,2.827,2.8273,2.8274,2.8275,2.8277,191.0,3.251958115183246,0.0003886882221413976,3.2512,3.2516,3.252,3.2523,3.2529,191.0,2.987090052356021,0.00020661557841656389,2.9865,2.987,2.9871,2.9872,2.9877,191.0,0.03609172251308901,0.00011825521671354264,0.035834,0.035986000000000004,0.036099,0.0361745,0.036379,191.0,0.21104387434554975,0.0006106068292422968,0.20971,0.210485,0.21112,0.21153,0.21229,191.0,0.1204033507853403,0.00019904846668961142,0.11996,0.120255,0.12042,0.12055,0.12095,191.0,1.7277937172774869,0.0312512679709693,1.6391,1.7093,1.7234,1.7468,1.8423
f22150_mass,95.0,149.41052631578947,29.029513498771625,100.0,124.5,149.0,174.5,199.0,95.0,2.827084210526316,0.00011328347936272344,2.8268,2.827,2.8271,2.8272,2.8275,95.0,3.252274736842105,0.00019349441745351612,3.2518,3.2522,3.2522,3.2524,3.2528,95.0,2.9863873684210542,0.00018522103257205435,2.9858,2.9863,2.9864,2.9865,2.9869,95.0,0.03604455789473684,7.671094068679266e-05,0.035888,0.035999,0.036042,0.036077,0.036311,95.0,0.20916747368421054,0.0002882853507361198,0.2086,0.208925,0.20913,0.20942,0.20981,95.0,0.11939305263157894,0.00013843405131018136,0.11908,0.119295,0.11938,0.11949499999999999,0.1197,95.0,1.7130431578947372,0.02839666467016326,1.5732,1.69835,1.7132,1.7276500000000001,1.7895
f22150_width,177.0,294.61581920903956,56.7475407810277,200.0,247.0,291.0,344.0,397.0,177.0,2.82705593220339,0.00011717001988272911,2.8267,2.827,2.8271,2.8271,2.8274,177.0,3.2524192090395485,0.0009001726137043523,3.2512,3.2516,3.2519,3.2533,3.2541,177.0,2.987063276836158,0.000538787039620109,2.986,2.9866,2.9873,2.9875,2.988,177.0,0.036396502824858755,0.0007661886422437612,0.035541,0.035702,0.035794,0.037222,0.037507,177.0,0.21173084745762713,0.0017795788777911568,0.20967,0.21013,0.21062,0.21349,0.21471,177.0,0.12025836158192091,0.0010065806906043267,0.11907,0.11933,0.11953,0.12132,0.12187,177.0,1.7202525423728812,0.039992681244931626,1.5868,1.7002,1.7165,1.7333,1.9023
