id,m0_2900,width_2900,m0_3130,width_3130,m0_3189,width_3189,width_NR0m,state,state_undetailed
903,2.8168,0.030719,3.2535,0.20136,2.9722,0.14422,0.96469,Lc2860_mass_m,Lc2860_mass
806,2.8202,0.037142,3.2571,0.20025,2.9685,0.13483,-0.129436,Lc2860_mass_p,Lc2860_mass
1166,2.8173,0.038222,3.2534,0.20546,2.9639,0.14023,0.98758,Lc2860_width_m,Lc2860_width
1065,2.8195,0.039679,3.2622,0.20322,2.9683,0.12811,-0.0912225,Lc2860_width_p,Lc2860_width
1369,2.8191,0.040356,3.2605,0.20408,2.9663,0.13380,-0.118347,Lc2880_mass_m,Lc2880_mass
1203,2.8225,0.039533,3.2590,0.20260,2.9690,0.13647,-0.156855,Lc2880_mass_p,Lc2880_mass
1578,2.8207,0.040159,3.2588,0.20417,2.9686,0.13646,-0.113864,Lc2880_width_m,Lc2880_width
1470,2.8223,0.037702,3.2598,0.20247,2.9680,0.13652,-0.0800647,Lc2880_width_p,Lc2880_width
1702,2.8168,0.039738,3.2540,0.20777,2.9663,0.13562,0.96711,Lc2940_mass_m,Lc2940_mass
1616,2.8178,0.036638,3.2553,0.20832,2.9695,0.13892,1.1838,Lc2940_mass_p,Lc2940_mass
1922,2.8174,0.034804,3.2604,0.20663,2.9695,0.13411,-0.0793848,Lc2940_width_m,Lc2940_width
1962,2.8187,0.034659,3.2584,0.20201,2.9693,0.13573,-0.0310908,Lc2940_width_m,Lc2940_width
1859,2.8170,0.042200,3.2575,0.20453,2.9689,0.13692,-0.0291180,Lc2940_width_p,Lc2940_width
524,2.8201,0.035690,3.2558,0.20049,2.9716,0.14080,-0.132005,f21950_mass_m,f21950_mass
440,2.8179,0.037794,3.2580,0.20566,2.9677,0.13557,-0.0944262,f21950_mass_p,f21950_mass
776,2.8218,0.039943,3.2585,0.20225,2.9675,0.13501,-0.143356,f21950_width_m,f21950_width
633,2.8205,0.039659,3.2581,0.20195,2.9672,0.13557,-0.138508,f21950_width_p,f21950_width
177,2.8208,0.041287,3.2590,0.20453,2.9660,0.13525,-0.144980,f22150_mass_m,f22150_mass
315,2.8228,0.036293,3.2606,0.20179,2.9674,0.13390,-0.0435282,f22150_width_m,f22150_width
267,2.8184,0.045248,3.2577,0.20258,2.9674,0.13347,-0.0863179,f22150_width_p,f22150_width
2104,2.8205,0.034829,3.2619,0.20394,2.9719,0.13535,-0.118935,rho2150_mass_m,rho2150_mass
2154,2.8199,0.036808,3.2600,0.20723,2.9715,0.13646,-0.142064,rho2150_mass_m,rho2150_mass
2000,2.8192,0.039973,3.2560,0.20392,2.9669,0.13258,-0.105669,rho2150_mass_p,rho2150_mass
2048,2.8207,0.037629,3.2577,0.19873,2.9671,0.13531,-0.158719,rho2150_mass_p,rho2150_mass
2311,2.8161,0.035795,3.2550,0.20303,2.9672,0.13439,-0.0702634,rho2150_width_m,rho2150_width
2260,2.8178,0.035555,3.2584,0.20424,2.9762,0.14191,-0.0350359,rho2150_width_p,rho2150_width
