id,m0_2900,width_2900,m0_3130,width_3130,m0_3189,width_3189,width_NR0m,state,state_undetailed
1101,2.8050,0.020075,3.2559,0.19215,2.9673,0.15340,1.2728,Lc1_3p,Lc1
1102,2.8050,0.020033,3.2559,0.19227,2.9673,0.15338,1.2744,Lc1_3p,Lc1
1103,2.8050,0.020052,3.2557,0.19218,2.9674,0.15329,1.3339,Lc1_3p,Lc1
1104,2.8050,0.020101,3.2557,0.19213,2.9675,0.15334,1.3569,Lc1_3p,Lc1
1105,2.8050,0.019969,3.2556,0.19210,2.9675,0.15330,1.3373,Lc1_3p,Lc1
1106,2.8050,0.020138,3.2558,0.19201,2.9673,0.15345,1.2808,Lc1_3p,Lc1
1108,2.8050,0.020042,3.2559,0.19223,2.9674,0.15341,1.3249,Lc1_3p,Lc1
1109,2.8050,0.019985,3.2557,0.19218,2.9674,0.15331,1.3073,Lc1_3p,Lc1
1110,2.8050,0.020077,3.2557,0.19212,2.9674,0.15331,1.3579,Lc1_3p,Lc1
1111,2.8050,0.020061,3.2557,0.19217,2.9674,0.15331,1.3466,Lc1_3p,Lc1
1112,2.8050,0.019942,3.2557,0.19208,2.9674,0.15336,1.3112,Lc1_3p,Lc1
1113,2.8050,0.020012,3.2559,0.19222,2.9673,0.15341,1.2912,Lc1_3p,Lc1
1116,2.8050,0.020021,3.2558,0.19209,2.9673,0.15342,1.2802,Lc1_3p,Lc1
1118,2.8050,0.020064,3.2557,0.19206,2.9673,0.15339,1.3071,Lc1_3p,Lc1
1119,2.8050,0.020008,3.2556,0.19192,2.9674,0.15321,1.3516,Lc1_3p,Lc1
1120,2.8050,0.020026,3.2557,0.19218,2.9674,0.15336,1.3252,Lc1_3p,Lc1
1121,2.8050,0.020078,3.2558,0.19221,2.9673,0.15321,1.3189,Lc1_3p,Lc1
1122,2.8050,0.020003,3.2558,0.19229,2.9674,0.15327,1.3453,Lc1_3p,Lc1
1123,2.8050,0.020132,3.2556,0.19205,2.9675,0.15335,1.3322,Lc1_3p,Lc1
1124,2.8050,0.020106,3.2558,0.19217,2.9674,0.15340,1.2865,Lc1_3p,Lc1
1125,2.8050,0.020014,3.2558,0.19216,2.9674,0.15332,1.3005,Lc1_3p,Lc1
1126,2.8050,0.020078,3.2558,0.19217,2.9673,0.15340,1.2948,Lc1_3p,Lc1
1128,2.8050,0.019972,3.2557,0.19220,2.9674,0.15330,1.3587,Lc1_3p,Lc1
1129,2.8050,0.020025,3.2558,0.19210,2.9673,0.15343,1.2715,Lc1_3p,Lc1
1130,2.8050,0.020059,3.2559,0.19225,2.9673,0.15332,1.2889,Lc1_3p,Lc1
1132,2.8050,0.020117,3.2558,0.19221,2.9673,0.15344,1.2814,Lc1_3p,Lc1
1133,2.8050,0.020080,3.2557,0.19193,2.9674,0.15335,1.2933,Lc1_3p,Lc1
1134,2.8050,0.020150,3.2559,0.19221,2.9673,0.15348,1.2747,Lc1_3p,Lc1
1135,2.8050,0.020258,3.2557,0.19189,2.9673,0.15339,1.2544,Lc1_3p,Lc1
1136,2.8050,0.020073,3.2557,0.19213,2.9675,0.15328,1.3359,Lc1_3p,Lc1
1137,2.8050,0.020141,3.2557,0.19205,2.9673,0.15339,1.2887,Lc1_3p,Lc1
1138,2.8050,0.020055,3.2558,0.19209,2.9674,0.15336,1.2921,Lc1_3p,Lc1
1139,2.8050,0.020061,3.2558,0.19218,2.9673,0.15336,1.3035,Lc1_3p,Lc1
1140,2.8050,0.020068,3.2558,0.19215,2.9673,0.15343,1.2823,Lc1_3p,Lc1
1143,2.8050,0.020016,3.2558,0.19221,2.9674,0.15337,1.3167,Lc1_3p,Lc1
1144,2.8050,0.020014,3.2557,0.19197,2.9676,0.15330,1.3283,Lc1_3p,Lc1
1145,2.8050,0.020067,3.2558,0.19217,2.9674,0.15343,1.2798,Lc1_3p,Lc1
1147,2.8050,0.020083,3.2557,0.19215,2.9674,0.15326,1.3399,Lc1_3p,Lc1
1148,2.8050,0.020010,3.2557,0.19215,2.9674,0.15333,1.2908,Lc1_3p,Lc1
1149,2.8050,0.020078,3.2558,0.19210,2.9674,0.15339,1.3114,Lc1_3p,Lc1
3000,2.8175,0.029882,3.2471,0.17639,2.9781,0.13670,-0.0410441,Lc3_1p,Lc3
3009,2.8175,0.029912,3.2472,0.17655,2.9782,0.13711,-0.0415896,Lc3_1p,Lc3
3016,2.8176,0.029843,3.2472,0.17664,2.9781,0.13667,-0.0406244,Lc3_1p,Lc3
3018,2.8177,0.029789,3.2468,0.17683,2.9779,0.13778,-0.0430758,Lc3_1p,Lc3
3019,2.8177,0.029801,3.2472,0.17694,2.9782,0.13729,-0.0409147,Lc3_1p,Lc3
3021,2.8175,0.029858,3.2471,0.17655,2.9779,0.13708,-0.0429574,Lc3_1p,Lc3
3028,2.8176,0.029892,3.2470,0.17649,2.9779,0.13710,-0.0424304,Lc3_1p,Lc3
3030,2.8176,0.029954,3.2471,0.17646,2.9778,0.13679,-0.0417176,Lc3_1p,Lc3
3037,2.8176,0.029944,3.2471,0.17664,2.9781,0.13688,-0.0411146,Lc3_1p,Lc3
3039,2.8176,0.029752,3.2470,0.17659,2.9780,0.13675,-0.0414031,Lc3_1p,Lc3
3040,2.8176,0.029662,3.2471,0.17655,2.9780,0.13712,-0.0422840,Lc3_1p,Lc3
3042,2.8175,0.029892,3.2470,0.17635,2.9779,0.13683,-0.0417585,Lc3_1p,Lc3
3048,2.8177,0.030004,3.2472,0.17624,2.9781,0.13656,-0.0412770,Lc3_1p,Lc3
