state,nll,id,status,state_undetailed
beta_5_88,-11130.4,9,CONVERGED,beta
beta_5_88,-11130.4,27,CONVERGED,beta
beta_5_88,-11130.4,33,CONVERGED,beta
beta_5_88,-11130.4,40,CONVERGED,beta
beta_5_88,-11130.4,54,CONVERGED,beta
beta_6_16,-11130.4,103,CONVERGED,beta
beta_6_16,-11130.4,119,CONVERGED,beta
beta_6_16,-11130.4,136,CONVERGED,beta
beta_6_16,-11130.4,159,CONVERGED,beta
beta_6_16,-11130.4,165,CONVERGED,beta
