                                logs//fit-0000.log  -11130.30    67    CONVERGED  
                                logs//fit-0100.log  -11116.00    67    CONVERGED  
                                logs//fit-0001.log  -11127.20    67    CONVERGED  
                                logs//fit-0101.log  -11130.30    67    CONVERGED  
                                logs//fit-0102.log  -11129.80    67    CONVERGED  
                                logs//fit-0002.log  -11130.10    67       FAILED  
                                logs//fit-0103.log  -11130.40    67    CONVERGED  
                                logs//fit-0003.log  -11126.80    67       FAILED  
                                logs//fit-0104.log  -11118.70    67       FAILED  
                                logs//fit-0004.log  -11130.30    67       FAILED  
                                logs//fit-0105.log   -9851.52    67    CONVERGED  
                                logs//fit-0106.log  -11130.20    67    CONVERGED  
                                logs//fit-0005.log  -11130.10    67    CONVERGED  
                                logs//fit-0107.log  -11130.10    67    CONVERGED  
                                logs//fit-0006.log  -11129.80    67    CONVERGED  
                                logs//fit-0108.log  -10793.50    67    CONVERGED  
                                logs//fit-0007.log  -11130.00    67    CONVERGED  
                                logs//fit-0109.log  -11130.30    67    CONVERGED  
                                logs//fit-0110.log  -11130.30    67    CONVERGED  
                                logs//fit-0008.log  -11130.20    67    CONVERGED  
                                logs//fit-0111.log  -11129.70    67    CONVERGED  
                                logs//fit-0009.log  -11130.40    67    CONVERGED  
                                logs//fit-0112.log  -11130.20    67       FAILED  
                                logs//fit-0010.log  -11130.20    67    CONVERGED  
                                logs//fit-0011.log  -10130.40    67    CONVERGED  
                                logs//fit-0113.log  -11130.20    67    CONVERGED  
                                logs//fit-0012.log  -11130.20    67    CONVERGED  
                                logs//fit-0114.log  -11128.30    67    CONVERGED  
                                logs//fit-0013.log  -11118.20    67    CONVERGED  
                                logs//fit-0115.log  -11130.30    67    CONVERGED  
                                logs//fit-0014.log  -11128.00    67    CONVERGED  
                                logs//fit-0015.log  -11125.00    67    CONVERGED  
                                logs//fit-0116.log  -11130.30    67    CONVERGED  
                                logs//fit-0016.log  -11129.50    67    CONVERGED  
                                logs//fit-0117.log  -11129.50    67    CONVERGED  
                                logs//fit-0017.log  -10474.70    67    CONVERGED  
                                logs//fit-0118.log  -11118.90    67    CONVERGED  
                                logs//fit-0018.log  -11130.30    67       FAILED  
                                logs//fit-0119.log  -11130.40    67    CONVERGED  
                                logs//fit-0019.log  -11129.00    67    CONVERGED  
                                logs//fit-0120.log  -11121.50    67       FAILED  
                                logs//fit-0020.log  -11127.10    67    CONVERGED  
                                logs//fit-0021.log  -11130.10    67    CONVERGED  
                                logs//fit-0022.log  -11130.20    67    CONVERGED  
                                logs//fit-0121.log  -11130.00    67    CONVERGED  
                                logs//fit-0023.log  -11129.90    67    CONVERGED  
                                logs//fit-0122.log  -11130.20    67    CONVERGED  
                                logs//fit-0024.log  -11130.20    67    CONVERGED  
                                logs//fit-0123.log  -11130.30    67    CONVERGED  
                                logs//fit-0025.log  -11129.70    67       FAILED  
                                logs//fit-0124.log  -11123.60    67       FAILED  
                                logs//fit-0026.log  -11119.40    67    CONVERGED  
                                logs//fit-0125.log  -11130.30    67    CONVERGED  
                                logs//fit-0027.log  -11130.40    67    CONVERGED  
                                logs//fit-0126.log  -11130.10    67       FAILED  
                                logs//fit-0028.log  -11130.20    67    CONVERGED  
                                logs//fit-0029.log  -11130.30    67    CONVERGED  
                                logs//fit-0127.log  -11025.50    67    CONVERGED  
                                logs//fit-0128.log  -11130.10    67    CONVERGED  
                                logs//fit-0030.log  -11130.20    67    CONVERGED  
                                logs//fit-0031.log  -11126.50    67    CONVERGED  
                                logs//fit-0129.log  -11130.20    67    CONVERGED  
                                logs//fit-0032.log  -11129.70    67       FAILED  
                                logs//fit-0130.log  -11123.80    67       FAILED  
                                logs//fit-0033.log  -11130.40    67    CONVERGED  
                                logs//fit-0034.log  -11128.90    67       FAILED  
                                logs//fit-0131.log  -11128.70    67    CONVERGED  
                                logs//fit-0035.log  -11130.00    67       FAILED  
                                logs//fit-0132.log  -11130.30    67    CONVERGED  
                                logs//fit-0036.log  -11130.30    67    CONVERGED  
                                logs//fit-0133.log  -11129.70    67    CONVERGED  
                                logs//fit-0037.log  -11129.80    67    CONVERGED  
                                logs//fit-0134.log  -11129.80    67    CONVERGED  
                                logs//fit-0038.log  -11127.30    67    CONVERGED  
                                logs//fit-0135.log  -11129.50    67       FAILED  
                                logs//fit-0039.log  -11130.00    67       FAILED  
                                logs//fit-0136.log  -11130.40    67    CONVERGED  
                                logs//fit-0040.log  -11130.40    67    CONVERGED  
                                logs//fit-0137.log  -11128.30    67    CONVERGED  
                                logs//fit-0041.log  -11130.20    67       FAILED  
                                logs//fit-0138.log  -11124.00    67    CONVERGED  
                                logs//fit-0042.log  -11129.20    67    CONVERGED  
                                logs//fit-0139.log  -11129.80    67       FAILED  
                                logs//fit-0043.log  -11130.20    67    CONVERGED  
                                logs//fit-0140.log  -10772.10    67    CONVERGED  
                                logs//fit-0044.log  -11127.00    67       FAILED  
                                logs//fit-0141.log  -11130.20    67    CONVERGED  
                                logs//fit-0142.log  -11130.20    67    CONVERGED  
                                logs//fit-0045.log  -11127.30    67    CONVERGED  
                                logs//fit-0143.log  -11130.10    67    CONVERGED  
                                logs//fit-0046.log  -10652.00    67    CONVERGED  
                                logs//fit-0144.log  -11128.70    67    CONVERGED  
                                logs//fit-0047.log  -11122.40    67       FAILED  
                                logs//fit-0145.log  -11130.30    67    CONVERGED  
                                logs//fit-0048.log  -11129.80    67    CONVERGED  
                                logs//fit-0049.log  -11127.50    67    CONVERGED  
                                logs//fit-0146.log  -10832.50    67    CONVERGED  
                                logs//fit-0147.log  -11130.20    67    CONVERGED  
                                logs//fit-0050.log  -11130.20    67    CONVERGED  
                                logs//fit-0148.log  -11127.00    67    CONVERGED  
                                logs//fit-0051.log  -11130.00    67    CONVERGED  
                                logs//fit-0149.log  -11129.80    67    CONVERGED  
                                logs//fit-0052.log  -11116.30    67    CONVERGED  
                                logs//fit-0053.log  -11130.00    67    CONVERGED  
                                logs//fit-0150.log  -11128.80    67    CONVERGED  
                                logs//fit-0054.log  -11130.40    67    CONVERGED  
                                logs//fit-0151.log  -11129.30    67    CONVERGED  
                                logs//fit-0055.log  -11125.60    67    CONVERGED  
                                logs//fit-0152.log  -11123.50    67    CONVERGED  
                                logs//fit-0056.log  -11125.70    67    CONVERGED  
                                logs//fit-0057.log  -11129.60    67    CONVERGED  
                                logs//fit-0153.log  -11124.20    67       FAILED  
                                logs//fit-0058.log  -10130.40    67    CONVERGED  
                                logs//fit-0059.log  -11126.50    67    CONVERGED  
                                logs//fit-0154.log  -11129.60    67    CONVERGED  
                                logs//fit-0060.log  -11130.20    67    CONVERGED  
                                logs//fit-0061.log  -11128.00    67    CONVERGED  
                                logs//fit-0155.log  -11130.30    67    CONVERGED  
                                logs//fit-0156.log  -10130.40    67    CONVERGED  
                                logs//fit-0062.log  -11130.30    67    CONVERGED  
                                logs//fit-0157.log  -11127.50    67    CONVERGED  
                                logs//fit-0158.log  -11130.30    67    CONVERGED  
                                logs//fit-0063.log  -11130.00    67    CONVERGED  
                                logs//fit-0064.log  -11129.50    67    CONVERGED  
                                logs//fit-0159.log  -11130.40    67    CONVERGED  
                                logs//fit-0065.log  -11130.30    67    CONVERGED  
                                logs//fit-0160.log  -11119.90    67       FAILED  
                                logs//fit-0066.log  -11129.90    67    CONVERGED  
                                logs//fit-0067.log  -11128.70    67    CONVERGED  
                                logs//fit-0161.log  -11127.30    67    CONVERGED  
                                logs//fit-0068.log  -11130.00    67    CONVERGED  
                                logs//fit-0162.log  -11120.80    67    CONVERGED  
                                logs//fit-0069.log  -11125.60    67    CONVERGED  
                                logs//fit-0163.log  -11130.00    67    CONVERGED  
                                logs//fit-0070.log  -11128.10    67    CONVERGED  
                                logs//fit-0071.log  -11130.30    67    CONVERGED  
                                logs//fit-0164.log  -11130.30    67    CONVERGED  
                                logs//fit-0165.log  -11130.40    67    CONVERGED  
                                logs//fit-0072.log  -11083.50    67    CONVERGED  
                                logs//fit-0166.log  -11127.60    67    CONVERGED  
                                logs//fit-0073.log  -11130.30    67    CONVERGED  
                                logs//fit-0167.log  -11130.20    67    CONVERGED  
                                logs//fit-0074.log  -11124.50    67    CONVERGED  
                                logs//fit-0075.log  -11130.10    67    CONVERGED  
                                logs//fit-0168.log  -11130.30    67    CONVERGED  
                                logs//fit-0169.log  -11118.70    67    CONVERGED  
                                logs//fit-0076.log  -11126.20    67       FAILED  
                                logs//fit-0170.log  -11130.10    67       FAILED  
                                logs//fit-0077.log  -11129.80    67    CONVERGED  
                                logs//fit-0171.log  -11130.30    67       FAILED  
                                logs//fit-0078.log  -11130.30    67    CONVERGED  
                                logs//fit-0079.log  -11130.30    67    CONVERGED  
                                logs//fit-0172.log  -11129.90    67    CONVERGED  
                                logs//fit-0080.log  -11130.10    67    CONVERGED  
                                logs//fit-0173.log  -11130.30    67    CONVERGED  
                                logs//fit-0174.log  -11130.00    67    CONVERGED  
                                logs//fit-0081.log  -11130.10    67    CONVERGED  
                                logs//fit-0175.log  -11130.30    67    CONVERGED  
                                logs//fit-0082.log  -11129.90    67    CONVERGED  
                                logs//fit-0083.log  -11127.30    67    CONVERGED  
                                logs//fit-0176.log  -11117.20    67    CONVERGED  
                                logs//fit-0084.log  -11126.30    67    CONVERGED  
                                logs//fit-0177.log  -11129.10    67    CONVERGED  
                                logs//fit-0178.log  -11130.10    67    CONVERGED  
                                logs//fit-0085.log  -11130.30    67    CONVERGED  
                                logs//fit-0179.log  -11129.50    67    CONVERGED  
                                logs//fit-0086.log  -11128.10    67    CONVERGED  
                                logs//fit-0180.log  -11130.10    67    CONVERGED  
                                logs//fit-0087.log  -11130.30    67    CONVERGED  
                                logs//fit-0181.log  -11130.30    67    CONVERGED  
                                logs//fit-0088.log  -11129.70    67    CONVERGED  
                                logs//fit-0182.log  -11127.30    67       FAILED  
                                logs//fit-0089.log  -11129.40    67    CONVERGED  
                                logs//fit-0090.log  -11121.40    67    CONVERGED  
                                logs//fit-0183.log  -11127.60    67    CONVERGED  
                                logs//fit-0091.log  -11127.70    67    CONVERGED  
                                logs//fit-0184.log  -11130.20    67    CONVERGED  
                                logs//fit-0092.log  -11130.30    67    CONVERGED  
                                logs//fit-0185.log  -11130.30    67    CONVERGED  
                                logs//fit-0186.log  -11129.30    67    CONVERGED  
                                logs//fit-0093.log  -11130.00    67    CONVERGED  
                                logs//fit-0094.log  -11127.50    67       FAILED  
                                logs//fit-0187.log  -11118.00    67    CONVERGED  
                                logs//fit-0095.log  -10191.00    67    CONVERGED  
                                logs//fit-0188.log  -11130.00    67    CONVERGED  
                                logs//fit-0096.log  -11127.80    67    CONVERGED  
                                logs//fit-0189.log  -11129.30    67    CONVERGED  
                                logs//fit-0097.log  -11117.80    67    CONVERGED  
                                logs//fit-0190.log  -11130.10    67    CONVERGED  
                                logs//fit-0098.log  -11119.50    67    CONVERGED  
                                logs//fit-0191.log  -11130.30    67       FAILED  
                                logs//fit-0099.log  -11130.20    67    CONVERGED  
                                logs//fit-0192.log  -11127.10    67    CONVERGED  
                                logs//fit-0193.log  -11129.90    67    CONVERGED  
                                logs//fit-0194.log  -11126.90    67    CONVERGED  
                                logs//fit-0195.log  -10762.30    67    CONVERGED  
                                logs//fit-0196.log  -11130.20    67    CONVERGED  
                                logs//fit-0197.log  -11127.50    67    CONVERGED  
                                logs//fit-0198.log  -11126.20    67    CONVERGED  
                                logs//fit-0199.log  -11120.50    67       FAILED  
