SI_00,SI_01,SI_02,SI_03,SI_04,SI_05,SI_06,SI_07,SI_08,SI_09,SI_10,SI_11,SR_00,SR_01,SR_02,SR_03,SR_04,SR_05,SR_06,SR_07,SR_08,SR_09,SR_10,SR_11,ar_H0_Fwave,ai_H0_Fwave,id,state,state_undetailed
1.6354,-0.271572,-0.186359,0.0000,0.55729,0.78958,0.63071,0.51755,0.37982,0.30803,0.24277,0.28171,1.2503,1.0597,1.0418,1.0000,0.72860,0.44199,-0.0418212,-0.209757,-0.170092,-0.0890557,-0.0976823,-0.388461,3.9143,-5.55764,9,beta_5_88,beta
1.6251,-0.273447,-0.177451,0.0000,0.55554,0.79052,0.63431,0.52142,0.38152,0.30889,0.24438,0.28866,1.2569,1.0580,1.0422,1.0000,0.73395,0.44809,-0.0377784,-0.206668,-0.166059,-0.0868381,-0.0966916,-0.387132,3.7191,-5.90294,27,beta_5_88,beta
1.6357,-0.263723,-0.177535,0.0000,0.56307,0.79570,0.63302,0.51939,0.38044,0.30905,0.24476,0.28386,1.2413,1.0603,1.0425,1.0000,0.72680,0.43824,-0.0433535,-0.210600,-0.170593,-0.0914152,-0.0994510,-0.389508,3.7050,-5.53539,33,beta_5_88,beta
1.6378,-0.264758,-0.183418,0.0000,0.55730,0.78883,0.63059,0.51908,0.38089,0.30849,0.24364,0.28300,1.2360,1.0588,1.0397,1.0000,0.72670,0.44089,-0.0401923,-0.208335,-0.168246,-0.0884675,-0.0972782,-0.386400,3.8493,-5.25368,40,beta_5_88,beta
1.6551,-0.239165,-0.168936,0.0000,0.55851,0.79192,0.62418,0.51095,0.37270,0.30116,0.23572,0.26844,1.2163,1.0664,1.0454,1.0000,0.72584,0.43392,-0.0571540,-0.222159,-0.180930,-0.101869,-0.113243,-0.409270,2.6567,-4.41008,54,beta_5_88,beta
1.6580,-0.243716,-0.165499,0.0000,0.55386,0.78811,0.62620,0.51525,0.37998,0.30749,0.24286,0.27906,1.2186,1.0626,1.0461,1.0000,0.73014,0.44189,-0.0465966,-0.211241,-0.171348,-0.0932552,-0.104589,-0.396094,2.7469,-4.47734,103,beta_6_16,beta
1.6426,-0.259789,-0.163649,0.0000,0.56399,0.79845,0.63338,0.51817,0.38019,0.30864,0.24392,0.28454,1.2397,1.0621,1.0457,1.0000,0.72764,0.43758,-0.0488054,-0.215087,-0.171283,-0.0893954,-0.0986253,-0.390383,3.3918,-5.68114,119,beta_6_16,beta
1.6353,-0.259383,-0.169847,0.0000,0.56540,0.79804,0.63188,0.51719,0.37775,0.30624,0.24280,0.27848,1.2313,1.0602,1.0418,1.0000,0.72383,0.43326,-0.0472447,-0.212341,-0.171201,-0.0950200,-0.104121,-0.391839,3.0665,-5.63667,136,beta_6_16,beta
1.6487,-0.260310,-0.177921,0.0000,0.55829,0.79134,0.62795,0.51485,0.38004,0.30939,0.24468,0.28566,1.2353,1.0627,1.0428,1.0000,0.72628,0.43743,-0.0494213,-0.216176,-0.174029,-0.0916248,-0.0988169,-0.388938,4.3638,-5.29577,159,beta_6_16,beta
1.6456,-0.257754,-0.172576,0.0000,0.55635,0.79012,0.62724,0.51368,0.37844,0.30732,0.24345,0.28308,1.2314,1.0618,1.0428,1.0000,0.72761,0.43913,-0.0481298,-0.214298,-0.171600,-0.0921877,-0.101328,-0.390644,3.5336,-5.31851,165,beta_6_16,beta
